// EVENT 4723
Name "Junk Doll Girl 3"

If(0,25,1)
 221()
 PictureClear(5)
 PictureClear(6)
 ShowMessageFace("",0,0,2,0)
 ShowMessage("......")
 242(2)
 Wait(120)
 241(bytes(0x04,0x08,0x6f,0x3a,0x0d,0x52,0x50,0x47,0x3a,0x3a,0x42,0x47,0x4d,0x08,0x3a,0x0a,0x40,0x6e,0x61,0x6d,0x65,0x49,0x22,0x0c,0x63,0x61,0x73,0x74,0x6c,0x65,0x36,0x06,0x3a,0x06,0x45,0x54,0x3a,0x0c,0x40,0x76,0x6f,0x6c,0x75,0x6d,0x65,0x69,0x69,0x3a,0x0b,0x40,0x70,0x69,0x74,0x63,0x68,0x69,0x69))
 EndEventProcessing()
 0()
EndIf()
PictureDisplay(5,"80_junkdoll_st01",0,0,0,0,100,100,255,0)
ShowMessageFace("junkdoll_fc1",0,0,2,1)
ShowMessage("\\n<Francesca>You want to try my vagina...?\nWhat an incredibly selfish request...")
ShowMessageFace("junkdoll_fc1",6,0,2,2)
ShowMessage("\\n<Francesca>Ahaha, you wouldn't even last a minute.\nIf you stuck your dick into big sister's vagina, you'd be done in 10 seconds!")
ShowMessageFace("junkdoll_fc1",5,0,2,3)
ShowMessage("\\n<Francesca>......")
ShowMessageFace("",0,0,2,4)
ShowMessage("\\n<Luka>P-please...")
ShowMessageFace("junkdoll_fc1",0,0,2,5)
ShowMessage("\\n<Francesca>Very well... I'll let you use my genitals.\nShow me the miserable face you'll make...")
PictureDisplay(5,"ev_junkdoll_hb1",0,0,0,0,100,100,0,0)
PictureMove(5,null,0,0,0,0,100,100,255,0,30,true)
241(bytes(0x04,0x08,0x6f,0x3a,0x0d,0x52,0x50,0x47,0x3a,0x3a,0x42,0x47,0x4d,0x08,0x3a,0x0a,0x40,0x6e,0x61,0x6d,0x65,0x49,0x22,0x09,0x65,0x72,0x6f,0x31,0x06,0x3a,0x06,0x45,0x54,0x3a,0x0c,0x40,0x76,0x6f,0x6c,0x75,0x6d,0x65,0x69,0x69,0x3a,0x0b,0x40,0x70,0x69,0x74,0x63,0x68,0x69,0x69))
ShowMessageFace("",0,0,2,6)
ShowMessage("Lowering my pants, I expose myself to them.")
ShowMessage("Spreading herself open, Francesca invites me inside.")
ShowMessageFace("",0,0,2,7)
ShowMessage("\\n<Luka>W-Well then...")
PictureDisplay(5,"ev_junkdoll_hb2",0,0,0,0,100,100,255,0)
ShowMessageFace("",0,0,2,8)
ShowMessage("Filled with anticipation, I try to push myself in...")
ShowMessage("But suddenly, a doll grabs me from the side.")
ShowMessageFace("junkdoll_fc1",5,0,2,9)
ShowMessage("\\n<Francesca>I refuse...\nI can't let a dirty thing like this go inside my big sister...")
ShowMessageFace("",0,0,2,10)
ShowMessage("\\n<Luka>N...no way...")
ShowMessageFace("junkdoll_fc1",5,0,2,11)
ShowMessage("\\n<Francesca>I'll make you come with my hand...\nI won't allow you inside my sister.")
245(bytes(0x04,0x08,0x6f,0x3a,0x0d,0x52,0x50,0x47,0x3a,0x3a,0x42,0x47,0x53,0x08,0x3a,0x0a,0x40,0x6e,0x61,0x6d,0x65,0x49,0x22,0x17,0x6d,0x6f,0x6e,0x5f,0x68,0x73,0x65,0x61,0x6e,0x31,0x37,0x5f,0x73,0x69,0x67,0x6f,0x6b,0x69,0x06,0x3a,0x06,0x45,0x54,0x3a,0x0c,0x40,0x76,0x6f,0x6c,0x75,0x6d,0x65,0x69,0x55,0x3a,0x0b,0x40,0x70,0x69,0x74,0x63,0x68,0x69,0x69))
ShowMessageFace("",0,0,2,12)
ShowMessage("Saying that, the blonde doll starts to stroke me.")
ShowMessage("My waist trembles as she rubs me somewhat aggressively.")
ShowMessageFace("",0,0,2,13)
ShowMessage("\\n<Luka>Ah... Aaah...")
ShowMessageFace("junkdoll_fc1",0,0,2,14)
ShowMessage("\\n<Francesca>Fufu, it's getting interesting.\nIf you can endure my sister's handjob, you may use my vagina...")
ShowMessageFace("junkdoll_fc1",6,0,2,15)
ShowMessage("\\n<Francesca>Ahaha, if you want to stick it in, be patient and endure it...♪")
ShowMessageFace("junkdoll_fc1",5,0,2,16)
ShowMessage("\\n<Francesca>If you want to come, just go ahead ok...?\nI'll make you come fast with my hand...")
ShowMessageFace("",0,0,2,17)
ShowMessage("It's a businesslike handjob...")
ShowMessage("Stroking me up and down, she's trying her hardest to make me come.")
ShowMessageFace("",0,0,2,18)
ShowMessage("Her slightly stiff hand squeezes my penis.")
ShowMessage("The unique stimulus makes me raise my voice.")
ShowMessageFace("",0,0,2,19)
ShowMessage("\\n<Luka>Ah, Ooooh...!")
ShowMessageFace("junkdoll_fc1",5,0,2,20)
ShowMessage("\\n<Francesca>He's feeling it...")
ShowMessageFace("",0,0,2,21)
ShowMessage("Frowning at me, the blonde doll continues stroking.")
ShowMessage("Her fingers catch around the neck of my penis.")
ShowMessageFace("",0,0,2,22)
ShowMessage("At the same time, her stiff palm presses against my shaft.")
ShowMessage("My hips buck in pleasure as her handjob continues.")
ShowMessageFace("",0,0,2,23)
ShowMessage("\\n<Luka>Guh... Urhhg...")
ShowMessageFace("",0,0,2,24)
ShowMessage("But I desperately hold on.")
ShowMessage("If I come here, I can't push it inside her...")
ShowMessageFace("junkdoll_fc1",5,0,2,25)
ShowMessage("\\n<Francesca>My hand is getting tired...")
ShowMessageFace("junkdoll_fc1",0,0,2,26)
ShowMessage("\\n<Francesca>Fufu, do you want to stick it in that badly?\nVery well then, I'll use my genitals...")
ShowMessageFace("junkdoll_fc1",6,0,2,27)
ShowMessage("\\n<Francesca>Ahahaha, are't you happy?~♪")
ShowMessageFace("junkdoll_fc1",5,0,2,28)
ShowMessage("\\n<Francesca>...If my big sister says so, it can't be avoided.")
246(2)
PictureDisplay(5,"ev_junkdoll_hc1",0,0,0,0,100,100,255,0)
ShowMessageFace("",0,0,2,29)
ShowMessage("The blond doll releases me from her hand.")
ShowMessage("Giggling, the blue-haired doll reaches toward her elder sister's vagina.")
PictureDisplay(5,"ev_junkdoll_hc2",0,0,0,0,100,100,255,0)
ShowMessageFace("junkdoll_fc1",6,0,2,30)
ShowMessage("\\n<Francesca>Look, isn't my sister's pussy beautiful?\nIt's super tight and wet... Isn't it the best?")
ShowMessageFace("junkdoll_fc1",0,0,2,31)
ShowMessage("\\n<Francesca>You tried so hard to get in here, didn't you?\nNow come in and enjoy...")
ShowMessageFace("",0,0,2,32)
ShowMessage("\\n<Luka>Unnngh...")
ShowMessageFace("",0,0,2,33)
ShowMessage("Full of expectations, I approach the doll.")
ShowMessage("Lining it up with her opening, I push forward all at once.")
245(bytes(0x04,0x08,0x6f,0x3a,0x0d,0x52,0x50,0x47,0x3a,0x3a,0x42,0x47,0x53,0x08,0x3a,0x0a,0x40,0x6e,0x61,0x6d,0x65,0x49,0x22,0x1e,0x6d,0x6f,0x6e,0x5f,0x68,0x73,0x65,0x61,0x6e,0x30,0x34,0x5f,0x69,0x6e,0x6e,0x65,0x72,0x77,0x6f,0x72,0x6b,0x73,0x5f,0x61,0x34,0x06,0x3a,0x06,0x45,0x54,0x3a,0x0c,0x40,0x76,0x6f,0x6c,0x75,0x6d,0x65,0x69,0x69,0x3a,0x0b,0x40,0x70,0x69,0x74,0x63,0x68,0x69,0x69))
PictureDisplay(5,"ev_junkdoll_hc3",0,0,0,0,100,100,255,0)
ShowMessageFace("",0,0,2,34)
ShowMessage("\\n<Luka>Ah, aaaah...!")
ShowMessageFace("",0,0,2,35)
ShowMessage("My penis is wrapped in her touch.")
ShowMessage("Feeling it all at once, I moan in pleasure.")
ShowMessageFace("",0,0,2,36)
ShowMessage("Hot and soft, her vagina invites me deep inside.")
ShowMessage("Her walls swell and move, rubbing and massaging me.")
ShowMessageFace("",0,0,2,37)
ShowMessage("\\n<Luka>Huaaa...Amazing...")
ShowMessageFace("junkdoll_fc1",0,0,2,38)
ShowMessage("\\n<Francesca>Fufu, isn't it irresistible?\nThis is what you wanted all along, no?")
ShowMessageFace("junkdoll_fc1",6,0,2,39)
ShowMessage("\\n<Francesca>Ahahah, enjoy it for as long as you can. ♪\nYou wanted it so badly, so you should enjoy it. ♪")
ShowMessageFace("junkdoll_fc1",5,0,2,40)
ShowMessage("\\n<Francesca>He's like a dog in heat... Disgusting...")
ShowMessageFace("",0,0,2,41)
ShowMessage("I'm drowning in pleasure as the dolls tease and ridicule me.")
ShowMessage("But the desire to ejaculate is already too powerful to ignore.")
ShowMessageFace("",0,0,2,42)
ShowMessage("Francesca's vagina feels too good...")
ShowMessage("There's no way I could endure this for a long time.")
ShowMessageFace("",0,0,2,43)
ShowMessage("\\n<Luka>Ah... Coming...!")
ShowMessageFace("",0,0,2,44)
ShowMessage("A sweet numbness runs up my lower back.")
ShowMessage("There's no recovering from this immediate drive to climax.")
ShowMessageFace("",0,0,2,45)
ShowMessage("Feeling her swelling flesh, my penis rejoices in bliss.")
ShowMessage("Giving myself over to that sweet feeling, I surrender.")
246(2)
RunCommonEvent(104)
PictureDisplay(5,"ev_junkdoll_hc4",0,0,0,0,100,100,255,0)
RunCommonEvent(105)
ShowMessageFace("",0,0,2,46)
ShowMessage("\\n<Luka>Unnngh...")
ShowMessageFace("",0,0,2,47)
ShowMessage("My semen pours into the doll's vagina.")
ShowMessage("Only seconds after insertion, I already came...")
ShowMessageFace("junkdoll_fc1",0,0,2,48)
ShowMessage("\\n<Francesca>Ara, already done?\nYou only just put it in, you miserable man.")
ShowMessageFace("junkdoll_fc1",6,0,2,49)
ShowMessage("\\n<Francesca>Ahaha, I said you should enjoy it for a long time~♪\nThat wasn't even 30 seconds! ♪")
ShowMessageFace("junkdoll_fc1",5,0,2,50)
ShowMessage("\\n<Francesca>The worst...")
ShowMessageFace("",0,0,2,51)
ShowMessage("The dolls all ridicule me as I bask in the afterglow.")
ShowMessage("Tasting humiliation, I'm left exhausted...")
221()
PictureClear(5)
PictureClear(6)
ShowMessageFace("",0,0,2,52)
ShowMessage("......")
242(2)
Wait(120)
241(bytes(0x04,0x08,0x6f,0x3a,0x0d,0x52,0x50,0x47,0x3a,0x3a,0x42,0x47,0x4d,0x08,0x3a,0x0a,0x40,0x6e,0x61,0x6d,0x65,0x49,0x22,0x0c,0x63,0x61,0x73,0x74,0x6c,0x65,0x36,0x06,0x3a,0x06,0x45,0x54,0x3a,0x0c,0x40,0x76,0x6f,0x6c,0x75,0x6d,0x65,0x69,0x69,0x3a,0x0b,0x40,0x70,0x69,0x74,0x63,0x68,0x69,0x69))
0()
