﻿// EVENT 0814
Name "軽装防具レア"

ChangeVariable(11,11,0,2,1,80)
If(1,11,0,1,0)
 ChangeInventoryArmor(2507,0,0,1,false)
 EndEventProcessing()
 0()
EndIf()
If(1,11,0,2,0)
 ChangeInventoryArmor(2508,0,0,1,false)
 EndEventProcessing()
 0()
EndIf()
If(1,11,0,3,0)
 ChangeInventoryArmor(2509,0,0,1,false)
 EndEventProcessing()
 0()
EndIf()
If(1,11,0,4,0)
 ChangeInventoryArmor(2510,0,0,1,false)
 EndEventProcessing()
 0()
EndIf()
If(1,11,0,5,0)
 ChangeInventoryArmor(2517,0,0,1,false)
 EndEventProcessing()
 0()
EndIf()
If(1,11,0,6,0)
 ChangeInventoryArmor(2518,0,0,1,false)
 EndEventProcessing()
 0()
EndIf()
If(1,11,0,7,0)
 ChangeInventoryArmor(2519,0,0,1,false)
 EndEventProcessing()
 0()
EndIf()
If(1,11,0,8,0)
 ChangeInventoryArmor(2520,0,0,1,false)
 EndEventProcessing()
 0()
EndIf()
If(1,11,0,9,0)
 ChangeInventoryArmor(2557,0,0,1,false)
 EndEventProcessing()
 0()
EndIf()
If(1,11,0,10,0)
 ChangeInventoryArmor(2558,0,0,1,false)
 EndEventProcessing()
 0()
EndIf()
If(1,11,0,11,0)
 ChangeInventoryArmor(2559,0,0,1,false)
 EndEventProcessing()
 0()
EndIf()
If(1,11,0,12,0)
 ChangeInventoryArmor(2560,0,0,1,false)
 EndEventProcessing()
 0()
EndIf()
If(1,11,0,13,0)
 ChangeInventoryArmor(2567,0,0,1,false)
 EndEventProcessing()
 0()
EndIf()
If(1,11,0,14,0)
 ChangeInventoryArmor(2568,0,0,1,false)
 EndEventProcessing()
 0()
EndIf()
If(1,11,0,15,0)
 ChangeInventoryArmor(2569,0,0,1,false)
 EndEventProcessing()
 0()
EndIf()
If(1,11,0,16,0)
 ChangeInventoryArmor(2570,0,0,1,false)
 EndEventProcessing()
 0()
EndIf()
If(1,11,0,17,0)
 ChangeInventoryArmor(2607,0,0,1,false)
 EndEventProcessing()
 0()
EndIf()
If(1,11,0,18,0)
 ChangeInventoryArmor(2608,0,0,1,false)
 EndEventProcessing()
 0()
EndIf()
If(1,11,0,19,0)
 ChangeInventoryArmor(2609,0,0,1,false)
 EndEventProcessing()
 0()
EndIf()
If(1,11,0,20,0)
 ChangeInventoryArmor(2610,0,0,1,false)
 EndEventProcessing()
 0()
EndIf()
If(1,11,0,21,0)
 ChangeInventoryArmor(2617,0,0,1,false)
 EndEventProcessing()
 0()
EndIf()
If(1,11,0,22,0)
 ChangeInventoryArmor(2618,0,0,1,false)
 EndEventProcessing()
 0()
EndIf()
If(1,11,0,23,0)
 ChangeInventoryArmor(2619,0,0,1,false)
 EndEventProcessing()
 0()
EndIf()
If(1,11,0,24,0)
 ChangeInventoryArmor(2620,0,0,1,false)
 EndEventProcessing()
 0()
EndIf()
If(1,11,0,25,0)
 ChangeInventoryArmor(2857,0,0,1,false)
 EndEventProcessing()
 0()
EndIf()
If(1,11,0,26,0)
 ChangeInventoryArmor(2858,0,0,1,false)
 EndEventProcessing()
 0()
EndIf()
If(1,11,0,27,0)
 ChangeInventoryArmor(2859,0,0,1,false)
 EndEventProcessing()
 0()
EndIf()
If(1,11,0,28,0)
 ChangeInventoryArmor(2860,0,0,1,false)
 EndEventProcessing()
 0()
EndIf()
If(1,11,0,29,0)
 ChangeInventoryArmor(2867,0,0,1,false)
 EndEventProcessing()
 0()
EndIf()
If(1,11,0,30,0)
 ChangeInventoryArmor(2868,0,0,1,false)
 EndEventProcessing()
 0()
EndIf()
If(1,11,0,31,0)
 ChangeInventoryArmor(2869,0,0,1,false)
 EndEventProcessing()
 0()
EndIf()
If(1,11,0,32,0)
 ChangeInventoryArmor(2870,0,0,1,false)
 EndEventProcessing()
 0()
EndIf()
If(1,11,0,33,0)
 ChangeInventoryArmor(2957,0,0,1,false)
 EndEventProcessing()
 0()
EndIf()
If(1,11,0,34,0)
 ChangeInventoryArmor(2958,0,0,1,false)
 EndEventProcessing()
 0()
EndIf()
If(1,11,0,35,0)
 ChangeInventoryArmor(2959,0,0,1,false)
 EndEventProcessing()
 0()
EndIf()
If(1,11,0,36,0)
 ChangeInventoryArmor(2960,0,0,1,false)
 EndEventProcessing()
 0()
EndIf()
If(1,11,0,37,0)
 ChangeInventoryArmor(2967,0,0,1,false)
 EndEventProcessing()
 0()
EndIf()
If(1,11,0,38,0)
 ChangeInventoryArmor(2968,0,0,1,false)
 EndEventProcessing()
 0()
EndIf()
If(1,11,0,39,0)
 ChangeInventoryArmor(2969,0,0,1,false)
 EndEventProcessing()
 0()
EndIf()
If(1,11,0,40,0)
 ChangeInventoryArmor(2970,0,0,1,false)
 EndEventProcessing()
 0()
EndIf()
If(1,11,0,41,0)
 ChangeInventoryArmor(3057,0,0,1,false)
 EndEventProcessing()
 0()
EndIf()
If(1,11,0,42,0)
 ChangeInventoryArmor(3058,0,0,1,false)
 EndEventProcessing()
 0()
EndIf()
If(1,11,0,43,0)
 ChangeInventoryArmor(3059,0,0,1,false)
 EndEventProcessing()
 0()
EndIf()
If(1,11,0,44,0)
 ChangeInventoryArmor(3060,0,0,1,false)
 EndEventProcessing()
 0()
EndIf()
If(1,11,0,45,0)
 ChangeInventoryArmor(3067,0,0,1,false)
 EndEventProcessing()
 0()
EndIf()
If(1,11,0,46,0)
 ChangeInventoryArmor(3068,0,0,1,false)
 EndEventProcessing()
 0()
EndIf()
If(1,11,0,47,0)
 ChangeInventoryArmor(3069,0,0,1,false)
 EndEventProcessing()
 0()
EndIf()
If(1,11,0,48,0)
 ChangeInventoryArmor(3070,0,0,1,false)
 EndEventProcessing()
 0()
EndIf()
If(1,11,0,49,0)
 ChangeInventoryArmor(3157,0,0,1,false)
 EndEventProcessing()
 0()
EndIf()
If(1,11,0,50,0)
 ChangeInventoryArmor(3158,0,0,1,false)
 EndEventProcessing()
 0()
EndIf()
If(1,11,0,51,0)
 ChangeInventoryArmor(3159,0,0,1,false)
 EndEventProcessing()
 0()
EndIf()
If(1,11,0,52,0)
 ChangeInventoryArmor(3160,0,0,1,false)
 EndEventProcessing()
 0()
EndIf()
If(1,11,0,53,0)
 ChangeInventoryArmor(3167,0,0,1,false)
 EndEventProcessing()
 0()
EndIf()
If(1,11,0,54,0)
 ChangeInventoryArmor(3168,0,0,1,false)
 EndEventProcessing()
 0()
EndIf()
If(1,11,0,55,0)
 ChangeInventoryArmor(3169,0,0,1,false)
 EndEventProcessing()
 0()
EndIf()
If(1,11,0,56,0)
 ChangeInventoryArmor(3170,0,0,1,false)
 EndEventProcessing()
 0()
EndIf()
If(1,11,0,57,0)
 ChangeInventoryArmor(3357,0,0,1,false)
 EndEventProcessing()
 0()
EndIf()
If(1,11,0,58,0)
 ChangeInventoryArmor(3358,0,0,1,false)
 EndEventProcessing()
 0()
EndIf()
If(1,11,0,59,0)
 ChangeInventoryArmor(3359,0,0,1,false)
 EndEventProcessing()
 0()
EndIf()
If(1,11,0,60,0)
 ChangeInventoryArmor(3360,0,0,1,false)
 EndEventProcessing()
 0()
EndIf()
If(1,11,0,61,0)
 ChangeInventoryArmor(3367,0,0,1,false)
 EndEventProcessing()
 0()
EndIf()
If(1,11,0,62,0)
 ChangeInventoryArmor(3368,0,0,1,false)
 EndEventProcessing()
 0()
EndIf()
If(1,11,0,63,0)
 ChangeInventoryArmor(3369,0,0,1,false)
 EndEventProcessing()
 0()
EndIf()
If(1,11,0,64,0)
 ChangeInventoryArmor(3370,0,0,1,false)
 EndEventProcessing()
 0()
EndIf()
If(1,11,0,65,0)
 ChangeInventoryArmor(3407,0,0,1,false)
 EndEventProcessing()
 0()
EndIf()
If(1,11,0,66,0)
 ChangeInventoryArmor(3408,0,0,1,false)
 EndEventProcessing()
 0()
EndIf()
If(1,11,0,67,0)
 ChangeInventoryArmor(3409,0,0,1,false)
 EndEventProcessing()
 0()
EndIf()
If(1,11,0,68,0)
 ChangeInventoryArmor(3410,0,0,1,false)
 EndEventProcessing()
 0()
EndIf()
If(1,11,0,69,0)
 ChangeInventoryArmor(3417,0,0,1,false)
 EndEventProcessing()
 0()
EndIf()
If(1,11,0,70,0)
 ChangeInventoryArmor(3418,0,0,1,false)
 EndEventProcessing()
 0()
EndIf()
If(1,11,0,71,0)
 ChangeInventoryArmor(3419,0,0,1,false)
 EndEventProcessing()
 0()
EndIf()
If(1,11,0,72,0)
 ChangeInventoryArmor(3420,0,0,1,false)
 EndEventProcessing()
 0()
EndIf()
If(1,11,0,73,0)
 ChangeInventoryArmor(3457,0,0,1,false)
 EndEventProcessing()
 0()
EndIf()
If(1,11,0,74,0)
 ChangeInventoryArmor(3458,0,0,1,false)
 EndEventProcessing()
 0()
EndIf()
If(1,11,0,75,0)
 ChangeInventoryArmor(3459,0,0,1,false)
 EndEventProcessing()
 0()
EndIf()
If(1,11,0,76,0)
 ChangeInventoryArmor(3460,0,0,1,false)
 EndEventProcessing()
 0()
EndIf()
If(1,11,0,77,0)
 ChangeInventoryArmor(3467,0,0,1,false)
 EndEventProcessing()
 0()
EndIf()
If(1,11,0,78,0)
 ChangeInventoryArmor(3468,0,0,1,false)
 EndEventProcessing()
 0()
EndIf()
If(1,11,0,79,0)
 ChangeInventoryArmor(3469,0,0,1,false)
 EndEventProcessing()
 0()
EndIf()
If(1,11,0,80,0)
 ChangeInventoryArmor(3470,0,0,1,false)
 EndEventProcessing()
 0()
EndIf()
0()
