// EVENT 0033
Name "Get: Rank 1 Single Item"

ChangeVariable(11,11,0,2,1,108)
If(1,11,0,1,0)
 ChangeInventory_Item(1,0,0,1)
 ShowMessageFace("",0,0,2,1)
 ShowMessage("You obtain \\ii[1]!")
 EndEventProcessing()
 0()
EndIf()
If(1,11,0,2,0)
 ChangeInventory_Item(11,0,0,1)
 ShowMessageFace("",0,0,2,2)
 ShowMessage("You obtain \\ii[11]!")
 EndEventProcessing()
 0()
EndIf()
If(1,11,0,3,0)
 ChangeInventory_Item(13,0,0,1)
 ShowMessageFace("",0,0,2,3)
 ShowMessage("You obtain \\ii[13]!")
 EndEventProcessing()
 0()
EndIf()
If(1,11,0,4,0)
 ChangeInventory_Item(14,0,0,1)
 ShowMessageFace("",0,0,2,4)
 ShowMessage("You obtain \\ii[14]!")
 EndEventProcessing()
 0()
EndIf()
If(1,11,0,5,0)
 ChangeInventory_Item(15,0,0,1)
 ShowMessageFace("",0,0,2,5)
 ShowMessage("You obtain \\ii[15]!")
 EndEventProcessing()
 0()
EndIf()
If(1,11,0,6,0)
 ChangeInventory_Item(16,0,0,1)
 ShowMessageFace("",0,0,2,6)
 ShowMessage("You obtain \\ii[16]!")
 EndEventProcessing()
 0()
EndIf()
If(1,11,0,7,0)
 ChangeInventory_Item(17,0,0,1)
 ShowMessageFace("",0,0,2,7)
 ShowMessage("You obtain \\ii[17]!")
 EndEventProcessing()
 0()
EndIf()
If(1,11,0,8,0)
 ChangeInventory_Item(23,0,0,1)
 ShowMessageFace("",0,0,2,8)
 ShowMessage("You obtain \\ii[23]!")
 EndEventProcessing()
 0()
EndIf()
If(1,11,0,9,0)
 ChangeInventory_Item(51,0,0,1)
 ShowMessageFace("",0,0,2,9)
 ShowMessage("You obtain \\ii[51]!")
 EndEventProcessing()
 0()
EndIf()
If(1,11,0,10,0)
 ChangeInventory_Item(55,0,0,1)
 ShowMessageFace("",0,0,2,10)
 ShowMessage("You obtain \\ii[55]!")
 EndEventProcessing()
 0()
EndIf()
If(1,11,0,11,0)
 ChangeInventory_Item(59,0,0,1)
 ShowMessageFace("",0,0,2,11)
 ShowMessage("You obtain \\ii[59]!")
 EndEventProcessing()
 0()
EndIf()
If(1,11,0,12,0)
 ChangeInventory_Item(63,0,0,1)
 ShowMessageFace("",0,0,2,12)
 ShowMessage("You obtain \\ii[63]!")
 EndEventProcessing()
 0()
EndIf()
If(1,11,0,13,0)
 ChangeInventory_Item(67,0,0,1)
 ShowMessageFace("",0,0,2,13)
 ShowMessage("You obtain \\ii[67]!")
 EndEventProcessing()
 0()
EndIf()
If(1,11,0,14,0)
 ChangeInventory_Item(71,0,0,1)
 ShowMessageFace("",0,0,2,14)
 ShowMessage("You obtain \\ii[71]!")
 EndEventProcessing()
 0()
EndIf()
If(1,11,0,15,0)
 ChangeInventory_Item(75,0,0,1)
 ShowMessageFace("",0,0,2,15)
 ShowMessage("You obtain \\ii[75]!")
 EndEventProcessing()
 0()
EndIf()
If(1,11,0,16,0)
 ChangeInventory_Item(79,0,0,1)
 ShowMessageFace("",0,0,2,16)
 ShowMessage("You obtain \\ii[79]!")
 EndEventProcessing()
 0()
EndIf()
If(1,11,0,17,0)
 ChangeInventory_Item(160,0,0,1)
 ShowMessageFace("",0,0,2,17)
 ShowMessage("You obtain \\ii[160]!")
 EndEventProcessing()
 0()
EndIf()
If(1,11,0,18,0)
 ChangeInventory_Item(161,0,0,1)
 ShowMessageFace("",0,0,2,18)
 ShowMessage("You obtain \\ii[161]!")
 EndEventProcessing()
 0()
EndIf()
If(1,11,0,19,0)
 ChangeInventory_Item(162,0,0,1)
 ShowMessageFace("",0,0,2,19)
 ShowMessage("You obtain \\ii[162]!")
 EndEventProcessing()
 0()
EndIf()
If(1,11,0,20,0)
 ChangeInventory_Item(163,0,0,1)
 ShowMessageFace("",0,0,2,20)
 ShowMessage("You obtain \\ii[163]!")
 EndEventProcessing()
 0()
EndIf()
If(1,11,0,21,0)
 ChangeInventory_Item(164,0,0,1)
 ShowMessageFace("",0,0,2,21)
 ShowMessage("You obtain \\ii[164]!")
 EndEventProcessing()
 0()
EndIf()
If(1,11,0,22,0)
 ChangeInventory_Item(165,0,0,1)
 ShowMessageFace("",0,0,2,22)
 ShowMessage("You obtain \\ii[165]!")
 EndEventProcessing()
 0()
EndIf()
If(1,11,0,23,0)
 ChangeInventory_Item(166,0,0,1)
 ShowMessageFace("",0,0,2,23)
 ShowMessage("You obtain \\ii[166]!")
 EndEventProcessing()
 0()
EndIf()
If(1,11,0,24,0)
 ChangeInventory_Item(167,0,0,1)
 ShowMessageFace("",0,0,2,24)
 ShowMessage("You obtain \\ii[167]!")
 EndEventProcessing()
 0()
EndIf()
If(1,11,0,25,0)
 ChangeInventory_Item(168,0,0,1)
 ShowMessageFace("",0,0,2,25)
 ShowMessage("You obtain \\ii[168]!")
 EndEventProcessing()
 0()
EndIf()
If(1,11,0,26,0)
 ChangeInventory_Item(169,0,0,1)
 ShowMessageFace("",0,0,2,26)
 ShowMessage("You obtain \\ii[169]!")
 EndEventProcessing()
 0()
EndIf()
If(1,11,0,27,0)
 ChangeInventory_Item(170,0,0,1)
 ShowMessageFace("",0,0,2,27)
 ShowMessage("You obtain \\ii[170]!")
 EndEventProcessing()
 0()
EndIf()
If(1,11,0,28,0)
 ChangeInventory_Item(171,0,0,1)
 ShowMessageFace("",0,0,2,28)
 ShowMessage("You obtain \\ii[171]!")
 EndEventProcessing()
 0()
EndIf()
If(1,11,0,29,0)
 ChangeInventory_Item(172,0,0,1)
 ShowMessageFace("",0,0,2,29)
 ShowMessage("You obtain \\ii[172]!")
 EndEventProcessing()
 0()
EndIf()
If(1,11,0,30,0)
 ChangeInventory_Item(173,0,0,1)
 ShowMessageFace("",0,0,2,30)
 ShowMessage("You obtain \\ii[173]!")
 EndEventProcessing()
 0()
EndIf()
If(1,11,0,31,0)
 ChangeInventory_Item(174,0,0,1)
 ShowMessageFace("",0,0,2,31)
 ShowMessage("You obtain \\ii[174]!")
 EndEventProcessing()
 0()
EndIf()
If(1,11,0,32,0)
 ChangeInventory_Item(175,0,0,1)
 ShowMessageFace("",0,0,2,32)
 ShowMessage("You obtain \\ii[175]!")
 EndEventProcessing()
 0()
EndIf()
If(1,11,0,33,0)
 ChangeInventory_Item(301,0,0,1)
 ShowMessageFace("",0,0,2,33)
 ShowMessage("You obtain \\ii[301]!")
 EndEventProcessing()
 0()
EndIf()
If(1,11,0,34,0)
 ChangeInventory_Item(302,0,0,1)
 ShowMessageFace("",0,0,2,34)
 ShowMessage("You obtain \\ii[302]!")
 EndEventProcessing()
 0()
EndIf()
If(1,11,0,35,0)
 ChangeInventory_Item(304,0,0,1)
 ShowMessageFace("",0,0,2,35)
 ShowMessage("You obtain \\ii[304]!")
 EndEventProcessing()
 0()
EndIf()
If(1,11,0,36,0)
 ChangeInventory_Item(306,0,0,1)
 ShowMessageFace("",0,0,2,36)
 ShowMessage("You obtain \\ii[306]!")
 EndEventProcessing()
 0()
EndIf()
If(1,11,0,37,0)
 ChangeInventory_Item(307,0,0,1)
 ShowMessageFace("",0,0,2,37)
 ShowMessage("You obtain \\ii[307]!")
 EndEventProcessing()
 0()
EndIf()
If(1,11,0,38,0)
 ChangeInventory_Item(309,0,0,1)
 ShowMessageFace("",0,0,2,38)
 ShowMessage("You obtain \\ii[309]!")
 EndEventProcessing()
 0()
EndIf()
If(1,11,0,39,0)
 ChangeInventory_Item(310,0,0,1)
 ShowMessageFace("",0,0,2,39)
 ShowMessage("You obtain \\ii[310]!")
 EndEventProcessing()
 0()
EndIf()
If(1,11,0,40,0)
 ChangeInventory_Item(311,0,0,1)
 ShowMessageFace("",0,0,2,40)
 ShowMessage("You obtain \\ii[311]!")
 EndEventProcessing()
 0()
EndIf()
If(1,11,0,41,0)
 ChangeInventory_Item(313,0,0,1)
 ShowMessageFace("",0,0,2,41)
 ShowMessage("You obtain \\ii[313]!")
 EndEventProcessing()
 0()
EndIf()
If(1,11,0,42,0)
 ChangeInventory_Item(315,0,0,1)
 ShowMessageFace("",0,0,2,42)
 ShowMessage("You obtain \\ii[315]!")
 EndEventProcessing()
 0()
EndIf()
If(1,11,0,43,0)
 ChangeInventory_Item(316,0,0,1)
 ShowMessageFace("",0,0,2,43)
 ShowMessage("You obtain \\ii[316]!")
 EndEventProcessing()
 0()
EndIf()
If(1,11,0,44,0)
 ChangeInventory_Item(317,0,0,1)
 ShowMessageFace("",0,0,2,44)
 ShowMessage("You obtain \\ii[317]!")
 EndEventProcessing()
 0()
EndIf()
If(1,11,0,45,0)
 ChangeInventory_Item(319,0,0,1)
 ShowMessageFace("",0,0,2,45)
 ShowMessage("You obtain \\ii[319]!")
 EndEventProcessing()
 0()
EndIf()
If(1,11,0,46,0)
 ChangeInventory_Item(320,0,0,1)
 ShowMessageFace("",0,0,2,46)
 ShowMessage("You obtain \\ii[320]!")
 EndEventProcessing()
 0()
EndIf()
If(1,11,0,47,0)
 ChangeInventory_Item(321,0,0,1)
 ShowMessageFace("",0,0,2,47)
 ShowMessage("You obtain \\ii[321]!")
 EndEventProcessing()
 0()
EndIf()
If(1,11,0,48,0)
 ChangeInventory_Item(322,0,0,1)
 ShowMessageFace("",0,0,2,48)
 ShowMessage("You obtain \\ii[322]!")
 EndEventProcessing()
 0()
EndIf()
If(1,11,0,49,0)
 ChangeInventory_Item(324,0,0,1)
 ShowMessageFace("",0,0,2,49)
 ShowMessage("You obtain \\ii[324]!")
 EndEventProcessing()
 0()
EndIf()
If(1,11,0,50,0)
 ChangeInventory_Item(325,0,0,1)
 ShowMessageFace("",0,0,2,50)
 ShowMessage("You obtain \\ii[325]!")
 EndEventProcessing()
 0()
EndIf()
If(1,11,0,51,0)
 ChangeInventory_Item(327,0,0,1)
 ShowMessageFace("",0,0,2,51)
 ShowMessage("You obtain \\ii[327]!")
 EndEventProcessing()
 0()
EndIf()
If(1,11,0,52,0)
 ChangeInventory_Item(329,0,0,1)
 ShowMessageFace("",0,0,2,52)
 ShowMessage("You obtain \\ii[329]!")
 EndEventProcessing()
 0()
EndIf()
If(1,11,0,53,0)
 ChangeInventory_Item(330,0,0,1)
 ShowMessageFace("",0,0,2,53)
 ShowMessage("You obtain \\ii[330]!")
 EndEventProcessing()
 0()
EndIf()
If(1,11,0,54,0)
 ChangeInventory_Item(331,0,0,1)
 ShowMessageFace("",0,0,2,54)
 ShowMessage("You obtain \\ii[331]!")
 EndEventProcessing()
 0()
EndIf()
If(1,11,0,55,0)
 ChangeInventory_Item(332,0,0,1)
 ShowMessageFace("",0,0,2,55)
 ShowMessage("You obtain \\ii[332]!")
 EndEventProcessing()
 0()
EndIf()
If(1,11,0,56,0)
 ChangeInventory_Item(334,0,0,1)
 ShowMessageFace("",0,0,2,56)
 ShowMessage("You obtain \\ii[334]!")
 EndEventProcessing()
 0()
EndIf()
If(1,11,0,57,0)
 ChangeInventory_Item(335,0,0,1)
 ShowMessageFace("",0,0,2,57)
 ShowMessage("You obtain \\ii[335]!")
 EndEventProcessing()
 0()
EndIf()
If(1,11,0,58,0)
 ChangeInventory_Item(338,0,0,1)
 ShowMessageFace("",0,0,2,58)
 ShowMessage("You obtain \\ii[338]!")
 EndEventProcessing()
 0()
EndIf()
If(1,11,0,59,0)
 ChangeInventory_Item(339,0,0,1)
 ShowMessageFace("",0,0,2,59)
 ShowMessage("You obtain \\ii[339]!")
 EndEventProcessing()
 0()
EndIf()
If(1,11,0,60,0)
 ChangeInventory_Item(340,0,0,1)
 ShowMessageFace("",0,0,2,60)
 ShowMessage("You obtain \\ii[340]!")
 EndEventProcessing()
 0()
EndIf()
If(1,11,0,61,0)
 ChangeInventory_Item(341,0,0,1)
 ShowMessageFace("",0,0,2,61)
 ShowMessage("You obtain \\ii[341]!")
 EndEventProcessing()
 0()
EndIf()
If(1,11,0,62,0)
 ChangeInventory_Item(342,0,0,1)
 ShowMessageFace("",0,0,2,62)
 ShowMessage("You obtain \\ii[342]!")
 EndEventProcessing()
 0()
EndIf()
If(1,11,0,63,0)
 ChangeInventory_Item(343,0,0,1)
 ShowMessageFace("",0,0,2,63)
 ShowMessage("You obtain \\ii[343]!")
 EndEventProcessing()
 0()
EndIf()
If(1,11,0,64,0)
 ChangeInventory_Item(360,0,0,1)
 ShowMessageFace("",0,0,2,64)
 ShowMessage("You obtain \\ii[360]!")
 EndEventProcessing()
 0()
EndIf()
If(1,11,0,65,0)
 ChangeInventory_Item(432,0,0,1)
 ShowMessageFace("",0,0,2,65)
 ShowMessage("You obtain \\ii[432]!")
 EndEventProcessing()
 0()
EndIf()
If(1,11,0,66,0)
 ChangeInventory_Item(433,0,0,1)
 ShowMessageFace("",0,0,2,66)
 ShowMessage("You obtain \\ii[433]!")
 EndEventProcessing()
 0()
EndIf()
If(1,11,0,67,0)
 ChangeInventory_Item(434,0,0,1)
 ShowMessageFace("",0,0,2,67)
 ShowMessage("You obtain \\ii[434]!")
 EndEventProcessing()
 0()
EndIf()
If(1,11,0,68,0)
 ChangeInventory_Item(435,0,0,1)
 ShowMessageFace("",0,0,2,68)
 ShowMessage("You obtain \\ii[435]!")
 EndEventProcessing()
 0()
EndIf()
If(1,11,0,69,0)
 ChangeInventory_Item(436,0,0,1)
 ShowMessageFace("",0,0,2,69)
 ShowMessage("You obtain \\ii[436]!")
 EndEventProcessing()
 0()
EndIf()
If(1,11,0,70,0)
 ChangeInventory_Item(440,0,0,1)
 ShowMessageFace("",0,0,2,70)
 ShowMessage("You obtain \\ii[440]!")
 EndEventProcessing()
 0()
EndIf()
If(1,11,0,71,0)
 ChangeInventory_Item(441,0,0,1)
 ShowMessageFace("",0,0,2,71)
 ShowMessage("You obtain \\ii[441]!")
 EndEventProcessing()
 0()
EndIf()
If(1,11,0,72,0)
 ChangeInventory_Item(442,0,0,1)
 ShowMessageFace("",0,0,2,72)
 ShowMessage("You obtain \\ii[442]!")
 EndEventProcessing()
 0()
EndIf()
If(1,11,0,73,0)
 ChangeInventory_Item(443,0,0,1)
 ShowMessageFace("",0,0,2,73)
 ShowMessage("You obtain \\ii[443]!")
 EndEventProcessing()
 0()
EndIf()
If(1,11,0,74,0)
 ChangeInventory_Item(444,0,0,1)
 ShowMessageFace("",0,0,2,74)
 ShowMessage("You obtain \\ii[444]!")
 EndEventProcessing()
 0()
EndIf()
If(1,11,0,75,0)
 ChangeInventory_Item(445,0,0,1)
 ShowMessageFace("",0,0,2,75)
 ShowMessage("You obtain \\ii[445]!")
 EndEventProcessing()
 0()
EndIf()
If(1,11,0,76,0)
 ChangeInventory_Item(446,0,0,1)
 ShowMessageFace("",0,0,2,76)
 ShowMessage("You obtain \\ii[446]!")
 EndEventProcessing()
 0()
EndIf()
If(1,11,0,77,0)
 ChangeInventory_Item(447,0,0,1)
 ShowMessageFace("",0,0,2,77)
 ShowMessage("You obtain \\ii[447]!")
 EndEventProcessing()
 0()
EndIf()
If(1,11,0,78,0)
 ChangeInventory_Item(448,0,0,1)
 ShowMessageFace("",0,0,2,78)
 ShowMessage("You obtain \\ii[448]!")
 EndEventProcessing()
 0()
EndIf()
If(1,11,0,79,0)
 ChangeInventory_Item(449,0,0,1)
 ShowMessageFace("",0,0,2,79)
 ShowMessage("You obtain \\ii[449]!")
 EndEventProcessing()
 0()
EndIf()
If(1,11,0,80,0)
 ChangeInventoryArmor(1001,0,0,1,false)
 ShowMessageFace("",0,0,2,80)
 ShowMessage("You obtain \\ia[1001]!")
 EndEventProcessing()
 0()
EndIf()
If(1,11,0,81,0)
 ChangeInventoryArmor(1006,0,0,1,false)
 ShowMessageFace("",0,0,2,81)
 ShowMessage("You obtain \\ia[1006]!")
 EndEventProcessing()
 0()
EndIf()
If(1,11,0,82,0)
 ChangeInventoryArmor(1011,0,0,1,false)
 ShowMessageFace("",0,0,2,82)
 ShowMessage("You obtain \\ia[1011]!")
 EndEventProcessing()
 0()
EndIf()
If(1,11,0,83,0)
 ChangeInventoryArmor(1016,0,0,1,false)
 ShowMessageFace("",0,0,2,83)
 ShowMessage("You obtain \\ia[1016]!")
 EndEventProcessing()
 0()
EndIf()
If(1,11,0,84,0)
 ChangeInventoryArmor(1021,0,0,1,false)
 ShowMessageFace("",0,0,2,84)
 ShowMessage("You obtain \\ia[1021]!")
 EndEventProcessing()
 0()
EndIf()
If(1,11,0,85,0)
 ChangeInventoryArmor(1026,0,0,1,false)
 ShowMessageFace("",0,0,2,85)
 ShowMessage("You obtain \\ia[1026]!")
 EndEventProcessing()
 0()
EndIf()
If(1,11,0,86,0)
 ChangeInventoryArmor(1031,0,0,1,false)
 ShowMessageFace("",0,0,2,86)
 ShowMessage("You obtain \\ia[1031]!")
 EndEventProcessing()
 0()
EndIf()
If(1,11,0,87,0)
 ChangeInventoryArmor(1036,0,0,1,false)
 ShowMessageFace("",0,0,2,87)
 ShowMessage("You obtain \\ia[1036]!")
 EndEventProcessing()
 0()
EndIf()
If(1,11,0,88,0)
 ChangeInventoryArmor(1041,0,0,1,false)
 ShowMessageFace("",0,0,2,88)
 ShowMessage("You obtain \\ia[1041]!")
 EndEventProcessing()
 0()
EndIf()
If(1,11,0,89,0)
 ChangeInventoryArmor(1050,0,0,1,false)
 ShowMessageFace("",0,0,2,89)
 ShowMessage("You obtain \\ia[1050]!")
 EndEventProcessing()
 0()
EndIf()
If(1,11,0,90,0)
 ChangeInventoryArmor(1054,0,0,1,false)
 ShowMessageFace("",0,0,2,90)
 ShowMessage("You obtain \\ia[1054]!")
 EndEventProcessing()
 0()
EndIf()
If(1,11,0,91,0)
 ChangeInventoryArmor(1056,0,0,1,false)
 ShowMessageFace("",0,0,2,91)
 ShowMessage("You obtain \\ia[1056]!")
 EndEventProcessing()
 0()
EndIf()
If(1,11,0,92,0)
 ChangeInventoryArmor(1061,0,0,1,false)
 ShowMessageFace("",0,0,2,92)
 ShowMessage("You obtain \\ia[1061]!")
 EndEventProcessing()
 0()
EndIf()
If(1,11,0,93,0)
 ChangeInventoryArmor(1081,0,0,1,false)
 ShowMessageFace("",0,0,2,93)
 ShowMessage("You obtain \\ia[1081]!")
 EndEventProcessing()
 0()
EndIf()
If(1,11,0,94,0)
 ChangeInventoryArmor(1085,0,0,1,false)
 ShowMessageFace("",0,0,2,94)
 ShowMessage("You obtain \\ia[1085]!")
 EndEventProcessing()
 0()
EndIf()
If(1,11,0,95,0)
 ChangeInventoryArmor(1100,0,0,1,false)
 ShowMessageFace("",0,0,2,95)
 ShowMessage("You obtain \\ia[1100]!")
 EndEventProcessing()
 0()
EndIf()
If(1,11,0,96,0)
 ChangeInventoryArmor(1113,0,0,1,false)
 ShowMessageFace("",0,0,2,96)
 ShowMessage("You obtain \\ia[1113]!")
 EndEventProcessing()
 0()
EndIf()
If(1,11,0,97,0)
 ChangeInventoryArmor(1145,0,0,1,false)
 ShowMessageFace("",0,0,2,97)
 ShowMessage("You obtain \\ia[1145]!")
 EndEventProcessing()
 0()
EndIf()
If(1,11,0,98,0)
 ChangeInventoryArmor(1147,0,0,1,false)
 ShowMessageFace("",0,0,2,98)
 ShowMessage("You obtain \\ia[1147]!")
 EndEventProcessing()
 0()
EndIf()
If(1,11,0,99,0)
 ChangeInventoryArmor(1171,0,0,1,false)
 ShowMessageFace("",0,0,2,99)
 ShowMessage("You obtain \\ia[1171]!")
 EndEventProcessing()
 0()
EndIf()
If(1,11,0,100,0)
 ChangeInventoryArmor(1175,0,0,1,false)
 ShowMessageFace("",0,0,2,100)
 ShowMessage("You obtain \\ia[1175]!")
 EndEventProcessing()
 0()
EndIf()
If(1,11,0,101,0)
 ChangeInventoryArmor(1706,0,0,1,false)
 ShowMessageFace("",0,0,2,101)
 ShowMessage("You obtain \\ia[1706]!")
 EndEventProcessing()
 0()
EndIf()
If(1,11,0,102,0)
 ChangeInventoryArmor(1721,0,0,1,false)
 ShowMessageFace("",0,0,2,102)
 ShowMessage("You obtain \\ia[1721]!")
 EndEventProcessing()
 0()
EndIf()
If(1,11,0,103,0)
 ChangeInventoryArmor(1723,0,0,1,false)
 ShowMessageFace("",0,0,2,103)
 ShowMessage("You obtain \\ia[1723]!")
 EndEventProcessing()
 0()
EndIf()
If(1,11,0,104,0)
 ChangeInventoryArmor(1725,0,0,1,false)
 ShowMessageFace("",0,0,2,104)
 ShowMessage("You obtain \\ia[1725]!")
 EndEventProcessing()
 0()
EndIf()
If(1,11,0,105,0)
 ChangeInventoryArmor(1730,0,0,1,false)
 ShowMessageFace("",0,0,2,105)
 ShowMessage("You obtain \\ia[1730]!")
 EndEventProcessing()
 0()
EndIf()
If(1,11,0,106,0)
 ChangeInventoryArmor(1732,0,0,1,false)
 ShowMessageFace("",0,0,2,106)
 ShowMessage("You obtain \\ia[1732]!")
 EndEventProcessing()
 0()
EndIf()
If(1,11,0,107,0)
 ChangeInventoryArmor(1733,0,0,1,false)
 ShowMessageFace("",0,0,2,107)
 ShowMessage("You obtain \\ia[1733]!")
 EndEventProcessing()
 0()
EndIf()
If(1,11,0,108,0)
 ChangeInventoryArmor(1735,0,0,1,false)
 ShowMessageFace("",0,0,2,108)
 ShowMessage("You obtain \\ia[1735]!")
 EndEventProcessing()
 0()
EndIf()
0()
