﻿// EVENT 1340
Name "Talk: Kyoryuu"

If(1,20,0,1,0)
 JumpToLabel("情報")
 0()
EndIf()
If(1,20,0,2,0)
 JumpToLabel("質問")
 0()
EndIf()
If(1,20,0,3,0)
 JumpToLabel("要求")
 0()
EndIf()
If(1,20,0,4,0)
 JumpToLabel("贈与")
 0()
EndIf()
DefineLabel("情報")
ChangeVariable(13,13,0,2,1,100)
If(1,13,0,10,2)
 ShowMessageFace("kyoryuu_fc1",0,0,2,1)
 ShowMessage("\\n<Kyoryuu>Hazy...")
 EndEventProcessing()
 0()
EndIf()
If(1,13,0,20,2)
 ShowMessageFace("kyoryuu_fc1",0,0,2,2)
 ShowMessage("\\n<Kyoryuu>*siiip*...")
 EndEventProcessing()
 0()
EndIf()
If(1,13,0,30,2)
 ShowMessageFace("kyoryuu_fc1",0,0,2,3)
 ShowMessage("\\n<Kyoryuu>I'll crush you...")
 EndEventProcessing()
 0()
EndIf()
If(1,13,0,40,2)
 ShowMessageFace("kyoryuu_fc1",0,0,2,4)
 ShowMessage("\\n<Kyoryuu>Sleepy...")
 EndEventProcessing()
 0()
EndIf()
If(1,13,0,50,2)
 ShowMessageFace("kyoryuu_fc1",0,0,2,5)
 ShowMessage("\\n<Kyoryuu>Large...")
 EndEventProcessing()
 0()
EndIf()
If(1,13,0,60,2)
 ShowMessageFace("kyoryuu_fc1",0,0,2,6)
 ShowMessage("\\n<Kyoryuu>Can I lick you...?")
 EndEventProcessing()
 0()
EndIf()
If(1,13,0,70,2)
 ShowMessageFace("kyoryuu_fc1",0,0,2,7)
 ShowMessage("\\n<Kyoryuu>Raaawr...")
 EndEventProcessing()
 0()
EndIf()
If(1,13,0,80,2)
 ShowMessageFace("kyoryuu_fc1",0,0,2,8)
 ShowMessage("\\n<Kyoryuu>Don't bully me...")
 EndEventProcessing()
 0()
EndIf()
If(1,13,0,90,2)
 ShowMessageFace("kyoryuu_fc1",0,0,2,9)
 ShowMessage("\\n<Kyoryuu>I'm not a turtle...\nI'm a dragon.")
 EndEventProcessing()
 0()
EndIf()
If(1,13,0,100,2)
 ShowMessageFace("kyoryuu_fc1",0,0,2,10)
 ShowMessage("\\n<Kyoryuu>Humans are rare...")
 EndEventProcessing()
 0()
EndIf()
DefineLabel("質問")
ChangeVariable(13,13,0,2,1,50)
If(1,13,0,10,2)
 ShowMessageFace("kyoryuu_fc1",0,0,2,11)
 ShowMessage("\\n<Kyoryuu>...Tasty?")
 ShowChoices(strings("Not tasty","Delicious","I'm poisonous"),0)
 IfPlayerPicksChoice(0,"おいしくない")
  ShowMessageFace("kyoryuu_fc1",0,0,2,12)
  ShowMessage("\\n<Kyoryuu>Really...?\nI'll try eating you...")
  0()
 IfPlayerPicksChoice(1,"おいしいよ")
  ShowMessageFace("kyoryuu_fc1",1,0,2,13)
  ShowMessage("\\n<Kyoryuu>Then I want to eat you...")
  355("change_friend(10)")
  0()
 IfPlayerPicksChoice(2,"毒がある")
  ShowMessageFace("kyoryuu_fc1",2,0,2,14)
  ShowMessage("\\n<Kyoryuu>Don't want...")
  355("change_friend(-5)")
  0()
 404()
 EndEventProcessing()
 0()
EndIf()
If(1,13,0,20,2)
 ShowMessageFace("kyoryuu_fc1",0,0,2,15)
 ShowMessage("\\n<Kyoryuu>Why am I so big...")
 ShowChoices(strings("Because you ate too much","You were large to begin with","Because you're big-hearted"),0)
 IfPlayerPicksChoice(0,"食べ過ぎだから")
  ShowMessageFace("kyoryuu_fc1",2,0,2,16)
  ShowMessage("\\n<Kyoryuu>Eating too much...isn't good?")
  355("change_friend(-5)")
  0()
 IfPlayerPicksChoice(1,"元々大きいから")
  ShowMessageFace("kyoryuu_fc1",1,0,2,17)
  ShowMessage("\\n<Kyoryuu>If I started like that, it can't be helped...")
  0()
 IfPlayerPicksChoice(2,"心が広いから")
  ShowMessageFace("kyoryuu_fc1",1,0,2,18)
  ShowMessage("\\n<Kyoryuu>You praised me... I'm happy...")
  355("change_friend(10)")
  0()
 404()
 EndEventProcessing()
 0()
EndIf()
If(1,13,0,30,2)
 ShowMessageFace("kyoryuu_fc1",0,0,2,19)
 ShowMessage("\\n<Kyoryuu>Why are humans so small...?")
 ShowChoices(strings("We don't eat much","Our hearts are small","You're just big"),0)
 IfPlayerPicksChoice(0,"あまり食べない")
  ShowMessageFace("kyoryuu_fc1",0,0,2,20)
  ShowMessage("\\n<Kyoryuu>Please eat a lot...")
  0()
 IfPlayerPicksChoice(1,"心が小さい")
  ShowMessageFace("kyoryuu_fc1",0,0,2,21)
  ShowMessage("\\n<Kyoryuu>Really? Poor thing...")
  0()
 IfPlayerPicksChoice(2,"君が大きい")
  ShowMessageFace("kyoryuu_fc1",1,0,2,22)
  ShowMessage("\\n<Kyoryuu>I'm big...?")
  355("change_friend(10)")
  0()
 404()
 EndEventProcessing()
 0()
EndIf()
If(1,13,0,40,2)
 ShowMessageFace("kyoryuu_fc1",0,0,2,23)
 ShowMessage("\\n<Kyoryuu>...What are you doing?")
 ShowChoices(strings("Adventuring","Walking","Monster hunting"),0)
 IfPlayerPicksChoice(0,"冒険")
  ShowMessageFace("kyoryuu_fc1",0,0,2,24)
  ShowMessage("\\n<Kyoryuu>How strange...")
  0()
 IfPlayerPicksChoice(1,"散歩")
  ShowMessageFace("kyoryuu_fc1",1,0,2,25)
  ShowMessage("\\n<Kyoryuu>Can we walk together...?")
  355("change_friend(10)")
  0()
 IfPlayerPicksChoice(2,"魔物狩り")
  ShowMessageFace("kyoryuu_fc1",2,0,2,26)
  ShowMessage("\\n<Kyoryuu>Hate...")
  355("change_friend(-5)")
  0()
 404()
 EndEventProcessing()
 0()
EndIf()
If(1,13,0,50,2)
 ShowMessageFace("kyoryuu_fc1",0,0,2,27)
 ShowMessage("\\n<Kyoryuu>Is there an animal bigger than me...?")
 ShowChoices(strings("Elephant","Whale","Ultrasaurus"),0)
 IfPlayerPicksChoice(0,"象")
  ShowMessageFace("kyoryuu_fc1",0,0,2,28)
  ShowMessage("\\n<Kyoryuu>Elephants are smaller than me...")
  0()
 IfPlayerPicksChoice(1,"クジラ")
  ShowMessageFace("kyoryuu_fc1",1,0,2,29)
  ShowMessage("\\n<Kyoryuu>Aren't they in the sea?\nI would like to see them...")
  355("change_friend(10)")
  0()
 IfPlayerPicksChoice(2,"ウルトラザウルス")
  ShowMessageFace("kyoryuu_fc1",0,0,2,30)
  ShowMessage("\\n<Kyoryuu>What's that...? I don't know...")
  0()
 404()
 EndEventProcessing()
 0()
EndIf()
DefineLabel("要求")
ChangeVariable(13,13,0,2,1,30)
If(1,13,0,10,2)
 If(8,329)
  ShowMessageFace("kyoryuu_fc1",0,0,2,31)
  ShowMessage("\\n<Kyoryuu>I want to eat meat...")
  ChangeVariable(24,24,0,3,0,329,0)
  ShowMessageFace("",0,0,2,32)
  ShowMessage("Do you want to give some \\ii[329]? (Have:\\V[24])")
  ShowChoices(strings("Yes","No"),2)
  IfPlayerPicksChoice(0,"Yes")
   ShowMessageFace("kyoryuu_fc1",1,0,2,33)
   ShowMessage("\\n<Kyoryuu>Thanks...♪")
   ChangeInventory_Item(329,1,0,1)
   355("change_friend(20)")
   EndEventProcessing()
   0()
  IfPlayerPicksChoice(1,"No")
   ShowMessageFace("kyoryuu_fc1",2,0,2,34)
   ShowMessage("\\n<Kyoryuu>Hnnnn!")
   EndEventProcessing()
   0()
  404()
  0()
 Else()
  ChangeVariable(13,13,0,0,20)
  0()
 EndIf()
 0()
EndIf()
If(1,13,0,20,2)
 If(8,405)
  ShowMessageFace("kyoryuu_fc1",0,0,2,35)
  ShowMessage("\\n<Kyoryuu>Are meat buns tasty...?")
  ChangeVariable(24,24,0,3,0,405,0)
  ShowMessageFace("",0,0,2,36)
  ShowMessage("Do you want to give a \\ii[405]? (Have:\\V[24])")
  ShowChoices(strings("Yes","No"),2)
  IfPlayerPicksChoice(0,"Yes")
   ShowMessageFace("kyoryuu_fc1",1,0,2,37)
   ShowMessage("\\n<Kyoryuu>Thanks...♪")
   ChangeInventory_Item(405,1,0,1)
   355("change_friend(30)")
   EndEventProcessing()
   0()
  IfPlayerPicksChoice(1,"No")
   ShowMessageFace("kyoryuu_fc1",2,0,2,38)
   ShowMessage("\\n<Kyoryuu>Hnnnn!")
   EndEventProcessing()
   0()
  404()
  0()
 Else()
  ChangeVariable(13,13,0,0,30)
  0()
 EndIf()
 0()
EndIf()
If(1,13,0,30,2)
 ShowMessageFace("kyoryuu_fc1",0,0,2,39)
 ShowMessage("\\n<Kyoryuu>I want to eat money...")
 If(7,3030,0)
  ChangeVariable(24,24,0,3,7,2,0)
  ShowMessageFace("",0,0,2,40)
  ShowMessage("Do you want to give 3030G? (Remaining:\\V[24])")
  ShowChoices(strings("Yes","No"),2)
  IfPlayerPicksChoice(0,"Yes")
   ShowMessageFace("kyoryuu_fc1",1,0,2,41)
   ShowMessage("\\n<Kyoryuu>Thanks...♪")
   125(1,0,3030)
   355("change_friend(25)")
   EndEventProcessing()
   0()
  IfPlayerPicksChoice(1,"No")
   ShowMessageFace("kyoryuu_fc1",2,0,2,42)
   ShowMessage("\\n<Kyoryuu>Hnnnn!")
   EndEventProcessing()
   0()
  404()
  0()
 Else()
  ShowMessageFace("kyoryuu_fc1",0,0,2,43)
  ShowMessage("\\n<Kyoryuu>...You don't have it?")
  EndEventProcessing()
  0()
 EndIf()
 0()
EndIf()
DefineLabel("贈与")
ChangeVariable(13,13,0,2,1,30)
If(1,25,0,1,0)
 ChangeVariable(13,13,0,0,30)
 ChangeVariable(25,25,0,0,0)
 0()
EndIf()
If(1,25,0,2,0)
 ChangeVariable(13,13,0,2,1,20)
 ChangeVariable(25,25,0,0,0)
 0()
EndIf()
If(1,13,0,10,2)
 ShowMessageFace("kyoryuu_fc1",0,0,2,44)
 ShowMessage("\\n<Kyoryuu>My fang fell out... I will give it to you.")
 250(bytes(0x04,0x08,0x6f,0x3a,0x0c,0x52,0x50,0x47,0x3a,0x3a,0x53,0x45,0x08,0x3a,0x0a,0x40,0x6e,0x61,0x6d,0x65,0x49,0x22,0x0a,0x49,0x74,0x65,0x6d,0x31,0x06,0x3a,0x06,0x45,0x54,0x3a,0x0b,0x40,0x70,0x69,0x74,0x63,0x68,0x69,0x69,0x3a,0x0c,0x40,0x76,0x6f,0x6c,0x75,0x6d,0x65,0x69,0x55))
 ChangeInventory_Item(237,0,0,1)
 ShowMessageFace("",0,0,2,45)
 ShowMessage("The Kyoryuu gave you a \\ii[237]!")
 EndEventProcessing()
 0()
EndIf()
If(1,13,0,20,2)
 ShowMessageFace("kyoryuu_fc1",0,0,2,46)
 ShowMessage("\\n<Kyoryuu>I will give you this magic stone... I picked it up.")
 250(bytes(0x04,0x08,0x6f,0x3a,0x0c,0x52,0x50,0x47,0x3a,0x3a,0x53,0x45,0x08,0x3a,0x0a,0x40,0x6e,0x61,0x6d,0x65,0x49,0x22,0x0a,0x49,0x74,0x65,0x6d,0x31,0x06,0x3a,0x06,0x45,0x54,0x3a,0x0b,0x40,0x70,0x69,0x74,0x63,0x68,0x69,0x69,0x3a,0x0c,0x40,0x76,0x6f,0x6c,0x75,0x6d,0x65,0x69,0x55))
 ChangeInventory_Item(69,0,0,1)
 ShowMessageFace("",0,0,2,47)
 ShowMessage("The Kyoryuu gave you a \\ii[69]!")
 EndEventProcessing()
 0()
EndIf()
If(1,13,0,30,2)
 ShowMessageFace("kyoryuu_fc1",0,0,2,48)
 ShowMessage("\\n<Kyoryuu>I can't eat money... You can have it.")
 250(bytes(0x04,0x08,0x6f,0x3a,0x0c,0x52,0x50,0x47,0x3a,0x3a,0x53,0x45,0x08,0x3a,0x0a,0x40,0x6e,0x61,0x6d,0x65,0x49,0x22,0x0a,0x49,0x74,0x65,0x6d,0x31,0x06,0x3a,0x06,0x45,0x54,0x3a,0x0b,0x40,0x70,0x69,0x74,0x63,0x68,0x69,0x69,0x3a,0x0c,0x40,0x76,0x6f,0x6c,0x75,0x6d,0x65,0x69,0x55))
 125(0,0,5050)
 ShowMessageFace("",0,0,2,49)
 ShowMessage("The Kyoryuu gave you 5050G!")
 EndEventProcessing()
 0()
EndIf()
0()
