// EVENT 3032
Name "Jack O Lantern"

If(0,25,1)
 JumpToLabel("反省会")
 0()
EndIf()
PictureDisplay(5,"80_jack_st02",0,0,0,0,100,100,0,0)
PictureMove(5,null,0,0,0,0,100,100,255,0,30,true)
241(bytes(0x04,0x08,0x6f,0x3a,0x0d,0x52,0x50,0x47,0x3a,0x3a,0x42,0x47,0x4d,0x08,0x3a,0x0a,0x40,0x6e,0x61,0x6d,0x65,0x49,0x22,0x09,0x65,0x72,0x6f,0x31,0x06,0x3a,0x06,0x45,0x54,0x3a,0x0c,0x40,0x76,0x6f,0x6c,0x75,0x6d,0x65,0x69,0x69,0x3a,0x0b,0x40,0x70,0x69,0x74,0x63,0x68,0x69,0x69))
ShowMessageFace("",0,0,2,1)
ShowMessage("\\n<Luka>Nnngh...")
ShowMessageFace("jack_fc1",1,0,2,2)
ShowMessage("\\n<Jack O Lantern>Unable to move...?\nYou'll be nice and docile now, right...?")
ShowMessageFace("",0,0,2,3)
ShowMessage("The Jack O Lantern girl leans down in front my limp body.")
ShowMessage("She timidly pulls down my pants.")
ShowMessageFace("",0,0,2,4)
ShowMessage("\\n<Luka>W-What are you doing...!?")
ShowMessageFace("jack_fc1",0,0,2,5)
ShowMessage("\\n<Jack O Lantern>Let me see your penis...\nI've never seen one before...")
ShowMessageFace("",0,0,2,6)
ShowMessage("After lowering my pants and underwear, my lower body is exposed.")
ShowMessage("The girl looks at my exposed penis with interest.")
ShowMessageFace("jack_fc1",0,0,2,7)
ShowMessage("\\n<Jack O Lantern>This is a penis...")
PictureDisplay(5,"ev_jack_ha01",0,0,0,0,100,100,0,0)
PictureMove(5,null,0,0,0,0,100,100,255,0,30,true)
ShowMessageFace("jack_fc1",0,0,2,8)
ShowMessage("\\n<Jack O Lantern>Uhn, uhn, uhn...")
ShowMessageFace("",0,0,2,9)
ShowMessage("The Jack O Lantern girl pokes at my penis with her finger.")
ShowMessage("Her light touch brushes against the tip of my penis.")
ShowMessageFace("",0,0,2,10)
ShowMessage("Naturally, my penis reacts to the stimulus.")
ShowMessage("Before the young girl's eyes, my penis grows larger.")
ShowMessageFace("jack_fc1",1,0,2,11)
ShowMessage("\\n<Jack O Lantern>Waah, it got bigger...")
ShowMessageFace("",0,0,2,12)
ShowMessage("\\n<Luka>S-Stop looking...")
ShowMessageFace("",0,0,2,13)
ShowMessage("I'm getting excited from a little girl's curiosity...")
ShowMessage("My body twitches in embarassment.")
ShowMessageFace("jack_fc1",1,0,2,14)
ShowMessage("\\n<Jack O Lantern>This is where semen comes from, right?\nIf you touch a penis, semen shoots out?")
PictureDisplay(5,"ev_jack_ha04",0,0,0,0,100,100,255,0)
ShowMessageFace("jack_fc1",1,0,2,15)
ShowMessage("\\n<Jack O Lantern>...*Squeeze*")
ShowMessageFace("",0,0,2,16)
ShowMessage("\\n<Luka>Ah...! Ooooh...!")
ShowMessageFace("",0,0,2,17)
ShowMessage("The Jack O Lantern girl reaches out and grabs my penis.")
ShowMessage("Her small, warm palm grabs hold of me.")
ShowMessageFace("",0,0,2,18)
ShowMessage("My penis instantly gets as hard as it can in her small hand.")
ShowMessage("This young girl has me completely in her grasp...")
ShowMessageFace("jack_fc1",1,0,2,19)
ShowMessage("\\n<Jack O Lantern>Hard...")
ShowMessageFace("",0,0,2,20)
ShowMessage("\\n<Luka>Ngh... Aaah...")
ShowMessageFace("",0,0,2,21)
ShowMessage("She starts to put some strength in her palm.")
ShowMessage("She's squeezing it, as if to confirm its hardness.")
ShowMessageFace("",0,0,2,22)
ShowMessage("After squeezing it, her soft hand starts to slowly loosen.")
ShowMessage("A pump-like stimulus as she squeezes and releases...")
ShowMessageFace("jack_fc1",1,0,2,23)
ShowMessage("\\n<Jack O Lantern>The semen isn't coming out...\nDo I need to touch it harder...?")
ShowMessageFace("",0,0,2,24)
ShowMessage("\\n<Luka>S-Stop... Aaah...!")
245(bytes(0x04,0x08,0x6f,0x3a,0x0d,0x52,0x50,0x47,0x3a,0x3a,0x42,0x47,0x53,0x08,0x3a,0x0a,0x40,0x6e,0x61,0x6d,0x65,0x49,0x22,0x17,0x6d,0x6f,0x6e,0x5f,0x68,0x73,0x65,0x61,0x6e,0x31,0x37,0x5f,0x73,0x69,0x67,0x6f,0x6b,0x69,0x06,0x3a,0x06,0x45,0x54,0x3a,0x0c,0x40,0x76,0x6f,0x6c,0x75,0x6d,0x65,0x69,0x55,0x3a,0x0b,0x40,0x70,0x69,0x74,0x63,0x68,0x69,0x69))
ShowMessageFace("",0,0,2,25)
ShowMessage("The Jack O Lantern girl starts to move her palm up and down.")
ShowMessage("Very slowly, her young hand strokes me up and down.")
ShowMessageFace("",0,0,2,26)
ShowMessage("Her fingers touch my sensitive tip.")
ShowMessage("They brush against me as she strokes, seemingly on accident.")
ShowMessageFace("",0,0,2,27)
ShowMessage("Even with the slow motion movements, it feels too good.")
ShowMessageFace("jack_fc1",1,0,2,28)
ShowMessage("\\n<Jack O Lantern>Is this good...?\n*Rub* *Rub*")
ShowMessageFace("",0,0,2,29)
ShowMessage("\\n<Luka>Nnngh...")
ShowMessageFace("",0,0,2,30)
ShowMessage("The young girl stares in interest at my penis as she strokes.")
ShowMessage("But no matter how much I resist, I can't go against the feel of her soft hand.")
ShowMessageFace("",0,0,2,31)
ShowMessage("Tight and loose, tight and loose...")
ShowMessage("And slowly up and down, she's bringing me closer to a climax.")
ShowMessageFace("jack_fc1",1,0,2,32)
ShowMessage("\\n<Jack O Lantern>*Rub* *Rub*")
ShowMessageFace("",0,0,2,33)
ShowMessage("\\n<Luka>Ah, aaah...")
ShowMessageFace("",0,0,2,34)
ShowMessage("Her slow handjob continues.")
ShowMessage("Liquid starts to ooze from the tip of my penis in her embrace.")
ShowMessageFace("jack_fc1",1,0,2,35)
ShowMessage("\\n<Jack O Lantern>Wah, juice is coming out...\nIs this semen?")
ShowMessageFace("",0,0,2,36)
ShowMessage("\\n<Luka>I-it's not...")
ShowMessageFace("",0,0,2,37)
ShowMessage("The pre-come drips out, covering her finger.")
ShowMessage("As she continues stroking, the pre-come covers more of her small hand.")
ShowMessageFace("jack_fc1",1,0,2,38)
ShowMessage("\\n<Jack O Lantern>It's kind of slimy...")
ShowMessageFace("",0,0,2,39)
ShowMessage("\\n<Luka>Ngh... Aaah...")
ShowMessageFace("",0,0,2,40)
ShowMessage("With the new lubrication, her movements get smoother.")
ShowMessage("Her slow up and down stroking slowly brings me closer and closer to the end.")
ShowMessageFace("",0,0,2,41)
ShowMessage("\\n<Luka>N-noooo... I'm going to come...!")
ShowMessageFace("",0,0,2,42)
ShowMessage("I'm finally pushed to the edge.")
ShowMessage("My waist trembles as I try to hold back the ejaculation.")
ShowMessageFace("jack_fc1",1,0,2,43)
ShowMessage("\\n<Jack O Lantern>Come...\nLet out the semen...")
ShowMessageFace("",0,0,2,44)
ShowMessage("But her hand doesn't stop.")
ShowMessage("She just continues stroking me, driving me toward my orgasm.")
ShowMessageFace("",0,0,2,45)
ShowMessage("The young girl watches carefully, her sexual curiosity wanting to see my ejaculation.")
ShowMessage("Exposed under her careful gaze, I finally can't contain it any longer.")
ShowMessageFace("",0,0,2,46)
ShowMessage("\\n<Luka>D-don't...\nAaaah...!")
RunCommonEvent(104)
PictureDisplay(5,"ev_jack_ha05",0,0,0,0,100,100,255,0)
RunCommonEvent(105)
246(2)
ShowMessageFace("",0,0,2,47)
ShowMessage("My penis pulses in her hand.")
ShowMessage("At the same time, my semen shoots out onto her.")
ShowMessageFace("",0,0,2,48)
ShowMessage("Every time my penis pulses, a pleasant feeling washes over my waist.")
ShowMessage("Her small hand felt too good...")
ShowMessageFace("",0,0,2,49)
ShowMessage("\\n<Luka>Nnngh...")
ShowMessageFace("jack_fc1",0,0,2,50)
ShowMessage("\\n<Jack O Lantern>Wahwahwah... Waah...")
ShowMessageFace("",0,0,2,51)
ShowMessage("The Jack O Lantern girl is puzzled at the sight of her first ejaculation...")
ShowMessage("And the semen that's covering her body.")
ShowMessageFace("",0,0,2,52)
ShowMessage("But she never lets go of my penis.")
ShowMessage("Every lost drop is squeezed out into her hand.")
ShowMessageFace("",0,0,2,53)
ShowMessage("At last, the amazing orgasm is over.")
PictureDisplay(5,"ev_jack_ha07",0,0,0,0,100,100,255,0)
ShowMessageFace("jack_fc1",0,0,2,54)
ShowMessage("\\n<Jack O Lantern>Sticky...")
ShowMessageFace("",0,0,2,55)
ShowMessage("From her face to her chest, she's covered in my semen.")
ShowMessage("The immoral feelings of dirtying this girl flood through me.")
ShowMessageFace("jack_fc1",1,0,2,56)
ShowMessage("\\n<Jack O Lantern>I squeezed out your semen.\nThis penis belongs to me...")
ShowMessageFace("",0,0,2,57)
ShowMessage("\\n<Luka>N...no way...")
ShowMessageFace("",0,0,2,58)
ShowMessage("She declares her ownership of my penis.")
ShowMessage("But having been defeated by her, I can't disobey.")
ShowMessageFace("",0,0,2,59)
ShowMessage("I'm now nothing more than her toy.")
ShowMessage("From then on, she tries out everything she can think of with my male organ, little more than her plaything.")
221()
PictureClear(5)
DefineLabel("反省会")
ShowMessageFace("",0,0,2,60)
ShowMessage("......")
221()
242(1)
Wait(120)
355("memory_interruption")
ShowMessageFace("",0,0,2,61)
ShowMessage("You hear Ilias' voice calling out to you...")
ShowMessage("Receive her evaluation?")
ShowChoices(strings("Receive evaluation","Change difficulty","Reincarnate"),3)
IfPlayerPicksChoice(0,null)
 241(bytes(0x04,0x08,0x6f,0x3a,0x0d,0x52,0x50,0x47,0x3a,0x3a,0x42,0x47,0x4d,0x08,0x3a,0x0a,0x40,0x6e,0x61,0x6d,0x65,0x49,0x22,0x0a,0x69,0x72,0x69,0x61,0x73,0x06,0x3a,0x06,0x45,0x54,0x3a,0x0c,0x40,0x76,0x6f,0x6c,0x75,0x6d,0x65,0x69,0x5f,0x3a,0x0b,0x40,0x70,0x69,0x74,0x63,0x68,0x69,0x6e))
 PictureDisplay(1,"bg001",0,0,0,0,100,100,255,0)
 222()
 PictureDisplay(5,"80_iriasu_st04",0,0,0,0,100,100,0,0)
 PictureMove(5,null,0,0,0,0,100,100,255,0,30,true)
 ShowMessageFace("iriasu_fc1",3,0,2,62)
 ShowMessage("\\n<Ilias>Trick or treat...\nI'm not quite sure which one you received.")
 PictureDisplay(5,"80_iriasu_st01",0,0,0,0,100,100,255,0)
 ShowMessageFace("iriasu_fc1",0,0,2,63)
 ShowMessage("\\n<Ilias>Jack O Lantern uses low level black magic.\nIn addition to elements, she can use some status effects.")
 ShowMessageFace("iriasu_fc1",0,0,2,64)
 ShowMessage("\\n<Ilias>They are threatening, but you can seal them with silence.\nIt's very effective, so you should use it.")
 ShowMessageFace("iriasu_fc1",0,0,2,65)
 ShowMessage("\\n<Ilias>Since she's a wizard type, her attack and defense are low.\nHer evasion may be high, but her HP is low.")
 PictureDisplay(5,"80_iriasu_st02",0,0,0,0,100,100,255,0)
 ShowMessageFace("iriasu_fc1",1,0,2,66)
 ShowMessage("\\n<Ilias>Now go, oh brave Luka.\nIf you don't win this time, I'll be the one tricking you.")
 242(1)
 221()
 PictureClear(5)
 PictureClear(1)
 Wait(60)
 0()
IfPlayerPicksChoice(1,null)
 ShowMessageFace("",0,0,2,67)
 ShowMessage("Please choose a difficulty level.")
 RunCommonEvent(110)
 0()
IfPlayerPicksChoice(2,null)
 0()
404()
RunCommonEvent(3000)
0()
