﻿// EVENT 2065
Name "Seduction: Page 257"

If(0,25,1)
 EndEventProcessing()
 0()
EndIf()
355("$game_troop.lose_event_id = 3065")
ChangeVariable(26,26,0,3,3,1,4)
ChangeVariable(26,26,4,0,10)
ShowMessageFace("page257_fc1",0,0,2,1)
ShowMessage("\\n<Page 257>Fufu, you're quite strong.\nJust like the prince from a fairy tale...")
ShowMessageFace("page257_fc1",0,0,2,2)
ShowMessage("\\n<Page 257>I could give my virginity to you.\nPlease, be gentle...")
ShowMessageFace("",0,0,2,3)
ShowMessage("Page 257 clings to Luka!")
ChangeSwitch(98,98,0)
ChangeSwitch(96,96,0)
ShowChoices(strings("Ignore her","Give in to temptation"),1)
IfPlayerPicksChoice(0,"Ignore her")
 ShowMessageFace("",0,0,2,4)
 ShowMessage("But Luka breaks free!")
 RunCommonEvent(1999)
 EndEventProcessing()
 0()
IfPlayerPicksChoice(1,"誘惑に乗る")
 0()
404()
ShowMessageFace("",0,0,2,5)
ShowMessage("Page 257's small body leans over me!\nShe guides my penis toward her!")
ShowMessageFace("page257_fc1",0,0,2,6)
ShowMessage("\\n<Page 257>Now, your penis...\nI'll put it in me.")
ChangeVariable(26,26,3,0,4)
250(bytes(0x04,0x08,0x6f,0x3a,0x0c,0x52,0x50,0x47,0x3a,0x3a,0x53,0x45,0x08,0x3a,0x0a,0x40,0x6e,0x61,0x6d,0x65,0x49,0x22,0x11,0x6d,0x6f,0x6e,0x5f,0x65,0x72,0x6f,0x5f,0x70,0x79,0x75,0x33,0x06,0x3a,0x06,0x45,0x54,0x3a,0x0b,0x40,0x70,0x69,0x74,0x63,0x68,0x69,0x69,0x3a,0x0c,0x40,0x76,0x6f,0x6c,0x75,0x6d,0x65,0x69,0x69))
311(0,1,1,1,26,true)
ShowMessageFace("",0,0,2,7)
ShowMessage("Page 257 timidly presses down onto Luka!\nHis penis sinks inside her!\\D")
ShowMessage("Luka takes \\V[26] damage!")
ChangeVariable(27,27,0,3,3,1,2)
If(1,27,0,0,0)
 JumpToLabel("射精1")
 0()
EndIf()
ShowMessageFace("",0,0,2,8)
ShowMessage("\\n<Luka>Ah, aaaah...!")
ShowMessageFace("",0,0,2,9)
ShowMessage("As soon as I'm inside of her, her movements change.\nHer awkward movements instill a unique pleasure.")
ShowMessageFace("page257_fc1",1,0,2,10)
ShowMessage("\\n<Page 257>Ufufu, did you really think I was a virgin?\nI've violated countless men like this already...")
250(bytes(0x04,0x08,0x6f,0x3a,0x0c,0x52,0x50,0x47,0x3a,0x3a,0x53,0x45,0x08,0x3a,0x0a,0x40,0x6e,0x61,0x6d,0x65,0x49,0x22,0x13,0x6d,0x6f,0x6e,0x5f,0x65,0x72,0x6f,0x5f,0x63,0x68,0x75,0x70,0x61,0x33,0x06,0x3a,0x06,0x45,0x54,0x3a,0x0b,0x40,0x70,0x69,0x74,0x63,0x68,0x69,0x69,0x3a,0x0c,0x40,0x76,0x6f,0x6c,0x75,0x6d,0x65,0x69,0x69))
311(0,1,1,1,26,true)
ShowMessageFace("",0,0,2,11)
ShowMessage("Page 257 violently shakes her waist!\nHer skilled movements stimulate Luka!\\D")
ShowMessage("Luka takes \\V[26] damage!")
ChangeVariable(27,27,0,3,3,1,2)
If(1,27,0,0,0)
 JumpToLabel("射精2")
 0()
EndIf()
ShowMessageFace("page257_fc1",1,0,2,12)
ShowMessage("\\n<Page 257>Ufufu, it's my complete victory.\nHora, are you going to come now?")
250(bytes(0x04,0x08,0x6f,0x3a,0x0c,0x52,0x50,0x47,0x3a,0x3a,0x53,0x45,0x08,0x3a,0x0a,0x40,0x6e,0x61,0x6d,0x65,0x49,0x22,0x13,0x6d,0x6f,0x6e,0x5f,0x65,0x72,0x6f,0x5f,0x63,0x68,0x75,0x70,0x61,0x33,0x06,0x3a,0x06,0x45,0x54,0x3a,0x0b,0x40,0x70,0x69,0x74,0x63,0x68,0x69,0x69,0x3a,0x0c,0x40,0x76,0x6f,0x6c,0x75,0x6d,0x65,0x69,0x69))
311(0,1,1,1,26,true)
ShowMessageFace("",0,0,2,13)
ShowMessage("Page 257 presses down harder, taking Luka deeper!\nAt the same time, she squeezes down on him!\\D")
ShowMessage("Luka takes \\V[26] damage!")
ChangeVariable(27,27,0,3,3,1,2)
If(1,27,0,0,0)
 JumpToLabel("射精2")
 0()
EndIf()
DefineLabel("射精1")
ShowMessageFace("",0,0,2,14)
ShowMessage("\\n<Luka>Ah, it feels too good...!")
RunCommonEvent(104)
RunCommonEvent(105)
ShowMessageFace("",0,0,2,15)
ShowMessage("I suddenly come inside of her.\nThe moment of insertion was too much to take...")
ShowMessageFace("page257_fc1",1,0,2,16)
ShowMessage("\\n<Page 257>Oh my, did you have an accident?\nUfufu, how miserable.")
RunCommonEvent(2000)
EndEventProcessing()
DefineLabel("射精2")
ShowMessageFace("",0,0,2,17)
ShowMessage("\\n<Luka>Oh no... I'm coming...")
RunCommonEvent(104)
RunCommonEvent(105)
ShowMessageFace("",0,0,2,18)
ShowMessage("I come inside of Page 257's incredible vagina.\nMy semen spurts into her warm body.")
ShowMessageFace("page257_fc1",1,0,2,19)
ShowMessage("\\n<Page 257>Ufufu, such a quick shot.\nIsn't my technique just amazing?")
RunCommonEvent(2000)
EndEventProcessing()
0()
