// EVENT 3147
Name "Principality Nagael"

If(0,25,1)
 JumpToLabel("反省会")
 0()
EndIf()
PictureDisplay(5,"80_nagael_st02",0,0,0,0,100,100,0,0)
PictureMove(5,null,0,0,0,0,100,100,255,0,30,true)
241(bytes(0x04,0x08,0x6f,0x3a,0x0d,0x52,0x50,0x47,0x3a,0x3a,0x42,0x47,0x4d,0x08,0x3a,0x0a,0x40,0x6e,0x61,0x6d,0x65,0x49,0x22,0x09,0x65,0x72,0x6f,0x31,0x06,0x3a,0x06,0x45,0x54,0x3a,0x0c,0x40,0x76,0x6f,0x6c,0x75,0x6d,0x65,0x69,0x69,0x3a,0x0b,0x40,0x70,0x69,0x74,0x63,0x68,0x69,0x69))
ShowMessageFace("",0,0,2,1)
ShowMessage("\\n<Luka>Ahh...")
ShowMessageFace("nagael_fc1",1,0,2,2)
ShowMessage("\\n<Nagael>It seems your will to resist is gone.\nNow that your body has succumbed, next shall I take your heart?")
ShowMessageFace("",0,0,2,3)
ShowMessage("\\n<Luka>W...What are... Ahh!")
250(bytes(0x04,0x08,0x6f,0x3a,0x0c,0x52,0x50,0x47,0x3a,0x3a,0x53,0x45,0x08,0x3a,0x0a,0x40,0x6e,0x61,0x6d,0x65,0x49,0x22,0x16,0x6d,0x6f,0x6e,0x5f,0x65,0x72,0x6f,0x5f,0x6d,0x61,0x6b,0x69,0x74,0x75,0x6b,0x69,0x33,0x06,0x3a,0x06,0x45,0x54,0x3a,0x0b,0x40,0x70,0x69,0x74,0x63,0x68,0x69,0x69,0x3a,0x0c,0x40,0x76,0x6f,0x6c,0x75,0x6d,0x65,0x69,0x69))
PictureDisplay(5,"ev_nagael_h1",0,0,0,0,100,100,255,0)
ShowMessageFace("",0,0,2,4)
ShowMessage("Nagael's snakes all rush out toward me, weakened on the ground.")
ShowMessage("With quick, deft movements, they bind my body in their long bodies.")
ShowMessageFace("",0,0,2,5)
ShowMessage("Two of them bury their heads in my groin area.")
ShowMessage("As their tongues quickly flick in and out of their mouths, they slowly approach my penis.")
ShowMessageFace("",0,0,2,6)
ShowMessage("It's obvious what they're aiming for...")
ShowMessageFace("",0,0,2,7)
ShowMessage("\\n<Luka>S...Stop...")
ShowMessageFace("nagael_fc1",1,0,2,8)
ShowMessage("\\n<Nagael>Now than, shall we convert you...?\nRepent your crimes and swear yourself to our side.")
ShowMessageFace("nagael_fc1",1,0,2,9)
ShowMessage("\\n<Nagael>If you don't... Take this.")
245(bytes(0x04,0x08,0x6f,0x3a,0x0d,0x52,0x50,0x47,0x3a,0x3a,0x42,0x47,0x53,0x08,0x3a,0x0a,0x40,0x6e,0x61,0x6d,0x65,0x49,0x22,0x1a,0x6d,0x6f,0x6e,0x5f,0x68,0x73,0x65,0x61,0x6e,0x32,0x30,0x5f,0x74,0x65,0x6e,0x74,0x61,0x63,0x6c,0x65,0x31,0x06,0x3a,0x06,0x45,0x54,0x3a,0x0c,0x40,0x76,0x6f,0x6c,0x75,0x6d,0x65,0x69,0x55,0x3a,0x0b,0x40,0x70,0x69,0x74,0x63,0x68,0x69,0x69))
PictureDisplay(6,"ev_nagael_ct01",0,0,0,0,100,100,255,0)
ShowMessageFace("",0,0,2,10)
ShowMessage("At Nagael's command, the snakes by my groin start to move.")
ShowMessage("Their quick tongues reach out toward my penis, and start licking.")
ShowMessageFace("",0,0,2,11)
ShowMessage("\\n<Luka>Ahhhh!!")
ShowMessageFace("",0,0,2,12)
ShowMessage("The next moment, I was screaming.")
ShowMessage("The pleasure is so intense, the thoughts are instantly driven from my mind.")
ShowMessageFace("",0,0,2,13)
ShowMessage("Their quick tongues flick and lick at me, shooting in and out faster than I can even see.")
ShowMessage("One of them quickly bites on my glans, its toothless mouth sending waves of bliss through me.")
ShowMessageFace("",0,0,2,14)
ShowMessage("I writhe in agony, completely toyed with by her snakes.")
ShowMessageFace("",0,0,2,15)
ShowMessage("\\n<Luka>Hyaaa! S...Stop!")
ShowMessageFace("nagael_fc1",1,0,2,16)
ShowMessage("\\n<Nagael>Until you convert, this won't stop.\nNow, will you serve us?")
ShowMessageFace("",0,0,2,17)
ShowMessage("\\n<Luka>W...Who would do...\nAhhh!")
ShowMessageFace("",0,0,2,18)
ShowMessage("One of the snake's rough tongues coils around my glans, its tip flicking against my urethral opening.")
ShowMessage("At the same time, another snake nibbles on my glans.")
ShowMessageFace("",0,0,2,19)
ShowMessage("It's as if they're eagerly devouring my penis, trapping me in a prison of pleasure.")
ShowMessageFace("",0,0,2,20)
ShowMessage("\\n<Luka>S...Stop... Hyaaa!")
ShowMessageFace("",0,0,2,21)
ShowMessage("The violent pleasure makes me writhe and squirm in her hold.")
ShowMessageFace("",0,0,2,22)
ShowMessage("Even if I'm horrified, my body reacts as a man to the stimulation.")
ShowMessage("Pre-come is already leaking out, flowing out in seconds from the snake's assault.")
ShowMessageFace("nagael_fc1",1,0,2,23)
ShowMessage("\\n<Nagael>I think you know, but...\nIf you ejaculate, their violation will get far more severe.")
ShowMessageFace("nagael_fc1",1,0,2,24)
ShowMessage("\\n<Nagael>This torture will only get more intense as your penis gets more sensitive.\nI think it would be best if you converted before you go mad.")
ShowMessageFace("",0,0,2,25)
ShowMessage("\\n<Luka>Guh... Who would swear himself to...\nAhh!")
ShowMessageFace("",0,0,2,26)
ShowMessage("Imagining just how intense this would get if I ejaculate, I tense up my lower body to hold back my orgasm.")
ShowMessageFace("",0,0,2,27)
ShowMessage("\\n<Luka>Ah...!")
ShowMessageFace("",0,0,2,28)
ShowMessage("But the skilled snake's tongues put me back into a corner.")
ShowMessage("I can feel their quick tongues going up and down my back muscle, and running over my tip...")
ShowMessageFace("",0,0,2,29)
ShowMessage("I don't think I can hold on much longer...")
ShowMessageFace("nagael_fc1",1,0,2,30)
ShowMessage("\\n<Nagael>You're already at your limit, I see...\nVery well then, I'll force you to come.")
ShowMessageFace("",0,0,2,31)
ShowMessage("Responding to Nagael's instructions, their tongue movements get far more intense.")
ShowMessageFace("",0,0,2,32)
ShowMessage("The tongues coiled around my penis slightly contract, as the ones licking me move even faster.")
ShowMessageFace("",0,0,2,34)
ShowMessage("\\n<Luka>Ahh...")
ShowMessageFace("",0,0,2,35)
ShowMessage("The desire to release, to accept the pleasure finally overpowers my brain.")
ShowMessageFace("",0,0,2,36)
ShowMessage("Relaxing my waist, I give in and let the pleasure overtake me.")
RunCommonEvent(104)
PictureDisplay(5,"ev_nagael_h2",0,0,0,0,100,100,255,0)
PictureDisplay(6,"ev_nagael_ct02",0,0,0,0,100,100,255,0)
RunCommonEvent(105)
ShowMessageFace("",0,0,2,37)
ShowMessage("\\n<Luka>Hyaaa!")
ShowMessageFace("",0,0,2,38)
ShowMessage("My penis pulses, and shoots my semen straight up into the air.")
ShowMessage("Seeing my semen released, the snakes all rush at my penis, eager to lick up the released semen.")
ShowMessageFace("",0,0,2,39)
ShowMessage("\\n<Luka>Ahhh! Stop, stop!")
ShowMessageFace("",0,0,2,40)
ShowMessage("The tongues lick and flick at my urethral opening as I ejaculate, each snake trying to be the first to get at the semen.")
ShowMessageFace("",0,0,2,41)
ShowMessage("The violent stimulation during my orgasm makes me scream and cry out, spraying my semen all over.")
ShowMessageFace("",0,0,2,42)
ShowMessage("\\n<Luka>Hyaaa!")
ShowMessageFace("",0,0,2,43)
ShowMessage("My body goes into convulsions as the relentless attack on my weakest point continues.")
ShowMessageFace("nagael_fc1",1,0,2,44)
ShowMessage("\\n<Nagael>If you want to escape from those tongues, you must convert.\nSwear to be our servant for eternity...")
ShowMessageFace("",0,0,2,45)
ShowMessage("Underneath this violent assault of pleasure, I feel my reason and faith crumbling.")
ShowMessageFace("",0,0,2,46)
ShowMessage("\\n<Luka>I s...swear... S...Stop this!")
ShowMessageFace("",0,0,2,47)
ShowMessage("Wanting to do anything to escape, I tell her what she wants to hear.")
ShowMessage("I pledge myself over to her--")
ShowMessageFace("nagael_fc1",1,0,2,48)
ShowMessage("\\n<Nagael>...I see, I've heard you.\nYou have sworn allegiance to us, body and soul.")
ShowMessageFace("",0,0,2,49)
ShowMessage("\\n<Luka>Y...Yes... So please, stop...")
ShowMessageFace("",0,0,2,50)
ShowMessage("Wanting to escape from this hell of pleasure, I spit out the words before I think about them.")
ShowMessage("With them, my heart itself breaks.")
ShowMessageFace("nagael_fc1",1,0,2,51)
ShowMessage("\\n<Nagael>...My purpose has been achieved with that.\nNow that you're one of us, further coercion is unnecessary.")
246(1)
ShowMessageFace("",0,0,2,52)
ShowMessage("Her snakes part from my penis, finally releasing me.")
ShowMessage("Finally free, I breath a large sigh of relief.")
ShowMessageFace("nagael_fc1",1,0,2,53)
ShowMessage("\\n<Nagael>Now you shall be judged as one of us. The crime of a servant pointing a sword at his superior is a grave one, indeed...")
ShowMessageFace("nagael_fc1",1,0,2,54)
ShowMessage("\\n<Nagael>As punishment for your sins, you are sentenced to violation by my snakes for 10,000 years.\nI'll start your punishment myself...")
ShowMessageFace("",0,0,2,55)
ShowMessage("\\n<Luka>N...no, that's not what you said!\nAhhhh!!")
245(bytes(0x04,0x08,0x6f,0x3a,0x0d,0x52,0x50,0x47,0x3a,0x3a,0x42,0x47,0x53,0x08,0x3a,0x0a,0x40,0x6e,0x61,0x6d,0x65,0x49,0x22,0x1a,0x6d,0x6f,0x6e,0x5f,0x68,0x73,0x65,0x61,0x6e,0x32,0x32,0x5f,0x74,0x65,0x6e,0x74,0x61,0x63,0x6c,0x65,0x33,0x06,0x3a,0x06,0x45,0x54,0x3a,0x0c,0x40,0x76,0x6f,0x6c,0x75,0x6d,0x65,0x69,0x55,0x3a,0x0b,0x40,0x70,0x69,0x74,0x63,0x68,0x69,0x69))
PictureDisplay(5,"ev_nagael_h3",0,0,0,0,100,100,255,0)
ShowMessageFace("",0,0,2,56)
ShowMessage("In the next moment, the snakes rush and coil around my body.")
ShowMessageFace("",0,0,2,57)
ShowMessage("Their tongues lick every inch of my body, sending me back into the nightmare of pleasure.")
ShowMessageFace("",0,0,2,58)
ShowMessage("\\n<Luka>H...Help me! Ahhh!")
ShowMessageFace("",0,0,2,59)
ShowMessage("Their rough, slimy tongues lick up and down my penis, toying with it as if I was nothing.")
ShowMessageFace("",0,0,2,60)
ShowMessage("\\n<Luka>Ahhhh!")
RunCommonEvent(104)
PictureDisplay(5,"ev_nagael_h4",0,0,0,0,100,100,255,0)
PictureDisplay(6,"ev_nagael_ct03",0,0,0,0,100,100,255,0)
RunCommonEvent(105)
ShowMessageFace("",0,0,2,61)
ShowMessage("I come in no time, spraying my semen over the eagerly licking snakes.")
ShowMessage("But their tongue assault continues on without stopping, covering my penis with more of their wet saliva.")
ShowMessageFace("",0,0,2,62)
ShowMessage("My penis happily twitches, my body rejoicing in this stimulation.")
ShowMessageFace("",0,0,2,63)
ShowMessage("One of the snakes starts to gently chew on my glans, bringing me to another height in only moments.")
ShowMessageFace("",0,0,2,64)
ShowMessage("\\n<Luka>Ah... Hyaaa!")
RunCommonEvent(104)
RunCommonEvent(105)
ShowMessageFace("",0,0,2,65)
ShowMessage("Mobbed by the snakes, I come again.")
ShowMessage("My whole body is going into convulsions, unable to endure the intense stimulation.")
ShowMessage("――")
ShowMessageFace("",0,0,2,66)
ShowMessage("\\n<Luka>Stop... Forgive me...\nHyaa!")
RunCommonEvent(104)
RunCommonEvent(105)
ShowMessageFace("nagael_fc1",1,0,2,67)
ShowMessage("\\n<Nagael>Yes... Cry out like the criminal you are.\nRealize your own crimes.")
ShowMessageFace("nagael_fc1",1,0,2,68)
ShowMessage("\\n<Nagael>Once this punishment is over, I shall bless you as a pious follower of Ilias.")
ShowMessageFace("nagael_fc1",1,0,2,69)
ShowMessage("\\n<Nagael>If you're still sane after 10,000 years, that is...")
ShowMessageFace("",0,0,2,70)
ShowMessage("\\n<Luka>Ah... Ahhh!")
RunCommonEvent(104)
RunCommonEvent(105)
ShowMessageFace("",0,0,2,71)
ShowMessage("This will continue for 10,000 years...")
ShowMessage("No, it's more like an eternity for a human like me.")
ShowMessageFace("",0,0,2,72)
ShowMessage("\\n<Luka>Ah... Ah...")
ShowMessageFace("",0,0,2,73)
ShowMessage("In a hell of pleasure like this, it didn't take much time for me to lose my sanity.")
ShowMessageFace("",0,0,2,74)
ShowMessage("But even as I became disabled, the snake's assault never stopped for a moment.")
ShowMessageFace("nagael_fc1",1,0,2,75)
ShowMessage("\\n<Nagael>Sheesh, did you break already?\nBut don't think that will free you from your punishment...")
ShowMessageFace("",0,0,2,76)
ShowMessage("\\n<Luka>Ha... ah...")
RunCommonEvent(104)
RunCommonEvent(105)
ShowMessageFace("",0,0,2,77)
ShowMessage("Completely losing my mind, I just continue to ejaculate.")
ShowMessage("That is the fate of any hero that an angel defeats--")
221()
PictureClear(5)
PictureClear(6)
246(2)
DefineLabel("反省会")
ShowMessageFace("",0,0,2,78)
ShowMessage("..............")
221()
242(1)
Wait(120)
355("memory_interruption")
ShowMessageFace("",0,0,2,79)
ShowMessage("You hear Ilias' voice calling out to you...")
ShowMessage("Receive her evaluation?")
ShowChoices(strings("Receive evaluation","Change difficulty","Reincarnate"),3)
IfPlayerPicksChoice(0,null)
 241(bytes(0x04,0x08,0x6f,0x3a,0x0d,0x52,0x50,0x47,0x3a,0x3a,0x42,0x47,0x4d,0x08,0x3a,0x0a,0x40,0x6e,0x61,0x6d,0x65,0x49,0x22,0x0a,0x69,0x72,0x69,0x61,0x73,0x06,0x3a,0x06,0x45,0x54,0x3a,0x0c,0x40,0x76,0x6f,0x6c,0x75,0x6d,0x65,0x69,0x5f,0x3a,0x0b,0x40,0x70,0x69,0x74,0x63,0x68,0x69,0x6e))
 PictureDisplay(1,"bg001",0,0,0,0,100,100,255,0)
 222()
 PictureDisplay(5,"80_iriasu_st06",0,0,0,0,100,100,0,0)
 PictureMove(5,null,0,0,0,0,100,100,255,0,30,true)
 ShowMessageFace("iriasu_fc1",5,0,2,80)
   ShowMessage("\\n<Ilias>Something's off about this Nagael...\nShe isn't the same as the Nagael I made...")
 PictureDisplay(5,"80_iriasu_st01",0,0,0,0,100,100,255,0)
 ShowMessageFace("iriasu_fc1",0,0,2,81)
 ShowMessage("\\n<Ilias>...sorry, there are a few little things that bother me about her. Let us resume the evaluation.")
 ShowMessageFace("iriasu_fc1",0,0,2,82)
 ShowMessage("\\n<Ilias>You are better off not fighting that Nagael. Avoid encountering her altogether.")
 ShowMessageFace("iriasu_fc1",0,0,2,83)
 ShowMessage("\\n<Ilias>As a proud angel, she hates bare soil. So if you pay attention to where you are walking, you should avoid a confrontation.")
 PictureDisplay(5,"80_iriasu_st05",0,0,0,0,100,100,255,0)
 ShowMessageFace("iriasu_fc1",4,0,2,84)
 ShowMessage("\\n<Ilias>Now go, oh brave Luka.\nBy the way, I cannot get a fix on your location. Where in the world are you?")
 242(1)
 221()
 PictureClear(5)
 PictureClear(1)
 Wait(60)
 0()
IfPlayerPicksChoice(1,null)
 ShowMessageFace("",0,0,2,85)
 ShowMessage("Please choose a difficulty level.")
 RunCommonEvent(110)
 0()
IfPlayerPicksChoice(2,null)
 0()
404()
RunCommonEvent(3000)
0()
