﻿// EVENT 1260
Name "Talk: Coral Girl"

If(1,20,0,1,0)
 JumpToLabel("情報")
 0()
EndIf()
If(1,20,0,2,0)
 JumpToLabel("質問")
 0()
EndIf()
If(1,20,0,3,0)
 JumpToLabel("要求")
 0()
EndIf()
If(1,20,0,4,0)
 JumpToLabel("贈与")
 0()
EndIf()
DefineLabel("情報")
ChangeVariable(13,13,0,2,1,50)
If(1,13,0,10,2)
 ShowMessageFace("sango_fc1",0,0,2,1)
 ShowMessage("\\n<Coral Girl>............")
 ShowMessageFace("",0,0,2,2)
 ShowMessage("The Coral Girl is not responding...")
 EndEventProcessing()
 0()
EndIf()
If(1,13,0,20,2)
 ShowMessageFace("sango_fc1",0,0,2,3)
 ShowMessage("\\n<Coral Girl>............")
 ShowMessageFace("",0,0,2,4)
 ShowMessage("The Coral Girl is waving her tentacles...")
 EndEventProcessing()
 0()
EndIf()
If(1,13,0,30,2)
 ShowMessageFace("sango_fc1",0,0,2,5)
 ShowMessage("\\n<Coral Girl>............")
 ShowMessageFace("",0,0,2,6)
 ShowMessage("The Coral Girl calmly closed her eyes...")
 EndEventProcessing()
 0()
EndIf()
If(1,13,0,40,2)
 ShowMessageFace("sango_fc1",0,0,2,7)
 ShowMessage("\\n<Coral Girl>............")
 ShowMessageFace("",0,0,2,8)
 ShowMessage("The Coral Girl is looking at you!\n...Or so you think.")
 EndEventProcessing()
 0()
EndIf()
If(1,13,0,50,2)
 ShowMessageFace("sango_fc1",0,0,2,9)
 ShowMessage("\\n<Coral Girl>............")
 ShowMessageFace("",0,0,2,10)
 ShowMessage("The Coral Girl winked!\n...Or so you thought, but it was just your imagination.")
 EndEventProcessing()
 0()
EndIf()
DefineLabel("質問")
ChangeVariable(13,13,0,2,1,30)
If(1,13,0,10,2)
 ShowMessageFace("sango_fc1",0,0,2,11)
 ShowMessage("\\n<Coral Girl>............")
 ShowMessageFace("",0,0,2,12)
 ShowMessage("You try to communicate with the Coral Girl...")
 ShowChoices(strings("Greet","Shake hands","Verbal abuse"),0)
 IfPlayerPicksChoice(0,"挨拶する")
  ShowMessageFace("ruka_fc1",0,0,2,13)
  ShowMessage("\\n<Luka>Hello, I'm Luka.")
  ShowMessageFace("sango_fc1",0,0,2,14)
  ShowMessage("\\n<Coral Girl>............")
  ShowMessageFace("",0,0,2,15)
  ShowMessage("There was no reaction...")
  0()
 IfPlayerPicksChoice(1,"握手する")
  ShowMessageFace("ruka_fc1",0,0,2,16)
  ShowMessage("\\n<Luka>Lets meet again sometime...")
  ShowMessageFace("",0,0,2,17)
  ShowMessage("You shook hands with one of her tentacles!")
  ShowMessageFace("sango_fc1",0,0,2,18)
  ShowMessage("\\n<Coral Girl>............")
  ShowMessageFace("",0,0,2,19)
  ShowMessage("Her attitude seems to have softened...")
  355("change_friend(10)")
  0()
 IfPlayerPicksChoice(2,"罵倒する")
  ShowMessageFace("ruka_fc1",0,0,2,20)
  ShowMessage("\\n<Luka>Knock it off!")
  ShowMessageFace("sango_fc1",0,0,2,21)
  ShowMessage("\\n<Coral Girl>............")
  ShowMessageFace("",0,0,2,22)
  ShowMessage("She looks upset...")
  355("change_friend(-5)")
  0()
 404()
 EndEventProcessing()
 0()
EndIf()
If(1,13,0,20,2)
 ShowMessageFace("sango_fc1",0,0,2,23)
 ShowMessage("\\n<Coral Girl>............")
 ShowMessageFace("",0,0,2,24)
 ShowMessage("You can't tell if the Coral Girl has feelings.\nLet's try to please her...")
 ShowChoices(strings("Give praise","Do a dance","Sex appeal"),0)
 IfPlayerPicksChoice(0,"褒める")
  ShowMessageFace("ruka_fc1",0,0,2,25)
  ShowMessage("\\n<Luka>Such wonderful coral...")
  ShowMessageFace("sango_fc1",0,0,2,26)
  ShowMessage("\\n<Coral Girl>............")
  ShowMessageFace("",0,0,2,27)
  ShowMessage("Her attitude seems to have softened...")
  355("change_friend(10)")
  0()
 IfPlayerPicksChoice(1,"踊りを見せる")
  ShowMessageFace("ruka_fc1",0,0,2,28)
  ShowMessage("\\n<Luka>La-la-la～♪")
  ShowMessageFace("sango_fc1",0,0,2,29)
  ShowMessage("\\n<Coral Girl>............")
  ShowMessageFace("",0,0,2,30)
  ShowMessage("There was no response from the Coral Girl...")
  0()
 IfPlayerPicksChoice(2,"性的アピール")
  ShowMessageFace("ruka_fc1",0,0,2,31)
  ShowMessage("\\n<Luka>Eyaah! ♪")
  ShowMessageFace("",0,0,2,32)
  ShowMessage("Luka took off his clothes!")
  ShowMessageFace("sango_fc1",0,0,2,33)
  ShowMessage("\\n<Coral Girl>............")
  ShowMessageFace("",0,0,2,34)
  ShowMessage("There was no response from the Coral Girl...")
  0()
 404()
 EndEventProcessing()
 0()
EndIf()
If(1,13,0,30,2)
 ShowMessageFace("sango_fc1",0,0,2,35)
 ShowMessage("\\n<Coral Girl>............")
 ShowMessageFace("",0,0,2,36)
 ShowMessage("You can't tell if the Coral Girl has feelings.\nLet's try to upset her...")
 ShowChoices(strings("Verbally abuse her","Threaten her","Carve your name onto her coral"),0)
 IfPlayerPicksChoice(0,"罵倒する")
  ShowMessageFace("ruka_fc1",0,0,2,37)
  ShowMessage("\\n<Luka>Knock it off!")
  ShowMessageFace("sango_fc1",0,0,2,38)
  ShowMessage("\\n<Coral Girl>............")
  ShowMessageFace("",0,0,2,39)
  ShowMessage("She looks upset...")
  355("change_friend(-5)")
  0()
 IfPlayerPicksChoice(1,"威圧する")
  ShowMessageFace("ruka_fc1",0,0,2,40)
  ShowMessage("\\n<Luka>Take one more step and I'll cut you down...")
  ShowMessageFace("sango_fc1",0,0,2,41)
  ShowMessage("\\n<Coral Girl>............")
  ShowMessageFace("",0,0,2,42)
  ShowMessage("There was no response from the Coral Girl...")
  0()
 IfPlayerPicksChoice(2,"サンゴに名前を彫る")
  ShowMessageFace("ruka_fc1",0,0,2,43)
  ShowMessage("\\n<Luka>The Hero Luka was here... There.")
  ShowMessageFace("",0,0,2,44)
  ShowMessage("Luka carved his name into the Coral Girl!")
  ShowMessageFace("sango_fc1",0,0,2,45)
  ShowMessage("\\n<Coral Girl>............")
  ShowMessageFace("",0,0,2,46)
  ShowMessage("She feels happy for some reason!")
  355("change_friend(10)")
  0()
 404()
 EndEventProcessing()
 0()
EndIf()
DefineLabel("要求")
ChangeVariable(13,13,0,2,1,30)
If(1,13,0,10,2)
 If(8,335)
  ShowMessageFace("sango_fc1",0,0,2,47)
  ShowMessage("\\n<Coral Girl>............")
  ShowMessageFace("",0,0,2,48)
  ShowMessage("It seems like she wants some seaweed...")
  ChangeVariable(24,24,0,3,0,335,0)
  ShowMessageFace("",0,0,2,49)
  ShowMessage("Do you want to give some \\ii[335]? (Have:\\V[24])")
  ShowChoices(strings("Yes","No"),2)
  IfPlayerPicksChoice(0,"Yes")
   ShowMessageFace("sango_fc1",0,0,2,50)
   ShowMessage("\\n<Coral Girl>............")
   ChangeInventory_Item(335,1,0,1)
   355("change_friend(20)")
   EndEventProcessing()
   0()
  IfPlayerPicksChoice(1,"No")
   ShowMessageFace("sango_fc1",0,0,2,51)
   ShowMessage("\\n<Coral Girl>............")
   EndEventProcessing()
   0()
  404()
  0()
 Else()
  ChangeVariable(13,13,0,0,20)
  0()
 EndIf()
 0()
EndIf()
If(1,13,0,20,2)
 If(8,71)
  ShowMessageFace("sango_fc1",0,0,2,52)
  ShowMessage("\\n<Coral Girl>............")
  ShowMessageFace("",0,0,2,53)
  ShowMessage("She appears to want a water stone...")
  ChangeVariable(24,24,0,3,0,71,0)
  ShowMessageFace("",0,0,2,54)
  ShowMessage("Do you want to give a \\ii[71]? (Have:\\V[24])")
  ShowChoices(strings("Yes","No"),2)
  IfPlayerPicksChoice(0,"Yes")
   ShowMessageFace("sango_fc1",0,0,2,55)
   ShowMessage("\\n<Coral Girl>............")
   ChangeInventory_Item(71,1,0,1)
   355("change_friend(30)")
   EndEventProcessing()
   0()
  IfPlayerPicksChoice(1,"No")
   ShowMessageFace("sango_fc1",0,0,2,56)
   ShowMessage("\\n<Coral Girl>............")
   EndEventProcessing()
   0()
  404()
  0()
 Else()
  ChangeVariable(13,13,0,0,30)
  0()
 EndIf()
 0()
EndIf()
If(1,13,0,30,2)
 ShowMessageFace("sango_fc1",0,0,2,57)
 ShowMessage("\\n<Coral Girl>............")
 If(7,1005,0)
  ChangeVariable(24,24,0,3,7,2,0)
  ShowMessageFace("",0,0,2,58)
  ShowMessage("Do you want to give 1005G? (Remaining:\\V[24])")
  ShowChoices(strings("Yes","No"),2)
  IfPlayerPicksChoice(0,"Yes")
   ShowMessageFace("sango_fc1",0,0,2,59)
   ShowMessage("\\n<Coral Girl>............")
   125(1,0,1005)
   355("change_friend(25)")
   EndEventProcessing()
   0()
  IfPlayerPicksChoice(1,"No")
   ShowMessageFace("sango_fc1",0,0,2,60)
   ShowMessage("\\n<Coral Girl>............")
   EndEventProcessing()
   0()
  404()
  0()
 Else()
  ShowMessageFace("sango_fc1",0,0,2,61)
  ShowMessage("\\n<Coral Girl>............")
  EndEventProcessing()
  0()
 EndIf()
 0()
EndIf()
DefineLabel("贈与")
ChangeVariable(13,13,0,2,1,30)
If(1,25,0,1,0)
 ChangeVariable(13,13,0,0,30)
 ChangeVariable(25,25,0,0,0)
 0()
EndIf()
If(1,25,0,2,0)
 ChangeVariable(13,13,0,2,1,20)
 ChangeVariable(25,25,0,0,0)
 0()
EndIf()
If(1,13,0,10,2)
 ShowMessageFace("sango_fc1",0,0,2,62)
 ShowMessage("\\n<Coral Girl>............")
 ShowMessageFace("",0,0,2,63)
 ShowMessage("The Coral Girl held out a part of her body...")
 250(bytes(0x04,0x08,0x6f,0x3a,0x0c,0x52,0x50,0x47,0x3a,0x3a,0x53,0x45,0x08,0x3a,0x0a,0x40,0x6e,0x61,0x6d,0x65,0x49,0x22,0x0a,0x49,0x74,0x65,0x6d,0x31,0x06,0x3a,0x06,0x45,0x54,0x3a,0x0b,0x40,0x70,0x69,0x74,0x63,0x68,0x69,0x69,0x3a,0x0c,0x40,0x76,0x6f,0x6c,0x75,0x6d,0x65,0x69,0x55))
 ChangeInventory_Item(226,0,0,1)
 ShowMessageFace("",0,0,2,64)
 ShowMessage("The Coral Girl gave you an \\ii[226]!")
 EndEventProcessing()
 0()
EndIf()
If(1,13,0,20,2)
 ShowMessageFace("sango_fc1",0,0,2,65)
 ShowMessage("\\n<Coral Girl>............")
 ShowMessageFace("",0,0,2,66)
 ShowMessage("The Coral Girl held out a part of her body...")
 250(bytes(0x04,0x08,0x6f,0x3a,0x0c,0x52,0x50,0x47,0x3a,0x3a,0x53,0x45,0x08,0x3a,0x0a,0x40,0x6e,0x61,0x6d,0x65,0x49,0x22,0x0a,0x49,0x74,0x65,0x6d,0x31,0x06,0x3a,0x06,0x45,0x54,0x3a,0x0b,0x40,0x70,0x69,0x74,0x63,0x68,0x69,0x69,0x3a,0x0c,0x40,0x76,0x6f,0x6c,0x75,0x6d,0x65,0x69,0x55))
 ChangeInventory_Item(72,0,0,1)
 ShowMessageFace("",0,0,2,67)
 ShowMessage("The Coral Girl gave you a \\ii[72]!")
 EndEventProcessing()
 0()
EndIf()
If(1,13,0,30,2)
 ShowMessageFace("sango_fc1",0,0,2,68)
 ShowMessage("\\n<Coral Girl>............")
 ShowMessageFace("",0,0,2,69)
 ShowMessage("The Coral Girl held out some money...")
 250(bytes(0x04,0x08,0x6f,0x3a,0x0c,0x52,0x50,0x47,0x3a,0x3a,0x53,0x45,0x08,0x3a,0x0a,0x40,0x6e,0x61,0x6d,0x65,0x49,0x22,0x0a,0x49,0x74,0x65,0x6d,0x31,0x06,0x3a,0x06,0x45,0x54,0x3a,0x0b,0x40,0x70,0x69,0x74,0x63,0x68,0x69,0x69,0x3a,0x0c,0x40,0x76,0x6f,0x6c,0x75,0x6d,0x65,0x69,0x55))
 125(0,0,1675)
 ShowMessageFace("",0,0,2,70)
 ShowMessage("The Coral Girl gave you 1675G!")
 EndEventProcessing()
 0()
EndIf()
0()
