// EVENT 0138
Name "Skill: Food Collection"

ChangeVariable(11,11,0,2,1,73)
ShowMessageFace("ant_fc1",0,0,2,1)
ShowMessage("\\n<Ants>FOOD! FOOD!")
250(bytes(0x04,0x08,0x6f,0x3a,0x0c,0x52,0x50,0x47,0x3a,0x3a,0x53,0x45,0x08,0x3a,0x0a,0x40,0x6e,0x61,0x6d,0x65,0x49,0x22,0x0a,0x49,0x74,0x65,0x6d,0x31,0x06,0x3a,0x06,0x45,0x54,0x3a,0x0b,0x40,0x70,0x69,0x74,0x63,0x68,0x69,0x69,0x3a,0x0c,0x40,0x76,0x6f,0x6c,0x75,0x6d,0x65,0x69,0x55))
If(1,11,0,3,2)
 ChangeInventory_Item(340,0,0,2)
 ChangeInventory_Item(341,0,0,2)
 ChangeInventory_Item(343,0,0,2)
 ShowMessageFace("",0,0,2,2)
 ShowMessage("Obtained 2 Eggs, 2 Cheese and 2 Bread!")
 EndEventProcessing()
 0()
EndIf()
If(1,11,0,6,2)
 ChangeInventory_Item(335,0,0,2)
 ChangeInventory_Item(360,0,0,2)
 ShowMessageFace("",0,0,2,3)
 ShowMessage("Obtained 2 Seaweed and 2 Rice!")
 EndEventProcessing()
 0()
EndIf()
If(1,11,0,9,2)
 ChangeInventory_Item(310,0,0,2)
 ChangeInventory_Item(316,0,0,2)
 ChangeInventory_Item(319,0,0,2)
 ShowMessageFace("",0,0,2,4)
 ShowMessage("Obtained 2 Carrots, 2 Potatoes and 2 Onions!")
 EndEventProcessing()
 0()
EndIf()
If(1,11,0,12,2)
 ChangeInventory_Item(307,0,0,2)
 ChangeInventory_Item(309,0,0,2)
 ChangeInventory_Item(313,0,0,2)
 ShowMessageFace("",0,0,2,5)
 ShowMessage("Obtained 2 Cabbages, 2 Lettuces and 2 Tomatoes!")
 EndEventProcessing()
 0()
EndIf()
If(1,11,0,15,2)
 ChangeInventory_Item(308,0,0,2)
 ChangeInventory_Item(312,0,0,2)
 ChangeInventory_Item(318,0,0,2)
 ShowMessageFace("",0,0,2,6)
 ShowMessage("Obtained 2 Bok Choy, 2 Radishes and 2 Shiitake Mushrooms!")
 EndEventProcessing()
 0()
EndIf()
If(1,11,0,18,2)
 ChangeInventory_Item(322,0,0,2)
 ChangeInventory_Item(329,0,0,2)
 ChangeInventory_Item(330,0,0,2)
 ShowMessageFace("",0,0,2,7)
 ShowMessage("Obtained 2 Fish, 2 Meat and 2 Bird Feet!")
 EndEventProcessing()
 0()
EndIf()
If(1,11,0,21,2)
 ChangeInventory_Item(324,0,0,2)
 ChangeInventory_Item(325,0,0,2)
 ChangeInventory_Item(327,0,0,2)
 ShowMessageFace("",0,0,2,8)
 ShowMessage("Obtained 2 Octopus, 2 Squids and 2 Shrimp!")
 EndEventProcessing()
 0()
EndIf()
If(1,11,0,24,2)
 ChangeInventory_Item(315,0,0,2)
 ChangeInventory_Item(331,0,0,2)
 ChangeInventory_Item(332,0,0,2)
 ShowMessageFace("",0,0,2,9)
 ShowMessage("Obtained 2 Leeks, 2 Sausages and 2 Tofu!")
 EndEventProcessing()
 0()
EndIf()
If(1,11,0,27,2)
 ChangeInventory_Item(301,0,0,2)
 ChangeInventory_Item(302,0,0,2)
 ChangeInventory_Item(304,0,0,2)
 ShowMessageFace("",0,0,2,10)
 ShowMessage("Obtained 2 Apples, 2 Mandarin Oranges and 2 Cherries!")
 EndEventProcessing()
 0()
EndIf()
If(1,11,0,30,2)
 ChangeInventory_Item(338,0,0,2)
 ChangeInventory_Item(339,0,0,2)
 ChangeInventory_Item(342,0,0,2)
 ShowMessageFace("",0,0,2,11)
 ShowMessage("Obtained 2 Flour, 2 Curry Powder and 2 Milk!")
 EndEventProcessing()
 0()
EndIf()
If(1,11,0,33,2)
 ChangeInventory_Item(321,0,0,2)
 ChangeInventory_Item(334,0,0,2)
 ChangeInventory_Item(336,0,0,2)
 ShowMessageFace("",0,0,2,12)
 ShowMessage("Obtained 2 Chili Peppers, 2 Dried Bonito and 2 Anko!")
 EndEventProcessing()
 0()
EndIf()
If(1,11,0,36,2)
 ChangeInventory_Item(303,0,0,2)
 ChangeInventory_Item(305,0,0,2)
 ShowMessageFace("",0,0,2,13)
 ShowMessage("Obtained 2 Grapes and 2 Bananas!")
 EndEventProcessing()
 0()
EndIf()
If(1,11,0,39,2)
 ChangeInventory_Item(432,0,0,2)
 ChangeInventory_Item(433,0,0,2)
 ShowMessageFace("",0,0,2,14)
 ShowMessage("Obtained 2 Jerky and 2 Dried Squid!")
 EndEventProcessing()
 0()
EndIf()
If(1,11,0,41,2)
 ChangeInventory_Item(414,0,0,2)
 ChangeInventory_Item(423,0,0,2)
 ChangeInventory_Item(424,0,0,2)
 ShowMessageFace("",0,0,2,15)
 ShowMessage("Obtained 2 Chocolate, 2 Puddings and 2 Ice Creams!")
 EndEventProcessing()
 0()
EndIf()
If(1,11,0,43,2)
 ChangeInventory_Item(323,0,0,2)
 ChangeInventory_Item(326,0,0,2)
 ChangeInventory_Item(328,0,0,2)
 ShowMessageFace("",0,0,2,16)
 ShowMessage("Obtained 2 Sea Bream, 2 Crabs and 2 Eels!")
 EndEventProcessing()
 0()
EndIf()
If(1,11,0,45,2)
 ChangeInventory_Item(333,0,0,5)
 ShowMessageFace("",0,0,2,17)
 ShowMessage("Obtained 5 Thin Fried Tofu!")
 EndEventProcessing()
 0()
EndIf()
If(1,11,0,47,2)
 ChangeInventory_Item(346,0,0,1)
 ChangeInventory_Item(347,0,0,1)
 ChangeInventory_Item(349,0,0,1)
 ShowMessageFace("",0,0,2,18)
 ShowMessage("Obtained Anpan, Curry Bun and Yakisoba Bread!")
 EndEventProcessing()
 0()
EndIf()
If(1,11,0,49,2)
 ChangeInventory_Item(353,0,0,1)
 ChangeInventory_Item(354,0,0,1)
 ShowMessageFace("",0,0,2,19)
 ShowMessage("Obtained Croquette Bun and Barbecue Sandwich!")
 EndEventProcessing()
 0()
EndIf()
If(1,11,0,51,2)
 ChangeInventory_Item(355,0,0,1)
 ChangeInventory_Item(356,0,0,1)
 ShowMessageFace("",0,0,2,20)
 ShowMessage("Obtained Egg Bagel Sandwich and Salmon Bagel Sandwich!")
 EndEventProcessing()
 0()
EndIf()
If(1,11,0,53,2)
 ChangeInventory_Item(358,0,0,1)
 ChangeInventory_Item(402,0,0,1)
 ShowMessageFace("",0,0,2,21)
 ShowMessage("Obtained Hamburger and Hotdog!")
 EndEventProcessing()
 0()
EndIf()
If(1,11,0,55,2)
 ChangeInventory_Item(365,0,0,1)
 ChangeInventory_Item(366,0,0,1)
 ShowMessageFace("",0,0,2,22)
 ShowMessage("Obtained Fried Rice and Crab Omelet!")
 EndEventProcessing()
 0()
EndIf()
If(1,11,0,57,2)
 ChangeInventory_Item(375,0,0,1)
 ChangeInventory_Item(383,0,0,1)
 ChangeInventory_Item(389,0,0,1)
 ShowMessageFace("",0,0,2,23)
 ShowMessage("Obtained Fried Egg, Broiled Fish and Miso Soup!")
 EndEventProcessing()
 0()
EndIf()
If(1,11,0,59,2)
 ChangeInventory_Item(405,0,0,1)
 ChangeInventory_Item(406,0,0,1)
 ChangeInventory_Item(407,0,0,1)
 ShowMessageFace("",0,0,2,24)
 ShowMessage("Obtained Steamed Meat Bun, Steamed Bun and Pizza bun!")
 EndEventProcessing()
 0()
EndIf()
If(1,11,0,61,2)
 ChangeInventory_Item(408,0,0,1)
 ChangeInventory_Item(410,0,0,1)
 ChangeInventory_Item(411,0,0,1)
 ShowMessageFace("",0,0,2,25)
 ShowMessage("Obtained Dango, Rainbow Dango and Rice cake!")
 EndEventProcessing()
 0()
EndIf()
If(1,11,0,63,2)
 ChangeInventory_Item(400,0,0,1)
 ChangeInventory_Item(401,0,0,1)
 ShowMessageFace("",0,0,2,26)
 ShowMessage("Obtained Soba and Kitsune Udon!")
 EndEventProcessing()
 0()
EndIf()
If(1,11,0,65,2)
 ChangeInventory_Item(395,0,0,1)
 ChangeInventory_Item(403,0,0,1)
 ChangeInventory_Item(404,0,0,1)
 ShowMessageFace("",0,0,2,27)
 ShowMessage("Obtained Okonomiyaki, Takoyaki and Taiyaki!")
 EndEventProcessing()
 0()
EndIf()
If(1,11,0,66,0)
 ChangeInventory_Item(369,0,0,1)
 ShowMessageFace("",0,0,2,28)
 ShowMessage("Obtained Deluxe Sushi!")
 EndEventProcessing()
 0()
EndIf()
If(1,11,0,67,0)
 ChangeInventory_Item(377,0,0,1)
 ShowMessageFace("",0,0,2,29)
 ShowMessage("Obtained Steak!")
 EndEventProcessing()
 0()
EndIf()
If(1,11,0,68,0)
 ChangeInventory_Item(378,0,0,1)
 ShowMessageFace("",0,0,2,30)
 ShowMessage("Obtained Sukiyaki!")
 EndEventProcessing()
 0()
EndIf()
If(1,11,0,69,0)
 ChangeInventory_Item(414,0,0,1)
 ChangeInventory_Item(415,0,0,1)
 ChangeInventory_Item(416,0,0,1)
 ShowMessageFace("",0,0,2,31)
 ShowMessage("Obtained Chocolate, White Chocolate and Choco Teddy!")
 EndEventProcessing()
 0()
EndIf()
If(1,11,0,70,0)
 ChangeInventory_Item(417,0,0,1)
 ChangeInventory_Item(418,0,0,1)
 ChangeInventory_Item(419,0,0,1)
 ShowMessageFace("",0,0,2,32)
 ShowMessage("Obtained Cake, Chocolate Cake and Roll cake!")
 EndEventProcessing()
 0()
EndIf()
If(1,11,0,71,0)
 ChangeInventory_Item(420,0,0,1)
 ShowMessageFace("",0,0,2,33)
 ShowMessage("Obtained Wedding Cake!")
 EndEventProcessing()
 0()
EndIf()
If(1,11,0,72,0)
 ChangeInventory_Item(429,0,0,1)
 ChangeInventory_Item(430,0,0,1)
 ChangeInventory_Item(431,0,0,1)
 ShowMessageFace("",0,0,2,34)
 ShowMessage("Obtained Noah Wine, Gold Cocktail and Yamatai Sake!")
 EndEventProcessing()
 0()
EndIf()
If(1,11,0,73,0)
 ChangeInventory_Item(437,0,0,1)
 ChangeInventory_Item(438,0,0,1)
 ChangeInventory_Item(439,0,0,1)
 ShowMessageFace("",0,0,2,35)
 ShowMessage("Obtained Grilled Starfish, Grilled Sea Anemone and Grilled Sea Slug!")
 EndEventProcessing()
 0()
EndIf()
0()
