// EVENT 7051
Name "Louise: Talk"

If(0,25,1)
 ShowMessageFace("",0,0,2,0)
 ShowMessage("You cannot challenge this BF without copying over the pictures from the first chapter.")
 PictureClear(5)
 EndEventProcessing()
 0()
EndIf()
If(1,806,0,0,0)
 ChangeVariable(806,806,0,0,1)
 0()
EndIf()
241(bytes(0x04,0x08,0x6f,0x3a,0x0d,0x52,0x50,0x47,0x3a,0x3a,0x42,0x47,0x4d,0x08,0x3a,0x0a,0x40,0x6e,0x61,0x6d,0x65,0x49,0x22,0x09,0x65,0x72,0x6f,0x32,0x06,0x3a,0x06,0x45,0x54,0x3a,0x0c,0x40,0x76,0x6f,0x6c,0x75,0x6d,0x65,0x69,0x50,0x3a,0x0b,0x40,0x70,0x69,0x74,0x63,0x68,0x69,0x69))
PictureDisplay(5,"80_mob_touzoku_st01",0,0,0,0,100,100,0,0)
PictureMove(5,null,0,0,0,0,100,100,255,0,30,true)
If(0,2331,1)
 ShowMessageFace("mob_touzoku_fc1",0,0,2,1)
 ShowMessage("\\n<Louise>Entering someone's home without permission, are ya?\nDid you come here to challenge me to a Battle Fuck?")
 0()
EndIf()
If(1,806,0,2,1)
 ShowMessageFace("mob_touzoku_fc1",0,0,2,2)
 ShowMessage("\\n<Louise>The bet is 70G. No prizes this time.\nYou already won once, I won't let you forget that.")
 0()
Else()
 ShowMessageFace("mob_touzoku_fc1",0,0,2,3)
 ShowMessage("\\n<Louise>I'll challenge you for 70G.\nIf I lose, you'll win an interesting accessory.")
 0()
EndIf()
ShowMessageFace("mob_touzoku_fc1",0,0,2,4)
ShowMessage("\\n<Louise>Well what will you do?\nWant to see if you end up coming all over me?")
ShowChoices(strings("Battle Fuck Challenge","Reconsider"),2)
IfPlayerPicksChoice(0,"バトルファックを挑む")
 If(7,70,0)
  RunCommonEvent(7052)
  EndEventProcessing()
  0()
 Else()
  ShowMessageFace("mob_touzoku_fc1",0,0,2,5)
  ShowMessage("\\n<Louise>Oi oi, you don't have enough money.\nTry again some other time.")
  PictureClear(5)
  EndEventProcessing()
  0()
 EndIf()
 0()
IfPlayerPicksChoice(1,"やめておく")
 ShowMessageFace("mob_touzoku_fc1",0,0,2,6)
 ShowMessage("\\n<Louise>You don't want to come?\nWell then get outta here.")
 PictureClear(5)
 EndEventProcessing()
 0()
404()
0()
