// EVENT 5267
Name "Scylla Maid2"

PictureDisplay(5,"80_maidscyulla_st02",0,0,0,0,100,100,0,0)
PictureMove(5,null,0,0,0,0,100,100,255,0,30,true)
ShowMessageFace("maidscyulla_fc1",1,0,2,1)
ShowMessage("\\n<Ran>")
ShowMessage("Ara, you wish me to service you?")
ShowMessage("That's quite a bold request to make...")
ShowMessageFace("",0,0,2,2)
ShowMessage("\\n<Luka>")
ShowMessage("Y-Yes please...")
ShowMessageFace("maidscyulla_fc1",2,0,2,3)
ShowMessage("\\n<Ran>")
ShowMessage("All right, let's have fun.")
ShowMessage("How about this?")
241(bytes(0x04,0x08,0x6f,0x3a,0x0d,0x52,0x50,0x47,0x3a,0x3a,0x42,0x47,0x4d,0x08,0x3a,0x0a,0x40,0x6e,0x61,0x6d,0x65,0x49,0x22,0x09,0x65,0x72,0x6f,0x31,0x06,0x3a,0x06,0x45,0x54,0x3a,0x0c,0x40,0x76,0x6f,0x6c,0x75,0x6d,0x65,0x69,0x69,0x3a,0x0b,0x40,0x70,0x69,0x74,0x63,0x68,0x69,0x69))
250(bytes(0x04,0x08,0x6f,0x3a,0x0c,0x52,0x50,0x47,0x3a,0x3a,0x53,0x45,0x08,0x3a,0x0a,0x40,0x6e,0x61,0x6d,0x65,0x49,0x22,0x16,0x6d,0x6f,0x6e,0x5f,0x65,0x72,0x6f,0x5f,0x6d,0x61,0x6b,0x69,0x74,0x75,0x6b,0x69,0x33,0x06,0x3a,0x06,0x45,0x54,0x3a,0x0b,0x40,0x70,0x69,0x74,0x63,0x68,0x69,0x69,0x3a,0x0c,0x40,0x76,0x6f,0x6c,0x75,0x6d,0x65,0x69,0x69))
PictureDisplay(5,"ev_maidscyulla_h01",0,0,0,0,100,100,255,0)
ShowMessageFace("",0,0,2,4)
ShowMessage("One of her large tentacles wraps around me, and holds me in the air.")
ShowMessage("Her squishy tentacle tightens around me, increasing the pressure.")
ShowMessageFace("",0,0,2,5)
ShowMessage("\\n<Luka>")
ShowMessage("Ahg... Uhh...")
ShowMessageFace("",0,0,2,6)
ShowMessage("I let out a grunt of pain as her tentacles tighten around my body, squeezing me so hard I can barely breathe.")
ShowMessageFace("maidscyulla_fc1",2,0,2,7)
ShowMessage("\\n<Ran>")
ShowMessage("Hehe... Is it painful?")
ShowMessage("More... Let me hear that moan of agony more!")
250(bytes(0x04,0x08,0x6f,0x3a,0x0c,0x52,0x50,0x47,0x3a,0x3a,0x53,0x45,0x08,0x3a,0x0a,0x40,0x6e,0x61,0x6d,0x65,0x49,0x22,0x16,0x6d,0x6f,0x6e,0x5f,0x65,0x72,0x6f,0x5f,0x73,0x69,0x6d,0x65,0x74,0x75,0x6b,0x65,0x31,0x06,0x3a,0x06,0x45,0x54,0x3a,0x0b,0x40,0x70,0x69,0x74,0x63,0x68,0x69,0x69,0x3a,0x0c,0x40,0x76,0x6f,0x6c,0x75,0x6d,0x65,0x69,0x69))
PictureDisplay(5,"ev_maidscyulla_h02",0,0,0,0,100,100,255,0)
ShowMessageFace("",0,0,2,8)
ShowMessage("\\n<Luka>")
ShowMessage("Ah, aaaah...!!")
ShowMessageFace("",0,0,2,9)
ShowMessage("Her octopus like tentacles coil even tighter around me, covering more of my body.")
ShowMessageFace("",0,0,2,10)
ShowMessage("The pain gets even worse as she just toys with me and laughs.")
ShowMessageFace("maidscyulla_fc1",2,0,2,11)
ShowMessage("\\n<Ran>")
ShowMessage("Hehe... What an unbecoming scream, sir.")
ShowMessage("Is it really that painful? Hehe.")
250(bytes(0x04,0x08,0x6f,0x3a,0x0c,0x52,0x50,0x47,0x3a,0x3a,0x53,0x45,0x08,0x3a,0x0a,0x40,0x6e,0x61,0x6d,0x65,0x49,0x22,0x16,0x6d,0x6f,0x6e,0x5f,0x65,0x72,0x6f,0x5f,0x73,0x69,0x6d,0x65,0x74,0x75,0x6b,0x65,0x31,0x06,0x3a,0x06,0x45,0x54,0x3a,0x0b,0x40,0x70,0x69,0x74,0x63,0x68,0x69,0x69,0x3a,0x0c,0x40,0x76,0x6f,0x6c,0x75,0x6d,0x65,0x69,0x69))
ShowMessageFace("",0,0,2,12)
ShowMessage("She squeezes even harder, enjoying watching me suffering.")
ShowMessageFace("",0,0,2,13)
ShowMessage("Each time I lose concentration and loosen my muscles, she takes the chance to constrict even tighter around me.")
ShowMessageFace("maidscyulla_fc1",2,0,2,14)
ShowMessage("\\n<Ran>")
ShowMessage("It would be quite easy for me to squish your body.")
ShowMessage("If I just put a little more power into it, you would be finished in moments...")
ShowMessageFace("",0,0,2,15)
ShowMessage("\\n<Luka>")
ShowMessage("Stop..! Ahh!")
250(bytes(0x04,0x08,0x6f,0x3a,0x0c,0x52,0x50,0x47,0x3a,0x3a,0x53,0x45,0x08,0x3a,0x0a,0x40,0x6e,0x61,0x6d,0x65,0x49,0x22,0x16,0x6d,0x6f,0x6e,0x5f,0x65,0x72,0x6f,0x5f,0x73,0x69,0x6d,0x65,0x74,0x75,0x6b,0x65,0x31,0x06,0x3a,0x06,0x45,0x54,0x3a,0x0b,0x40,0x70,0x69,0x74,0x63,0x68,0x69,0x69,0x3a,0x0c,0x40,0x76,0x6f,0x6c,0x75,0x6d,0x65,0x69,0x69))
ShowMessageFace("",0,0,2,16)
ShowMessage("The pressure gets even more intense, as I shake in fear from her words.")
ShowMessage("At any moment, she could drastically squeeze me harder and crush me...")
ShowMessageFace("",0,0,2,17)
ShowMessage("At the same time, one of her tentacles coincidentally rubs against my groin, rubbing and pushing into my penis.")
ShowMessageFace("",0,0,2,18)
ShowMessage("\\n<Luka>")
ShowMessage("Ah, auuu...")
ShowMessageFace("maidscyulla_fc1",2,0,2,19)
ShowMessage("\\n<Ran>")
ShowMessage("My, my... Why has your penis gotten all hard like this?")
ShowMessageFace("",0,0,2,20)
ShowMessage("Noticing my erection, she uses the tentacle that was brushing against my penis to skillfully stroke me until I'm completely hard.")
ShowMessage("As soon as I'm fully erect, she bursts into laughter.")
ShowMessageFace("maidscyulla_fc1",2,0,2,21)
ShowMessage("\\n<Ran>")
ShowMessage("Hahaha, you got this excited while being tortured like this?")
ShowMessage("Well then, how about I coil around your penis just as I'm doing to your body?")
250(bytes(0x04,0x08,0x6f,0x3a,0x0c,0x52,0x50,0x47,0x3a,0x3a,0x53,0x45,0x08,0x3a,0x0a,0x40,0x6e,0x61,0x6d,0x65,0x49,0x22,0x16,0x6d,0x6f,0x6e,0x5f,0x65,0x72,0x6f,0x5f,0x6d,0x61,0x6b,0x69,0x74,0x75,0x6b,0x69,0x32,0x06,0x3a,0x06,0x45,0x54,0x3a,0x0b,0x40,0x70,0x69,0x74,0x63,0x68,0x69,0x69,0x3a,0x0c,0x40,0x76,0x6f,0x6c,0x75,0x6d,0x65,0x69,0x69))
ShowMessageFace("",0,0,2,22)
ShowMessage("Her squishy tentacle slowly coils around my penis, wrapping it from base to tip.")
ShowMessageFace("",0,0,2,23)
ShowMessage("As soon as it's all the way around me, she starts squeezing me with increasing force.")
ShowMessageFace("",0,0,2,24)
ShowMessage("\\n<Luka>")
ShowMessage("Ah...! Ahh!")
ShowMessageFace("",0,0,2,25)
ShowMessage("I shake in pain and pleasure as she tortures my body and caresses my penis, the drastically differing sensations confusing my brain.")
ShowMessageFace("",0,0,2,26)
ShowMessage("No, it's not only pain.")
ShowMessage("The tentacles wound around my penis make me feel pleasure as well...")
ShowMessageFace("",0,0,2,27)
ShowMessage("\\n<Luka>")
ShowMessage("S...Stop... Ahhh!")
ShowMessageFace("maidscyulla_fc1",2,0,2,28)
ShowMessage("\\n<Ran>")
ShowMessage("Hehe... How does it feel?")
ShowMessage("Would you like me to tighten it a little more...?")
250(bytes(0x04,0x08,0x6f,0x3a,0x0c,0x52,0x50,0x47,0x3a,0x3a,0x53,0x45,0x08,0x3a,0x0a,0x40,0x6e,0x61,0x6d,0x65,0x49,0x22,0x16,0x6d,0x6f,0x6e,0x5f,0x65,0x72,0x6f,0x5f,0x73,0x69,0x6d,0x65,0x74,0x75,0x6b,0x65,0x31,0x06,0x3a,0x06,0x45,0x54,0x3a,0x0b,0x40,0x70,0x69,0x74,0x63,0x68,0x69,0x69,0x3a,0x0c,0x40,0x76,0x6f,0x6c,0x75,0x6d,0x65,0x69,0x69))
ShowMessageFace("",0,0,2,29)
ShowMessage("Her squishy tentacle tightens even more around my penis, mixing the pain and pleasure even further.")
ShowMessageFace("",0,0,2,30)
ShowMessage("At the same time, the tentacles around my body get even tighter.")
ShowMessage("All the while, the maid laughs as she plays with me, her prey.")
ShowMessageFace("",0,0,2,31)
ShowMessage("\\n<Luka>")
ShowMessage("Aaaahhh...")
ShowMessageFace("",0,0,2,32)
ShowMessage("Mixing with the pain, the tingling of an orgasm fills my body.")
ShowMessage("With a loud sigh, my body shivers as my waist goes numb.")
RunCommonEvent(104)
PictureDisplay(5,"ev_maidscyulla_h03",0,0,0,0,100,100,255,0)
RunCommonEvent(105)
ShowMessageFace("",0,0,2,33)
ShowMessage("Spurting out, my semen shoots out as I gasp in her tight tentacles.")
ShowMessageFace("",0,0,2,34)
ShowMessage("\\n<Luka>")
ShowMessage("Ah, aaah...")
ShowMessageFace("",0,0,2,35)
ShowMessage("My semen leaks out of my penis as her tentacles continue to torture me, making my face go red in humiliation.")
ShowMessageFace("",0,0,2,36)
ShowMessage("It feels more like incontinence than anything else.")
ShowMessageFace("maidscyulla_fc1",2,0,2,37)
ShowMessage("\\n<Ran>")
ShowMessage("...Hehe, you appear to have leaked, sir.")
ShowMessage("But don't worry about that.")
ShowMessageFace("maidscyulla_fc1",2,0,2,38)
ShowMessage("\\n<Ran>")
ShowMessage("There have been a few other men who act like you do as they fear for their life, after all.")
ShowMessageFace("",0,0,2,39)
ShowMessage("\\n<Luka>")
ShowMessage("Unnngh...")
ShowMessageFace("",0,0,2,40)
ShowMessage("The stimulation from her tentacles made me incontinent...")
ShowMessageFace("",0,0,2,41)
ShowMessage("Horrified, I let my body relax as I start to lose hope of ever escaping from her torture.")
ShowMessageFace("",0,0,2,42)
ShowMessage("The maid's already cold face takes on an even more sadistic smile as she watches me.")
ShowMessageFace("maidscyulla_fc1",2,0,2,43)
ShowMessage("\\n<Ran>")
ShowMessage("Well then, I believe it's time to feed, sir.")
ShowMessage("I shall enjoy feasting on your flesh and blood in addition to the semen.")
ShowMessageFace("",0,0,2,44)
ShowMessage("\\n<Luka>")
ShowMessage("Y...You can't... No...!")
245(bytes(0x04,0x08,0x6f,0x3a,0x0d,0x52,0x50,0x47,0x3a,0x3a,0x42,0x47,0x53,0x08,0x3a,0x0a,0x40,0x6e,0x61,0x6d,0x65,0x49,0x22,0x1a,0x6d,0x6f,0x6e,0x5f,0x68,0x73,0x65,0x61,0x6e,0x32,0x31,0x5f,0x74,0x65,0x6e,0x74,0x61,0x63,0x6c,0x65,0x32,0x06,0x3a,0x06,0x45,0x54,0x3a,0x0c,0x40,0x76,0x6f,0x6c,0x75,0x6d,0x65,0x69,0x55,0x3a,0x0b,0x40,0x70,0x69,0x74,0x63,0x68,0x69,0x69))
PictureDisplay(5,"ev_maidscyulla_h06",0,0,0,0,100,100,255,0)
ShowMessageFace("",0,0,2,45)
ShowMessage("Ignoring my pleas, she pulls me down and into her lower mouth.")
ShowMessage("Uselessly struggling against her powerful tentacles, ones from inside of her latch onto me and pull me inside her body.")
ShowMessageFace("",0,0,2,46)
ShowMessage("\\n<Luka>")
ShowMessage("Stop... Ahhh!")
ShowMessageFace("",0,0,2,47)
ShowMessage("Inside her slimy mouth, tentacles latch onto my body and force my legs apart.")
ShowMessage("Taking advantage of my exposed posture, more wrap around my penis.")
ShowMessageFace("",0,0,2,48)
ShowMessage("\\n<Luka>")
ShowMessage("Help me... Help...!")
ShowMessageFace("maidscyulla_fc1",2,0,2,49)
ShowMessage("\\n<Ran>")
ShowMessage("Hehe... Nobody will listen to your pleas any longer.")
ShowMessage("Isn't that a shame? Haha.")
ShowMessageFace("maidscyulla_fc1",2,0,2,50)
ShowMessage("\\n<Ran>")
ShowMessage("Sir, there is no saving you any longer.")
ShowMessage("The only path left to you is to be eaten by me.")
ShowMessageFace("",0,0,2,51)
ShowMessage("\\n<Luka>")
ShowMessage("Hyaaa!")
ShowMessageFace("",0,0,2,52)
ShowMessage("Stuck inside her mouth, I'm forced to look up into her cold eyes as she sadistically smiles at me.")
ShowMessageFace("",0,0,2,53)
ShowMessage("As the toothless mouth slowly chews on my body, warm liquid sprays out and covers me.")
ShowMessageFace("maidscyulla_fc1",2,0,2,54)
ShowMessage("\\n<Ran>")
ShowMessage("How does it feel being eaten alive?")
ShowMessage("Please, let me hear those delicious screams again.")
ShowMessageFace("",0,0,2,55)
ShowMessage("\\n<Luka>")
ShowMessage("Hyaaa...!")
ShowMessageFace("",0,0,2,56)
ShowMessage("The tentacles in her mouth pull on me again, drawing me further inside.")
245(bytes(0x04,0x08,0x6f,0x3a,0x0d,0x52,0x50,0x47,0x3a,0x3a,0x42,0x47,0x53,0x08,0x3a,0x0a,0x40,0x6e,0x61,0x6d,0x65,0x49,0x22,0x1a,0x6d,0x6f,0x6e,0x5f,0x68,0x73,0x65,0x61,0x6e,0x32,0x32,0x5f,0x74,0x65,0x6e,0x74,0x61,0x63,0x6c,0x65,0x33,0x06,0x3a,0x06,0x45,0x54,0x3a,0x0c,0x40,0x76,0x6f,0x6c,0x75,0x6d,0x65,0x69,0x55,0x3a,0x0b,0x40,0x70,0x69,0x74,0x63,0x68,0x69,0x69))
PictureDisplay(5,"ev_maidscyulla_h08",0,0,0,0,100,100,255,0)
ShowMessageFace("",0,0,2,57)
ShowMessage("After only a few moments, I've been sucked inside all the way to my shoulders.")
ShowMessageFace("maidscyulla_fc1",2,0,2,58)
ShowMessage("\\n<Ran>")
ShowMessage("Hehe... What a delicious looking body.")
ShowMessage("It will feel pleasant for you, so please offer yourself to me willingly.")
ShowMessageFace("",0,0,2,59)
ShowMessage("\\n<Luka>")
ShowMessage("N...no...")
PictureDisplay(5,"ev_maidscyulla_h09",0,0,0,0,100,100,255,0)
ShowMessageFace("",0,0,2,60)
ShowMessage("Her tentacles grip my body and pull me deeper into her horrifying mouth.")
ShowMessage("Leaving only my head, I'm being pulled inside her body.")
PictureDisplay(6,"ev_maidscyulla_ct01",0,0,0,0,100,100,255,0)
ShowMessageFace("",0,0,2,61)
ShowMessage("Stuck inside the mouth that's eating me, tentacles squirm all over my body, stimulating every inch of my body.")
ShowMessageFace("",0,0,2,62)
ShowMessage("As they run over my penis, it reacts, getting hard again inside of her mouth.")
ShowMessageFace("",0,0,2,63)
ShowMessage("\\n<Luka>")
ShowMessage("Ah, unnngh...")
ShowMessageFace("maidscyulla_fc1",2,0,2,64)
ShowMessage("\\n<Ran>")
ShowMessage("Oh dear...")
ShowMessage("Even though you're being eaten, your genitals have grown so big.")
ShowMessageFace("maidscyulla_fc1",2,0,2,65)
ShowMessage("\\n<Ran>")
ShowMessage("You must forgive me since I only use this hole for feeding.")
ShowMessage("But shall I give you some extra service? Hehe.")
PictureDisplay(6,"ev_maidscyulla_ct02",0,0,0,0,100,100,255,0)
ShowMessageFace("",0,0,2,66)
ShowMessage("\\n<Luka>")
ShowMessage("Ah, auuuu!")
ShowMessageFace("",0,0,2,67)
ShowMessage("As the stimulation used for digestion fills my body with pleasure, I feebly shake in horror at what's happening.")
ShowMessageFace("",0,0,2,68)
ShowMessage("As her digestive juices flow over my body, her soft toothless mouth chews on my penis.")
ShowMessage("The thought that this actually feels good is too horrifying to take.")
ShowMessageFace("",0,0,2,69)
ShowMessage("\\n<Luka>")
ShowMessage("No... Not this...")
ShowMessage("Ah, aaaah...!!")
ShowMessageFace("",0,0,2,70)
ShowMessage("As the digestion motions continue, I feel my waist go numb.")
ShowMessage("Biting back the tears, I shake in humiliation as I give in to the orgasm.")
RunCommonEvent(104)
PictureDisplay(6,"ev_maidscyulla_ct03",0,0,0,0,100,100,255,0)
RunCommonEvent(105)
ShowMessageFace("",0,0,2,71)
ShowMessage("I miserably come inside her mouth as she swallows me whole.")
ShowMessageFace("maidscyulla_fc1",2,0,2,72)
ShowMessage("\\n<Ran>")
ShowMessage("Oh dear, you seem to have had an orgasm while being eaten.")
ShowMessage("That is behavior most unfit for a gentleman.")
ShowMessageFace("",0,0,2,73)
ShowMessage("She giggles as she continues to prey on me.")
ShowMessageFace("",0,0,2,74)
ShowMessage("Writhing around helplessly, I yell out for help.")
ShowMessageFace("",0,0,2,75)
ShowMessage("\\n<Luka>")
ShowMessage("S...Stop this! Help me!")
ShowMessageFace("maidscyulla_fc1",2,0,2,76)
ShowMessage("\\n<Ran>")
ShowMessage("Hehe... The taste of live prey is the best.")
ShowMessage("Please, you should enjoy this as well.")
ShowMessageFace("",0,0,2,77)
ShowMessage("\\n<Luka>")
ShowMessage("Aaaahhh...")
RunCommonEvent(104)
RunCommonEvent(105)
ShowMessageFace("",0,0,2,78)
ShowMessage("Another orgasm brought on by the digestive motions shoots out of me as she giggles.")
ShowMessageFace("",0,0,2,79)
ShowMessage("\\n<Luka>")
ShowMessage("Ahh... Help... Help...")
ShowMessageFace("maidscyulla_fc1",2,0,2,80)
ShowMessage("\\n<Ran>")
ShowMessage("Hehe... Goodbye, sir.")
PictureDisplay(5,"ev_maidscyulla_h10",0,0,0,0,100,100,255,0)
ShowMessageFace("",0,0,2,81)
ShowMessage("After those cold final words...")
ShowMessage("She sucks me all the way into her mouth.")
ShowMessageFace("",0,0,2,82)
ShowMessage("\\n<Luka>")
ShowMessage("Ah, Aaaaahhh...!")
ShowMessageFace("",0,0,2,83)
ShowMessage("My vision goes dark as I'm pulled into her stomach and covered in digestive juices.")
ShowMessageFace("",0,0,2,84)
ShowMessage("\\n<Luka>")
ShowMessage("N...no... Stop... No...")
ShowMessageFace("",0,0,2,85)
ShowMessage("There's no way out, I'm just simple food now...")
ShowMessage("There's nothing left but to be digested...")
ShowMessageFace("",0,0,2,86)
ShowMessage("\\n<Luka>")
ShowMessage("Unnngh... That feels good...")
RunCommonEvent(104)
RunCommonEvent(105)
ShowMessageFace("",0,0,2,87)
ShowMessage("I come inside of her again, brought on by the soothing motions of her stomach.")
ShowMessage("My semen shoots inside of her, serving no purpose but to act as more nourishment.")
ShowMessageFace("",0,0,2,88)
ShowMessage("Stuck inside of her stomach, I can't do anything but pathetically ejaculate as she digests me alive.")
221()
PictureClear(5)
PictureClear(6)
246(2)
ShowMessageFace("maidscyulla_fc1",1,0,2,89)
ShowMessage("\\n<Ran>")
ShowMessage("Fufu, playtime is over...")
ShowMessageFace("",0,0,2,90)
ShowMessage("Suddenly, my body is thrown on the floor.")
ShowMessage("With my consciousness fading, I can feel myself roll on the floor.")
ShowMessageFace("maidscyulla_fc1",1,0,2,91)
ShowMessage("\\n<Ran>")
ShowMessage("How did it feel to experience being preyed on?")
ShowMessage("I can tell you it will feel a lot better if I prey on you all the way.")
ShowMessageFace("",0,0,2,92)
ShowMessage("\\n<Luka>")
ShowMessage("............")
ShowMessageFace("",0,0,2,93)
ShowMessage("Incredible pleasure is carved into my mind and body...")
ShowMessage("And I lose consciousness.")
ShowMessageFace("",0,0,2,94)
ShowMessage("......")
RunCommonEvent(3998)
0()
