﻿// EVENT 5737
Name "Sonya Sex Toys 920"

PictureDisplay(5,"80_sonia_m1_st08",0,0,0,0,100,100,255,0)
ShowMessageFace("sonia_fc1",3,0,2,1)
ShowMessage("\\n<Sonya>")
ShowMessage("Luka, these...")
ShowMessage("Do you want me to train you with these special weapons?")
ShowMessageFace("",0,0,2,2)
ShowMessage("\\n<Luka>")
ShowMessage("Yea, ok.")
ShowMessageFace("",0,0,2,3)
ShowMessage("Thus, I go train with Sonya using special weapons...")
221()
PictureDisplay(1,"bg195",0,0,0,0,100,100,255,0)
PictureDisplay(5,"ev_sonia_hx920_01",0,0,0,0,100,100,255,0)
222()
241(bytes(0x04,0x08,0x6f,0x3a,0x0d,0x52,0x50,0x47,0x3a,0x3a,0x42,0x47,0x4d,0x08,0x3a,0x0a,0x40,0x6e,0x61,0x6d,0x65,0x49,0x22,0x09,0x65,0x72,0x6f,0x31,0x06,0x3a,0x06,0x45,0x54,0x3a,0x0c,0x40,0x76,0x6f,0x6c,0x75,0x6d,0x65,0x69,0x69,0x3a,0x0b,0x40,0x70,0x69,0x74,0x63,0x68,0x69,0x69))
ShowMessageFace("",0,0,2,4)
ShowMessage("\\n<Luka>")
ShowMessage("Ah, auuu...")
ShowMessageFace("sonia_fc1",2,0,2,5)
ShowMessage("\\n<Sonya>")
ShowMessage("Ufufu...")
ShowMessage("I'm going to tickle you a lot with this feather~♪")
ShowMessageFace("",0,0,2,6)
ShowMessage("My clothes are taken off and I'm forced on all fours.")
ShowMessage("Sonya's right hand equipped with the sex toy reaches for my crotch.")
ShowMessageFace("",0,0,2,7)
ShowMessage("\\n<Luka>")
ShowMessage("W-wait a minute Sonya... This is...")
ShowMessage("W-wasn't this supposed to be special training...?")
ShowMessageFace("sonia_fc1",2,0,2,8)
ShowMessage("\\n<Sonya>")
ShowMessage("Of course, it's special training using sex toys.")
ShowMessage("Now, I'm going to wring you dry with this sex toy...!")
245(bytes(0x04,0x08,0x6f,0x3a,0x0d,0x52,0x50,0x47,0x3a,0x3a,0x42,0x47,0x53,0x08,0x3a,0x0a,0x40,0x6e,0x61,0x6d,0x65,0x49,0x22,0x17,0x6d,0x6f,0x6e,0x5f,0x68,0x73,0x65,0x61,0x6e,0x31,0x37,0x5f,0x73,0x69,0x67,0x6f,0x6b,0x69,0x06,0x3a,0x06,0x45,0x54,0x3a,0x0c,0x40,0x76,0x6f,0x6c,0x75,0x6d,0x65,0x69,0x55,0x3a,0x0b,0x40,0x70,0x69,0x74,0x63,0x68,0x69,0x69))
PictureDisplay(5,"ev_sonia_hx920_02",0,0,0,0,100,100,255,0)
ShowMessageFace("",0,0,2,9)
ShowMessage("\\n<Luka>")
ShowMessage("Ah... Auuuu!")
ShowMessageFace("",0,0,2,10)
ShowMessage("Sonya skillfully moves the feathers caressing the whole surface of my penis!")
ShowMessageFace("sonia_fc1",2,0,2,11)
ShowMessage("\\n<Sonya>")
ShowMessage("First, I'm going to...")
ShowMessage("Tickle the tip of your penis...")
ShowMessageFace("",0,0,2,12)
ShowMessage("\\n<Luka>")
ShowMessage("Th-that's... Hauuu...")
ShowMessageFace("",0,0,2,13)
ShowMessage("I can feel the soft feathers crawling all over my sensitive glans.")
ShowMessage("My body starts trembling involuntarily.")
ShowMessageFace("sonia_fc1",2,0,2,14)
ShowMessage("\\n<Sonya>")
ShowMessage("Ahaha... Luka, are you enjoying this?")
ShowMessage("I'm still only tickling you. ♪")
ShowMessageFace("",0,0,2,15)
ShowMessage("Sonya giggles as she keeps tickling my penis.")
ShowMessage("It's as if she's enjoying playing with the feathers, tickling my manhood.")
ShowMessageFace("",0,0,2,16)
ShowMessage("\\n<Luka>")
ShowMessage("Ah, aaaaaah...!")
ShowMessageFace("",0,0,2,17)
ShowMessage("She focuses her tickle assault on my urethral opening and my back muscle.")
ShowMessage("An embarrassing moan escapes my mouth as I'm in this humiliating position.")
PictureDisplay(5,"ev_sonia_hx920_03",0,0,0,0,100,100,255,0)
ShowMessageFace("sonia_fc1",2,0,2,18)
ShowMessage("\\n<Sonya>")
ShowMessage("Ahaha, look, you're leaking precome.")
ShowMessage("Aren't you embarrassed by this...?")
ShowMessageFace("",0,0,2,19)
ShowMessage("\\n<Luka>")
ShowMessage("Ugh...")
ShowMessageFace("",0,0,2,20)
ShowMessage("My glans, wet from my pre-come, continues to be tickled.")
ShowMessage("Feeling the pleasure of the feathers stimulating me, I tremble in humiliation.")
ShowMessageFace("",0,0,2,21)
ShowMessage("\\n<Luka>")
ShowMessage("D-don't... Hauuu...")
ShowMessageFace("sonia_fc1",2,0,2,22)
ShowMessage("\\n<Sonya>")
ShowMessage("I played with your tip a bit and you're already leaking such a shameful voice...")
ShowMessage("You're so pathetic Luka.")
ShowMessageFace("",0,0,2,23)
ShowMessage("\\n<Luka>")
ShowMessage("Ugh, urgh...")
ShowMessageFace("",0,0,2,24)
ShowMessage("While ridiculing me, Sonya continues to torment my glans with the feathers.")
ShowMessage("She skillfully tickles my urethral opening and the neck of my penis...")
ShowMessageFace("",0,0,2,25)
ShowMessage("I'm immersed in pleasure from the fascinating feeling of the feathers.")
ShowMessage("I completely yield to the pleasure of being tickled.")
ShowMessageFace("",0,0,2,26)
ShowMessage("\\n<Luka>")
ShowMessage("Au... Fuaaa...")
ShowMessageFace("sonia_fc1",2,0,2,27)
ShowMessage("\\n<Sonya>")
ShowMessage("Haha, you're feeling it...♪")
ShowMessage("It doesn't look like you're going to last long at this rate, are you about to come...?")
PictureDisplay(5,"ev_sonia_hx920_04",0,0,0,0,100,100,255,0)
ShowMessageFace("sonia_fc1",2,0,2,28)
ShowMessage("\\n<Sonya>")
ShowMessage("Hey, where do you want me to tickle you?")
ShowMessage("Where do you want me to do it while you come?")
ShowMessageFace("",0,0,2,29)
ShowMessage("\\n<Luka>")
ShowMessage("........")
ShowMessageFace("sonia_fc1",2,0,2,30)
ShowMessage("\\n<Sonya>")
ShowMessage("Well, aren't you going to tell me?")
ShowMessage("You're not saying anything, does that mean you want me to stop...?")
ShowMessageFace("",0,0,2,31)
ShowMessage("\\n<Luka>")
ShowMessage("L-like before.. my urethra...")
ShowMessageFace("sonia_fc1",2,0,2,32)
ShowMessage("\\n<Sonya>")
ShowMessage("Ahaha, you want me to tickle your pee hole?")
ShowMessage("Wanting me to tease you there, that's so embarrassing...")
ShowMessageFace("sonia_fc1",2,0,2,33)
ShowMessage("\\n<Sonya>")
ShowMessage("Well then, I'm going to do exactly as you asked.")
ShowMessage("Come as I tickle your pee hole~♪")
ShowMessageFace("",0,0,2,34)
ShowMessage("Sonya giggles and starts tickling my urethral opening.")
ShowMessage("She sweeps over my tip countless times as if she was cleaning it...")
ShowMessageFace("",0,0,2,35)
ShowMessage("\\n<Luka>")
ShowMessage("Ah, hauuu...!")
ShowMessageFace("",0,0,2,36)
ShowMessage("Before I realize it, the feeling of release fills me.")
ShowMessage("As my glans is tickled my whole body goes numb...")
ShowMessageFace("sonia_fc1",2,0,2,37)
ShowMessage("\\n<Sonya>")
ShowMessage("Hoora, come. ♪")
ShowMessage("Leak it out as I tickle you~♪")
ShowMessageFace("",0,0,2,38)
ShowMessage("\\n<Luka>")
ShowMessage("Ah, aaaaah...!!")
ShowMessageFace("",0,0,2,39)
ShowMessage("The sweet tickling of the feathers makes it feel like I'm in heaven.")
ShowMessage("As the feeling of release rises, the inside of my head goes pure white...")
RunCommonEvent(104)
PictureDisplay(5,"ev_sonia_hx920_05",0,0,0,0,100,100,255,0)
RunCommonEvent(105)
ShowMessageFace("",0,0,2,40)
ShowMessage("As my urethra is tickled, semen gushes out of it.")
ShowMessage("My penis starts pulsating and with every pulse semen shoots out of it.")
ShowMessageFace("sonia_fc1",2,0,2,41)
ShowMessage("\\n<Sonya>")
ShowMessage("Haha, you let it out~♪")
ShowMessage("I'll keep tickling you as you come~♪")
ShowMessageFace("",0,0,2,42)
ShowMessage("\\n<Luka>")
ShowMessage("Ah, hyaaaa...!!")
ShowMessageFace("",0,0,2,43)
ShowMessage("Sonya keeps tickling me as I ejaculate, the sweet stimulation continuously attacking me.")
ShowMessage("My penis trembles and scatters my semen all over.")
ShowMessageFace("sonia_fc1",2,0,2,44)
ShowMessage("\\n<Sonya>")
ShowMessage("Ahaha, this is so fuuuu-nny. ♪")
ShowMessage("Luka's body is spasming. ♪")
ShowMessageFace("",0,0,2,45)
ShowMessage("\\n<Luka>")
ShowMessage("Ahii, hyaaaaa...!")
ShowMessage("Stop it, I'm already coming...!")
ShowMessageFace("",0,0,2,46)
ShowMessage("Thus, the tickling agony continues even throughout my ejaculation.")
ShowMessage("My penis is tickled up until the point my ejaculation ends...")
ShowMessageFace("",0,0,2,47)
ShowMessage("\\n<Luka>")
ShowMessage("Hauuu...")
ShowMessageFace("sonia_fc1",2,0,2,48)
ShowMessage("\\n<Sonya>")
ShowMessage("Fufu, did it feel good?")
ShowMessage("Well then, let me tickle you more and make you feel even better. ♪")
PictureDisplay(5,"ev_sonia_hx920_06",0,0,0,0,100,100,255,0)
ShowMessageFace("",0,0,2,49)
ShowMessage("\\n<Luka>")
ShowMessage("Th-that's... Aaaaau!!")
ShowMessageFace("",0,0,2,50)
ShowMessage("Sonya gathers the feathers and focuses on attacking my urethral opening.")
ShowMessage("My waist starts trembling from the overwhelming pleasure.")
ShowMessageFace("",0,0,2,51)
ShowMessage("\\n<Luka>")
ShowMessage("Don't... I just came...!")
ShowMessageFace("sonia_fc1",2,0,2,52)
ShowMessage("\\n<Sonya>")
ShowMessage("Doesn't feel even better when I tickle your penis while it's super sensitive?")
ShowMessage("Hora hora, let me hear more of your moans~♪")
ShowMessageFace("",0,0,2,53)
ShowMessage("\\n<Luka>")
ShowMessage("Ah... Ahiiii...!!")
PictureDisplay(5,"ev_sonia_hx920_07",0,0,0,0,100,100,255,0)
ShowMessageFace("",0,0,2,54)
ShowMessage("Pre-cum overflows from my tip and the feathers get soaked in it, spreading it all over my glans.")
ShowMessage("Sonya keeps torturing my urethral opening, smiling all the while.")
ShowMessageFace("",0,0,2,55)
ShowMessage("\\n<Luka>")
ShowMessage("Hya... Ah, aaaaaau!!")
ShowMessageFace("",0,0,2,56)
ShowMessage("Regardless of my will, my waist starts trembling.")
ShowMessage("My body squirms trying to escape the tickling stimulation.")
PictureDisplay(5,"ev_sonia_hx920_08",0,0,0,0,100,100,255,0)
ShowMessageFace("sonia_fc1",2,0,2,57)
ShowMessage("\\n<Sonya>")
ShowMessage("Hora hora, don't struggle.")
ShowMessage("I'll tickle you even more than this... Is that what you want?")
ShowMessageFace("",0,0,2,58)
ShowMessage("\\n<Luka>")
ShowMessage("Ah, auuu...!")
ShowMessageFace("",0,0,2,59)
ShowMessage("She holds down my body and keeps tickling my penis, not letting me escape.")
ShowMessage("My glans still dripping goes numb with pleasure.")
ShowMessageFace("",0,0,2,60)
ShowMessage("\\n<Luka>")
ShowMessage("Th-that feels good... Hau, ugh...")
ShowMessageFace("sonia_fc1",2,0,2,61)
ShowMessage("\\n<Sonya>")
ShowMessage("You tip became all slimy and wet.")
ShowMessage("Well then, shoot it out again...♪")
ShowMessageFace("",0,0,2,62)
ShowMessage("Sonya tickles my urethral opening even faster.")
ShowMessage("The overwhelming pleasure makes me reach heaven...")
ShowMessageFace("",0,0,2,63)
ShowMessage("\\n<Luka>")
ShowMessage("Aah... Fuaaaa...")
RunCommonEvent(104)
PictureDisplay(5,"ev_sonia_hx920_09",0,0,0,0,100,100,255,0)
RunCommonEvent(105)
ShowMessageFace("",0,0,2,64)
ShowMessage("A large amount of semen leaks out of me and drips down.")
ShowMessage("The pleasure drives me crazy as I'm still being tickled while ejaculating.")
ShowMessageFace("sonia_fc1",2,0,2,65)
ShowMessage("\\n<Sonya>")
ShowMessage("Fufu, you leaked again...♪")
ShowMessageFace("",0,0,2,66)
ShowMessage("\\n<Luka>")
ShowMessage("Hau... Ah, ugh...")
ShowMessageFace("sonia_fc1",2,0,2,67)
ShowMessage("\\n<Sonya>")
ShowMessage("Yes... Couchie coochie coo...")
ShowMessage("I'm going to tickle you until you finish leaking. ♪")
PictureDisplay(5,"ev_sonia_hx920_10",0,0,0,0,100,100,255,0)
ShowMessageFace("",0,0,2,68)
ShowMessage("She keeps tickling my urethral opening as I leak out my semen...")
ShowMessage("I taste this heaven until my ejaculation ends.")
ShowMessageFace("",0,0,2,69)
ShowMessage("\\n<Luka>")
ShowMessage("Aaaaah...")
246(2)
ShowMessageFace("",0,0,2,70)
ShowMessage("The last drop of my semen leaks out...")
ShowMessage("And finally, Sonya stops moving her hand.")
ShowMessageFace("sonia_fc1",2,0,2,71)
ShowMessage("\\n<Sonya>")
ShowMessage("...Yes, we're finished. ♪")
ShowMessage("Aren't you embarrassed that you came from being tickled?")
ShowMessageFace("",0,0,2,72)
ShowMessage("\\n<Luka>")
ShowMessage("Hauuu...")
ShowMessageFace("",0,0,2,73)
ShowMessage("The paper between my legs is soaked in my semen stirring up a feeling of humiliation inside me.")
ShowMessage("I was tickled by a sex toy and came without even being able to hold back...")
ShowMessageFace("sonia_fc1",2,0,2,74)
ShowMessage("\\n<Sonya>")
ShowMessage("Next, I'm going to try other sex toys. ♪")
ShowMessage("Any sex toy will make you leak immediately...")
ShowMessageFace("",0,0,2,75)
ShowMessage("\\n<Luka>")
ShowMessage("........")
ShowMessageFace("",0,0,2,76)
ShowMessage("I was nothing more than an animal to be forcefully wrung...")
ShowMessage("All I can do is immerse myself in the afterglow of the pleasure and humiliation.")
ShowMessageFace("",0,0,2,77)
ShowMessage("Next time, Sonya will try out another Sex Toy...")
ShowMessage("I shake in fear but also in expectation.")
221()
PictureClear(1)
PictureClear(5)
PictureClear(6)
246(2)
ShowMessageFace("",0,0,2,78)
ShowMessage("・・・・・・・・")
RunCommonEvent(3998)
0()
