// EVENT 4043
Name "Promestein 3"

If(0,25,1)
 221()
 PictureClear(5)
 PictureClear(6)
 ShowMessageFace("",0,0,2,0)
 ShowMessage("......")
 242(2)
 Wait(120)
 241(bytes(0x04,0x08,0x6f,0x3a,0x0d,0x52,0x50,0x47,0x3a,0x3a,0x42,0x47,0x4d,0x08,0x3a,0x0a,0x40,0x6e,0x61,0x6d,0x65,0x49,0x22,0x0c,0x63,0x61,0x73,0x74,0x6c,0x65,0x36,0x06,0x3a,0x06,0x45,0x54,0x3a,0x0c,0x40,0x76,0x6f,0x6c,0x75,0x6d,0x65,0x69,0x69,0x3a,0x0b,0x40,0x70,0x69,0x74,0x63,0x68,0x69,0x69))
 EndEventProcessing()
 0()
EndIf()
PictureDisplay(5,"80_stein_st31",0,0,0,0,100,100,255,0)
ShowMessageFace("stein_fc2",0,0,2,1)
ShowMessage("\\n<Promestein>Excuse me, would you help me collect semen?\nI only need a little...")
ShowMessageFace("",0,0,2,2)
ShowMessage("\\n<Luka>U-Uh... Okay...")
ShowMessageFace("stein_fc2",0,0,2,3)
ShowMessage("\\n<Promestein>Then, please follow me...")
ShowMessageFace("",0,0,2,4)
ShowMessage("I follow her to a private room...")
221()
PictureDisplay(1,"bg195",0,0,0,0,100,100,255,0)
PictureDisplay(5,"ev_stein_hsd1",0,0,0,0,100,100,255,0)
222()
241(bytes(0x04,0x08,0x6f,0x3a,0x0d,0x52,0x50,0x47,0x3a,0x3a,0x42,0x47,0x4d,0x08,0x3a,0x0a,0x40,0x6e,0x61,0x6d,0x65,0x49,0x22,0x09,0x65,0x72,0x6f,0x31,0x06,0x3a,0x06,0x45,0x54,0x3a,0x0c,0x40,0x76,0x6f,0x6c,0x75,0x6d,0x65,0x69,0x69,0x3a,0x0b,0x40,0x70,0x69,0x74,0x63,0x68,0x69,0x69))
ShowMessageFace("stein_fc2",0,0,2,5)
ShowMessage("\\n<Promestein>Now then, let's get this done quickly.\nThis time, I'll use a custom made extraction machine.")
ShowMessageFace("",0,0,2,6)
ShowMessage("As soon as I enter the room, she removes my pants and underwear.")
ShowMessage("She quickly wraps my exposed penis in a strange machine.")
245(bytes(0x04,0x08,0x6f,0x3a,0x0d,0x52,0x50,0x47,0x3a,0x3a,0x42,0x47,0x53,0x08,0x3a,0x0a,0x40,0x6e,0x61,0x6d,0x65,0x49,0x22,0x19,0x6d,0x6f,0x6e,0x5f,0x68,0x73,0x65,0x61,0x6e,0x32,0x35,0x5f,0x6d,0x61,0x63,0x68,0x69,0x6e,0x65,0x32,0x06,0x3a,0x06,0x45,0x54,0x3a,0x0c,0x40,0x76,0x6f,0x6c,0x75,0x6d,0x65,0x69,0x55,0x3a,0x0b,0x40,0x70,0x69,0x74,0x63,0x68,0x69,0x69))
ShowMessageFace("",0,0,2,7)
ShowMessage("Promestein turns it on right away.")
ShowMessage("A strange noise fills the room as the pump-like movements start.")
ShowMessageFace("",0,0,2,8)
ShowMessage("The internal pressure slowly builds...")
ShowMessage("And all the while, a gentle vibration massages my penis.")
ShowMessageFace("",0,0,2,9)
ShowMessage("\\n<Luka>Nnngh... W-Why something like this...?")
ShowMessageFace("stein_fc2",0,0,2,10)
ShowMessage("\\n<Promestein>Even if I use the onahole, my hand gets tired...\nSo I made a machine to quickly milk semen.")
ShowMessageFace("",0,0,2,11)
ShowMessage("The inner walls of the machine start to swell.")
ShowMessage("They feel almost wavy in texture...")
ShowMessageFace("",0,0,2,12)
ShowMessage("And all the way in the back, I can feel a slight warmth against my glans.")
ShowMessage("It seems to be designed to attack all of a man's weakest points.")
ShowMessageFace("",0,0,2,13)
ShowMessage("\\n<Luka>Ah... Aaah...\nTh-That feels good...")
ShowMessageFace("stein_fc2",0,0,2,14)
ShowMessage("\\n<Promestein>Won't you ejaculate quickly?\nI want to collect your semen quickly so I can start my experiment...")
ShowMessageFace("",0,0,2,15)
ShowMessage("Promestein looks up at me with a troubled face.")
ShowMessage("Her machine quickly puts me into a corner.")
ShowMessageFace("",0,0,2,16)
ShowMessage("Sometimes the inner walls contract and tighten...")
ShowMessage("While inside, the whole thing is moving up and down.")
ShowMessageFace("",0,0,2,17)
ShowMessage("The vibration stimulus is focused against my back muscle.")
ShowMessage("The various stimulations all combine to bring any man to climax.")
ShowMessageFace("",0,0,2,18)
ShowMessage("\\n<Luka>Nnngh... Aaah...")
ShowMessageFace("stein_fc2",0,0,2,19)
ShowMessage("\\n<Promestein>Stop your pathetic moans, and just ejaculate already.\nHere, I'll increase the stimulus.")
ShowMessageFace("",0,0,2,20)
ShowMessage("Promestein triggers the machine to increase the stimulation.")
ShowMessage("As the inner walls suddenly move faster, my waist unconsciously pushes up into it.")
ShowMessageFace("",0,0,2,21)
ShowMessage("\\n<Luka>Ah... Hnnngh...!")
ShowMessageFace("stein_fc2",0,0,2,22)
ShowMessage("\\n<Promestein>You'll ejaculate with this, won't you?\nOkay, go ahead.")
ShowMessageFace("",0,0,2,23)
ShowMessage("With an expressionless face, Promestein switches it to the maximum setting.")
ShowMessage("The sudden intense feeling pushes me instantly over the edge.")
ShowMessageFace("",0,0,2,24)
ShowMessage("\\n<Luka>Ah... I'm coming...!")
ShowMessageFace("stein_fc2",0,0,2,25)
ShowMessage("\\n<Promestein>......")
RunCommonEvent(104)
PictureDisplay(5,"ev_stein_hsd2",0,0,0,0,100,100,255,0)
RunCommonEvent(105)
ShowMessageFace("",0,0,2,26)
ShowMessage("I quickly come into the machine.")
ShowMessage("She looks at it without changing her expression at all.")
ShowMessageFace("",0,0,2,27)
ShowMessage("\\n<Luka>......")
ShowMessageFace("stein_fc2",0,0,2,28)
ShowMessage("\\n<Promestein>As expected, once isn't enough.\nI can't do the experiment without 50cc...")
ShowMessageFace("",0,0,2,29)
ShowMessage("Even after I come, she doesn't switch it off.")
ShowMessage("Stimulated by the machine, I can't do anything but tremble as the pleasure overwhelms me.")
ShowMessageFace("stein_fc2",0,0,2,30)
ShowMessage("\\n<Promestein>I'll have you come multiple times.\nSheesh, this is really troublesome...")
ShowMessageFace("",0,0,2,31)
ShowMessage("\\n<Luka>N...no way...\nAaah...")
ShowMessageFace("",0,0,2,32)
ShowMessage("A low buzz comes out of the machine as the ruthless pleasure continues.")
ShowMessage("Even though I just came, the mechanical device doesn't slow down at all...")
ShowMessageFace("",0,0,2,33)
ShowMessage("It squeezes down even tighter, pressing extra hard on my glans.")
ShowMessage("It's just an action to extract semen from me...")
ShowMessageFace("",0,0,2,34)
ShowMessage("\\n<Luka>D-don't... Aaah...")
ShowMessageFace("",0,0,2,35)
ShowMessage("The milking machine leaves me at the edge again in no time.")
ShowMessage("My penis trembles inside as I'm brought to another climax.")
ShowMessageFace("",0,0,2,36)
ShowMessage("\\n<Luka>Ah... I'm coming again...!")
ShowMessageFace("stein_fc2",0,0,2,37)
ShowMessage("\\n<Promestein>Ok, just come then.\nI need to collect it afterwards, so try not to get it everywhere.")
ShowMessageFace("",0,0,2,38)
ShowMessage("\\n<Luka>Ah, aaaah...!")
RunCommonEvent(104)
PictureDisplay(5,"ev_stein_hsd3",0,0,0,0,100,100,255,0)
RunCommonEvent(105)
ShowMessageFace("",0,0,2,39)
ShowMessage("I'm forced to a second ejaculation in the machine.")
ShowMessage("With my semen shooting out, it overflows from the top.")
ShowMessageFace("stein_fc2",0,0,2,40)
ShowMessage("\\n<Promestein>You're still a little short.\nI'll have you ejaculate again...")
ShowMessageFace("",0,0,2,41)
ShowMessage("\\n<Luka>Th...that... Impossible...\nAaaah...!")
ShowMessageFace("stein_fc2",0,0,2,42)
ShowMessage("\\n<Promestein>I'll get it out, even if you think you can't.\nYou should be able to do it once more...")
ShowMessageFace("",0,0,2,43)
ShowMessage("Promestein looks on, expression unchanged, as the machine keeps milking me.")
ShowMessage("Her merciless, clerical extraction...")
ShowMessageFace("",0,0,2,44)
ShowMessage("\\n<Luka>I can't come anymore... I can't come, so...")
ShowMessageFace("stein_fc2",0,0,2,45)
ShowMessage("\\n<Promestein>......")
ShowMessageFace("",0,0,2,46)
ShowMessage("She ignores me begging her to stop.")
ShowMessage("Instead, the machine keeps rubbing and vibrating...")
ShowMessageFace("",0,0,2,47)
ShowMessage("\\n<Luka>N-noooo... Aaah...")
246(1)
RunCommonEvent(104)
PictureDisplay(5,"ev_stein_hsd4",0,0,0,0,100,100,255,0)
RunCommonEvent(105)
ShowMessageFace("",0,0,2,48)
ShowMessage("My waist trembles as I'm forced to a third orgasm.")
ShowMessage("My body twitches as more semen flows out.")
ShowMessageFace("",0,0,2,49)
ShowMessage("\\n<Luka>Ah...ah...")
ShowMessageFace("stein_fc2",0,0,2,50)
ShowMessage("\\n<Promestein>...It took three times to get the necessary amount.\nShall we stop here for today?")
ShowMessageFace("stein_fc2",0,0,2,51)
ShowMessage("\\n<Promestein>With that, we're done here.\nThanks for your hard work.")
ShowMessageFace("",0,0,2,52)
ShowMessage("\\n<Luka>......")
ShowMessageFace("",0,0,2,53)
ShowMessage("The milking machine forced me to come three times in a row...")
ShowMessage("Mentally and physically exhausted, I just collapse backwards.")
ShowMessageFace("stein_fc2",0,0,2,54)
ShowMessage("\\n<Promestein>I'll call you if I need to collect more semen from now on.\nPlease come back again.")
ShowMessageFace("stein_fc2",0,0,2,55)
ShowMessage("\\n<Promestein>This is only a prototype, but it was still troublesome to operate.\nFurther automation... No, perhaps I should move to organic...")
ShowMessageFace("",0,0,2,56)
ShowMessage("\\n<Luka>......")
ShowMessageFace("",0,0,2,57)
ShowMessage("Just what is she going to try next time...?")
ShowMessage("Weak on my legs, I stumble out of the room...")
221()
PictureClear(5)
PictureClear(6)
246(2)
ShowMessageFace("",0,0,2,58)
ShowMessage("......")
242(2)
Wait(120)
241(bytes(0x04,0x08,0x6f,0x3a,0x0d,0x52,0x50,0x47,0x3a,0x3a,0x42,0x47,0x4d,0x08,0x3a,0x0a,0x40,0x6e,0x61,0x6d,0x65,0x49,0x22,0x0c,0x63,0x61,0x73,0x74,0x6c,0x65,0x36,0x06,0x3a,0x06,0x45,0x54,0x3a,0x0c,0x40,0x76,0x6f,0x6c,0x75,0x6d,0x65,0x69,0x69,0x3a,0x0b,0x40,0x70,0x69,0x74,0x63,0x68,0x69,0x69))
0()
