// EVENT 4022
Name "Ilias 2"

PictureDisplay(5,"80_iriasu_st38",0,0,0,0,100,100,255,0)
ShowMessageFace("iriasu_fc4",7,0,2,0)
ShowMessage("\\n<Ilias>Your sexual ability is poor.")
ShowMessage("I shall train you.")
ShowMessageFace("",0,0,2,1)
ShowMessage("\\n<Luka>Train? What do you...")
PictureDisplay(5,"80_iriasu_st32",0,0,0,0,100,100,255,0)
ShowMessageFace("iriasu_fc4",1,0,2,2)
ShowMessage("\\n<Ilias>I will attempt to rid you of your premature ejaculation.")
ShowMessage("Now, come to my room.")
ShowMessageFace("",0,0,2,3)
ShowMessage("I follow Ilias to her room...")
221()
PictureDisplay(1,"bg195",0,0,0,0,100,100,255,0)
PictureDisplay(5,"ev_iriasu_hd1",0,0,0,0,100,100,255,0)
222()
241(bytes(0x04,0x08,0x6f,0x3a,0x0d,0x52,0x50,0x47,0x3a,0x3a,0x42,0x47,0x4d,0x08,0x3a,0x0a,0x40,0x6e,0x61,0x6d,0x65,0x49,0x22,0x09,0x65,0x72,0x6f,0x31,0x06,0x3a,0x06,0x45,0x54,0x3a,0x0c,0x40,0x76,0x6f,0x6c,0x75,0x6d,0x65,0x69,0x69,0x3a,0x0b,0x40,0x70,0x69,0x74,0x63,0x68,0x69,0x69))
245(bytes(0x04,0x08,0x6f,0x3a,0x0d,0x52,0x50,0x47,0x3a,0x3a,0x42,0x47,0x53,0x08,0x3a,0x0a,0x40,0x6e,0x61,0x6d,0x65,0x49,0x22,0x1e,0x6d,0x6f,0x6e,0x5f,0x68,0x73,0x65,0x61,0x6e,0x30,0x31,0x5f,0x69,0x6e,0x6e,0x65,0x72,0x77,0x6f,0x72,0x6b,0x73,0x5f,0x61,0x31,0x06,0x3a,0x06,0x45,0x54,0x3a,0x0c,0x40,0x76,0x6f,0x6c,0x75,0x6d,0x65,0x69,0x55,0x3a,0x0b,0x40,0x70,0x69,0x74,0x63,0x68,0x69,0x69))
PictureDisplay(5,"ev_iriasu_hd1",0,0,0,0,100,100,255,0)
ShowMessageFace("",0,0,2,4)
ShowMessage("\\n<Luka>Ah...Ahhh!")
ShowMessageFace("",0,0,2,5)
ShowMessage("As soon as I enter her room, Ilias starts to violate me.")
ShowMessage("My penis sinks deep into her small vagina.")
ShowMessageFace("",0,0,2,6)
ShowMessage("The most sacred part of her pure body...")
ShowMessage("My dirty thing is enveloped in that place.")
ShowMessageFace("",0,0,2,7)
ShowMessage("\\n<Luka>A-auu...")
ShowMessageFace("",0,0,2,8)
ShowMessage("Her vagina is so warm and soft, it feels like I could melt.")
ShowMessage("The tender flesh rubs and strokes me so seductively...")
ShowMessageFace("",0,0,2,9)
ShowMessage("Since her body is so small, her vagina is narrow.")
ShowMessage("It feels so incredibly tight around me.")
ShowMessageFace("iriasu_fc4",0,0,2,10)
ShowMessage("\\n<Ilias>Well, Luka?")
ShowMessage("This body's pure nectar is...")
ShowMessageFace("",0,0,2,11)
ShowMessage("\\n<Luka>Auuu... It feels so good...")
ShowMessageFace("",0,0,2,12)
ShowMessage("I can barely form words, I'm moaning and panting so much.")
ShowMessageFace("",0,0,2,13)
ShowMessage("Her flesh is rubbing against me.")
ShowMessage("And she's so tight, it's more than I can bear.")
ShowMessageFace("",0,0,2,14)
ShowMessage("Embraced from root to tip, I melt in the sensations.")
ShowMessage("I can feel folds deep inside of her, gently rubbing against my glans.")
ShowMessageFace("",0,0,2,15)
ShowMessage("\\n<Luka>A-Amazing... You're so tight...")
ShowMessageFace("iriasu_fc4",0,0,2,16)
ShowMessage("\\n<Ilias>Now, Luka. Move your waist.")
ShowMessage("I shall train your poor penis with my pure hole.")
ShowMessageFace("",0,0,2,17)
ShowMessage("\\n<Luka>Y-Yes... Understood...")
ShowMessageFace("",0,0,2,18)
ShowMessage("As Ilias orders, I try to move my waist...")
ShowMessage("But even just moving a little, I'm overwhelmed by her tightness.")
ShowMessageFace("",0,0,2,19)
ShowMessage("\\n<Luka>Haauu...!")
ShowMessageFace("",0,0,2,20)
ShowMessage("Feeling her tight flesh press on me as I barely moved, I couldn't stop from screaming.")
ShowMessage("Stunned by the pleasure, I can't even move my waist.")
ShowMessageFace("iriasu_fc4",0,0,2,21)
ShowMessage("\\n<Ilias>What's wrong, Luka?")
ShowMessage("Are you already done moving?")
ShowMessageFace("",0,0,2,22)
ShowMessage("\\n<Luka>I-I can't do it...")
ShowMessage("I'll come if I move...")
ShowMessageFace("",0,0,2,23)
ShowMessage("Even just being inside her, it's good enough to climax.")
ShowMessage("If I moved in and out of her, I'd come right away.")
ShowMessageFace("",0,0,2,24)
ShowMessage("I can't come inside her like that.")
ShowMessage("Ilias would get angry...")
ShowMessageFace("iriasu_fc4",0,0,2,25)
ShowMessage("\\n<Ilias>If you can't do it, then I will.")
ShowMessage("I told you that I was training you, did I not?")
ShowMessageFace("",0,0,2,26)
ShowMessage("\\n<Luka>A-Ahhh...!")
245(bytes(0x04,0x08,0x6f,0x3a,0x0d,0x52,0x50,0x47,0x3a,0x3a,0x42,0x47,0x53,0x08,0x3a,0x0a,0x40,0x6e,0x61,0x6d,0x65,0x49,0x22,0x1e,0x6d,0x6f,0x6e,0x5f,0x68,0x73,0x65,0x61,0x6e,0x30,0x34,0x5f,0x69,0x6e,0x6e,0x65,0x72,0x77,0x6f,0x72,0x6b,0x73,0x5f,0x61,0x34,0x06,0x3a,0x06,0x45,0x54,0x3a,0x0c,0x40,0x76,0x6f,0x6c,0x75,0x6d,0x65,0x69,0x55,0x3a,0x0b,0x40,0x70,0x69,0x74,0x63,0x68,0x69,0x69))
ShowMessageFace("",0,0,2,27)
ShowMessage("Ilias starts to move her waist on top of me.")
ShowMessageFace("",0,0,2,28)
ShowMessage("Her folds and flesh rub against my glans as she slowly moves.")
ShowMessage("Up and down, my penis is pushed in and out of her tiny vagina.")
ShowMessageFace("",0,0,2,29)
ShowMessage("\\n<Luka>Auuu... That feels good...")
ShowMessage("I'm going to come soon...")
ShowMessageFace("iriasu_fc4",0,0,2,30)
ShowMessage("\\n<Ilias>It would be truly shameful to come now.")
ShowMessage("Clench your waist, and endure.")
ShowMessageFace("",0,0,2,31)
ShowMessage("Ilias looks down at me, and moves her waist even faster.")
ShowMessage("Invading her sacred place, she gently tightens around me.")
ShowMessageFace("",0,0,2,32)
ShowMessage("\\n<Luka>Ah...! Auuu...!!")
ShowMessageFace("",0,0,2,33)
ShowMessage("I'm going to come any second.")
ShowMessage("Moving her waist like this, there's no resisting it.")
ShowMessageFace("",0,0,2,34)
ShowMessage("I clench and try everything I can to just hold back.")
ShowMessageFace("iriasu_fc4",0,0,2,35)
ShowMessage("\\n<Ilias>You must not come, Luka.")
ShowMessage("You wouldn't dare pollute my sacred place with your dirty fluids, would you?")
ShowMessageFace("",0,0,2,36)
ShowMessage("Saying that, Ilias moves her waist even more intensely.")
ShowMessage("Caught in her tight vagina, my penis twitches in pure ecstasy.")
ShowMessageFace("",0,0,2,37)
ShowMessage("My endurance breaks down instantly as I feel the desire to climax take over.")
ShowMessage("It feels so good, I can't stop it...")
ShowMessageFace("",0,0,2,38)
ShowMessage("\\n<Luka>Auuu... I'm so sorry...")
ShowMessage("I'm coming...")
ShowMessageFace("iriasu_fc4",0,0,2,39)
ShowMessage("\\n<Ilias>You're useless, Luka...")
ShowMessage("I do not permit you to ejaculate. Endure it.")
ShowMessageFace("",0,0,2,40)
ShowMessage("Ilias looks down at me as she continues violently moving.")
ShowMessage("Overwhelmed by her gruelling training, the moment of my climax finally arrives.")
ShowMessageFace("",0,0,2,41)
ShowMessage("The electric feeling runs up my spine as my penis twitches inside her.")
ShowMessageFace("",0,0,2,42)
ShowMessage("\\n<Luka>N-no...!")
ShowMessage("I'm coming inside Ilias...!")
ShowMessageFace("",0,0,2,43)
ShowMessage("I desperately try to endure, but it's useless.")
ShowMessage("Pleasure spreads through my entire body as it races through me.")
ShowMessageFace("",0,0,2,44)
ShowMessage("\\n<Luka>Ahhhhhhhhh!!")
RunCommonEvent(104)
PictureDisplay(5,"ev_iriasu_hd2",0,0,0,0,100,100,255,0)
RunCommonEvent(105)
ShowMessageFace("",0,0,2,45)
ShowMessage("My penis spurts and fills Ilias with my semen.")
ShowMessage("Her sacred place is being dirtied by my semen...")
ShowMessageFace("",0,0,2,46)
ShowMessage("\\n<Luka>Auuu... I'm so sorry...")
ShowMessage("Ilias, I'm so sorry...")
ShowMessageFace("",0,0,2,47)
ShowMessage("I apologize as I come inside her.")
ShowMessage("Unable to endure it, I came so fast...")
ShowMessageFace("iriasu_fc4",2,0,2,48)
ShowMessage("\\n<Ilias>Sheesh, already coming...")
ShowMessage("You couldn't even tolerate that much. Miserable.")
ShowMessageFace("",0,0,2,49)
ShowMessage("Squeeze, squeeze... Her vagina tightens around me as she speaks.")
ShowMessage("It's almost as if she's squeezing out everything still in my penis...")
ShowMessageFace("",0,0,2,50)
ShowMessage("\\n<Luka>Ah...! Fhyaa...!")
ShowMessageFace("",0,0,2,51)
ShowMessage("Reacting to that milking stimulation, my penis gets erect again.")
ShowMessage("She isn't allowing me to go soft, or escape...")
ShowMessageFace("iriasu_fc4",0,0,2,52)
ShowMessage("\\n<Ilias>That barely counted as training.")
ShowMessage("Since you came as soon as I moved just a little bit...")
ShowMessageFace("iriasu_fc4",0,0,2,53)
ShowMessage("\\n<Ilias>I shall resume the stimulation now.")
ShowMessage("This time, don't show me such a pathetic performance.")
ShowMessageFace("",0,0,2,54)
ShowMessage("Ilias starts to move again.")
ShowMessage("Still inside of her, my penis is assaulted by the intense pleasure again.")
ShowMessageFace("",0,0,2,55)
ShowMessage("\\n<Luka>Ahhh!")
ShowMessageFace("iriasu_fc4",0,0,2,56)
ShowMessage("\\n<Ilias>This is still nothing.")
ShowMessage("I'll make it tighter to train your penis...")
ShowMessageFace("",0,0,2,57)
ShowMessage("As Ilias shakes her waist, she starts to tighten up.")
ShowMessage("Her soft, wet flesh presses down hard on me as she moves.")
ShowMessageFace("",0,0,2,58)
ShowMessage("\\n<Luka>A-Ahhh... S-So tight...!")
ShowMessage("That feels so good... Ahhhh!")
ShowMessageFace("iriasu_fc4",0,0,2,59)
ShowMessage("\\n<Ilias>You must not come. Endure it.")
ShowMessage("If this much is enough to make you come, I'll be forced to punish you...")
ShowMessageFace("",0,0,2,60)
ShowMessage("\\n<Luka>Ahhh... N-no...")
ShowMessageFace("",0,0,2,61)
ShowMessage("Toyed with in Ilias' vagina, I'm cornered in no time.")
ShowMessage("Trying to hold back from her seductive touch is pointless.")
ShowMessageFace("",0,0,2,62)
ShowMessage("Her soft walls press down on me, her wetness covering my shaft.")
ShowMessage("I reach the edge of another climax in moments.")
ShowMessageFace("",0,0,2,63)
ShowMessage("\\n<Luka>Faaa... Ilias, I'm sorry...!")
ShowMessage("I...I'm coming again...!")
ShowMessageFace("",0,0,2,64)
ShowMessage("The desire to come overtakes my mind.")
ShowMessage("Tasting this ecstasy, my body surrenders as I melt in bliss.")
ShowMessageFace("",0,0,2,65)
ShowMessage("\\n<Luka>Ahhhh...")
RunCommonEvent(104)
PictureDisplay(5,"ev_iriasu_hd3",0,0,0,0,100,100,255,0)
RunCommonEvent(105)
ShowMessageFace("",0,0,2,66)
ShowMessage("My penis pulses inside her.")
ShowMessage("My lust-filled fluids fill her as I come.")
ShowMessageFace("",0,0,2,67)
ShowMessage("Reacting on instinct, my body rejoices in pleasure.")
ShowMessage("Biting back my shame, the ecstasy fills my every thought.")
ShowMessageFace("",0,0,2,68)
ShowMessage("\\n<Luka>A-auuu...")
ShowMessageFace("iriasu_fc4",0,0,2,69)
ShowMessage("\\n<Ilias>To come so easily...")
ShowMessage("Luka, you truly are a miserable, premature-ejaculating Hero...")
ShowMessageFace("",0,0,2,70)
ShowMessage("\\n<Luka>But... It just feels so good inside of you, Ilias.")
ShowMessageFace("iriasu_fc4",0,0,2,71)
ShowMessage("\\n<Ilias>Do you mean to blame me?")
ShowMessage("Such a shameless penis must be punished.")
ShowMessageFace("",0,0,2,72)
ShowMessage("Saying that, Ilias' hips seductively wriggle.")
ShowMessage("I'm instantly soaked in ecstasy at her touch.")
ShowMessageFace("",0,0,2,73)
ShowMessage("\\n<Luka>Faaa... S-So good...")
ShowMessageFace("iriasu_fc4",0,0,2,74)
ShowMessage("\\n<Ilias>Sheesh...")
ShowMessage("A Hero who break at this level...")
ShowMessageFace("iriasu_fc4",0,0,2,75)
ShowMessage("\\n<Ilias>Here comes the punishment.")
ShowMessage("Can you withstand this?")
ShowMessageFace("",0,0,2,76)
ShowMessage("In the next moment, her vagina becomes impossibly tight.")
ShowMessage("Her vagina shrinks down, a sweet pressure assaulting me at once.")
ShowMessageFace("",0,0,2,77)
ShowMessage("\\n<Luka>Faaa...")
RunCommonEvent(104)
PictureDisplay(5,"ev_iriasu_hd4",0,0,0,0,100,100,255,0)
RunCommonEvent(105)
ShowMessageFace("iriasu_fc4",0,0,2,78)
ShowMessage("\\n<Ilias>Sheesh, not even a second.")
ShowMessage("It seems like it will be difficult to train you.")
ShowMessageFace("",0,0,2,79)
ShowMessage("\\n<Luka>Faaa...")
ShowMessageFace("iriasu_fc4",0,0,2,80)
ShowMessage("\\n<Ilias>Are you listening, Luka?")
ShowMessageFace("",0,0,2,81)
ShowMessage("\\n<Luka>Auuu... Iliassss...")
ShowMessage("Ahhh... That feels good...")
RunCommonEvent(104)
PictureDisplay(5,"ev_iriasu_hd5",0,0,0,0,100,100,255,0)
RunCommonEvent(105)
246(2)
ShowMessageFace("iriasu_fc4",0,0,2,82)
ShowMessage("\\n<Ilias>...Sheesh.")
ShowMessageFace("",0,0,2,83)
ShowMessage("Is she amazed... Or satisfied...?")
ShowMessage("Ilias is smiling above me for some reason...")
221()
PictureClear(5)
PictureClear(6)
ShowMessageFace("",0,0,2,84)
ShowMessage("......")
242(2)
Wait(120)
241(bytes(0x04,0x08,0x6f,0x3a,0x0d,0x52,0x50,0x47,0x3a,0x3a,0x42,0x47,0x4d,0x08,0x3a,0x0a,0x40,0x6e,0x61,0x6d,0x65,0x49,0x22,0x0c,0x63,0x61,0x73,0x74,0x6c,0x65,0x36,0x06,0x3a,0x06,0x45,0x54,0x3a,0x0c,0x40,0x76,0x6f,0x6c,0x75,0x6d,0x65,0x69,0x69,0x3a,0x0b,0x40,0x70,0x69,0x74,0x63,0x68,0x69,0x69))
0()
