﻿// EVENT 0527
Name "コラボ後日談：魔剣三姉妹"

If(1,1213,0,1,0)
 241(bytes(0x04,0x08,0x6f,0x3a,0x0d,0x52,0x50,0x47,0x3a,0x3a,0x42,0x47,0x4d,0x08,0x3a,0x0a,0x40,0x6e,0x61,0x6d,0x65,0x49,0x22,0x0c,0x62,0x6f,0x73,0x73,0x30,0x2d,0x34,0x06,0x3a,0x06,0x45,0x54,0x3a,0x0c,0x40,0x76,0x6f,0x6c,0x75,0x6d,0x65,0x69,0x69,0x3a,0x0b,0x40,0x70,0x69,0x74,0x63,0x68,0x69,0x69))
 205(21,bytes(0x04,0x08,0x6f,0x3a,0x13,0x52,0x50,0x47,0x3a,0x3a,0x4d,0x6f,0x76,0x65,0x52,0x6f,0x75,0x74,0x65,0x09,0x3a,0x0c,0x40,0x72,0x65,0x70,0x65,0x61,0x74,0x46,0x3a,0x0f,0x40,0x73,0x6b,0x69,0x70,0x70,0x61,0x62,0x6c,0x65,0x46,0x3a,0x0a,0x40,0x77,0x61,0x69,0x74,0x54,0x3a,0x0a,0x40,0x6c,0x69,0x73,0x74,0x5b,0x07,0x6f,0x3a,0x15,0x52,0x50,0x47,0x3a,0x3a,0x4d,0x6f,0x76,0x65,0x43,0x6f,0x6d,0x6d,0x61,0x6e,0x64,0x07,0x3a,0x0a,0x40,0x63,0x6f,0x64,0x65,0x69,0x1e,0x3a,0x10,0x40,0x70,0x61,0x72,0x61,0x6d,0x65,0x74,0x65,0x72,0x73,0x5b,0x00,0x6f,0x3b,0x0a,0x07,0x3b,0x0b,0x69,0x00,0x3b,0x0c,0x5b,0x00))
 205(22,bytes(0x04,0x08,0x6f,0x3a,0x13,0x52,0x50,0x47,0x3a,0x3a,0x4d,0x6f,0x76,0x65,0x52,0x6f,0x75,0x74,0x65,0x09,0x3a,0x0c,0x40,0x72,0x65,0x70,0x65,0x61,0x74,0x46,0x3a,0x0f,0x40,0x73,0x6b,0x69,0x70,0x70,0x61,0x62,0x6c,0x65,0x46,0x3a,0x0a,0x40,0x77,0x61,0x69,0x74,0x54,0x3a,0x0a,0x40,0x6c,0x69,0x73,0x74,0x5b,0x07,0x6f,0x3a,0x15,0x52,0x50,0x47,0x3a,0x3a,0x4d,0x6f,0x76,0x65,0x43,0x6f,0x6d,0x6d,0x61,0x6e,0x64,0x07,0x3a,0x0a,0x40,0x63,0x6f,0x64,0x65,0x69,0x1e,0x3a,0x10,0x40,0x70,0x61,0x72,0x61,0x6d,0x65,0x74,0x65,0x72,0x73,0x5b,0x00,0x6f,0x3b,0x0a,0x07,0x3b,0x0b,0x69,0x00,0x3b,0x0c,0x5b,0x00))
 205(23,bytes(0x04,0x08,0x6f,0x3a,0x13,0x52,0x50,0x47,0x3a,0x3a,0x4d,0x6f,0x76,0x65,0x52,0x6f,0x75,0x74,0x65,0x09,0x3a,0x0c,0x40,0x72,0x65,0x70,0x65,0x61,0x74,0x46,0x3a,0x0f,0x40,0x73,0x6b,0x69,0x70,0x70,0x61,0x62,0x6c,0x65,0x46,0x3a,0x0a,0x40,0x77,0x61,0x69,0x74,0x54,0x3a,0x0a,0x40,0x6c,0x69,0x73,0x74,0x5b,0x07,0x6f,0x3a,0x15,0x52,0x50,0x47,0x3a,0x3a,0x4d,0x6f,0x76,0x65,0x43,0x6f,0x6d,0x6d,0x61,0x6e,0x64,0x07,0x3a,0x0a,0x40,0x63,0x6f,0x64,0x65,0x69,0x1e,0x3a,0x10,0x40,0x70,0x61,0x72,0x61,0x6d,0x65,0x74,0x65,0x72,0x73,0x5b,0x00,0x6f,0x3b,0x0a,0x07,0x3b,0x0b,0x69,0x00,0x3b,0x0c,0x5b,0x00))
 PictureDisplay(5,"80_executioner_st01",0,0,70,-50,70,70,0,0)
 PictureDisplay(6,"80_ogretooth_st01",0,0,-150,80,100,100,0,0)
 PictureDisplay(7,"80_mistilteinn_st01",0,0,280,130,80,80,0,0)
 PictureMove(5,null,0,0,70,-50,70,70,255,0,30,false)
 PictureMove(6,null,0,0,-150,80,100,100,255,0,30,false)
 PictureMove(7,null,0,0,280,130,80,80,255,0,30,true)
 ShowMessageFace("tarsa_fc2",2,0,2,1)
 ShowMessage("\\n<Tarsa>")
 ShowMessage("あなた達……")
 ShowMessage("こんなところに潜んでいたのね。")
 ShowMessageFace("nobissa_fc1",0,0,2,2)
 ShowMessage("\\n<Novissa>")
 ShowMessage("……………………")
 ShowMessageFace("executioner_fc1",0,0,2,3)
 ShowMessage("\\n<Executioner>")
 ShowMessage("キミ達は……勇者と、その仲間！？")
 ShowMessageFace("ogretooth_fc1",0,0,2,4)
 ShowMessage("\\n<Ogretooth>")
 ShowMessage("俺達を狩り出しに来たか、それなら相手になるぜ！")
 If(0,4,0)
  ShowMessageFace("alice_fc5",2,0,2,5)
  ShowMessage("\\n<Alice>")
  ShowMessage("この世界、これ以上掻き回させるわけにはいかん！")
  ShowMessage("今すぐ、大人しくしてもらうぞ！")
  0()
 EndIf()
 If(0,5,0)
  ShowMessageFace("iriasu_fc4",7,0,2,6)
  ShowMessage("\\n<Ilias>")
  ShowMessage("この世界は、あなた達のうろつく世界ではありません！")
  ShowMessage("お縄についてもらいましょう！")
  0()
 EndIf()
 ShowMessageFace("mistilteinn_fc1",0,0,2,7)
 ShowMessage("\\n<Mysteltainn>")
 ShowMessage("先の戦いでは、決着の機会はありませんでしたね……")
 ShowMessage("我等三人、本気で相手をしましょう！")
 PictureClear(5)
 PictureClear(6)
 PictureClear(7)
 ShowMessageFace("executioner_fc1",1,0,2,8)
 ShowMessage("\\n<Executioner>")
 ShowMessage("フォーム解放してもいいんだね……")
 ShowMessage("それじゃあ……処刑執行！")
 355("display_skill_name(\"処刑執行\")")
 212(21,42,false)
 Wait(60)
 PictureDisplay(5,"80_executioner_st12",0,0,0,0,100,100,0,0)
 PictureMove(5,null,0,0,0,0,100,100,255,0,30,true)
 ShowMessageFace("",0,0,2,9)
 ShowMessage("エクスキューショナーはフォームを解放した！")
 355("clear_skill_name")
 PictureClear(5)
 Wait(30)
 ShowMessageFace("ogretooth_fc1",2,0,2,10)
 ShowMessage("\\n<Ogretooth>")
 ShowMessage("俺もフルパワーで行くぜ……鬼牙解放！")
 355("display_skill_name(\"鬼牙解放\")")
 212(22,42,false)
 Wait(60)
 205(22,bytes(0x04,0x08,0x6f,0x3a,0x13,0x52,0x50,0x47,0x3a,0x3a,0x4d,0x6f,0x76,0x65,0x52,0x6f,0x75,0x74,0x65,0x09,0x3a,0x0c,0x40,0x72,0x65,0x70,0x65,0x61,0x74,0x46,0x3a,0x0f,0x40,0x73,0x6b,0x69,0x70,0x70,0x61,0x62,0x6c,0x65,0x46,0x3a,0x0a,0x40,0x77,0x61,0x69,0x74,0x54,0x3a,0x0a,0x40,0x6c,0x69,0x73,0x74,0x5b,0x08,0x6f,0x3a,0x15,0x52,0x50,0x47,0x3a,0x3a,0x4d,0x6f,0x76,0x65,0x43,0x6f,0x6d,0x6d,0x61,0x6e,0x64,0x07,0x3a,0x0a,0x40,0x63,0x6f,0x64,0x65,0x69,0x2e,0x3a,0x10,0x40,0x70,0x61,0x72,0x61,0x6d,0x65,0x74,0x65,0x72,0x73,0x5b,0x07,0x49,0x22,0x0a,0x52,0x4f,0x42,0x46,0x34,0x06,0x3a,0x06,0x45,0x54,0x69,0x07,0x6f,0x3b,0x0a,0x07,0x3b,0x0b,0x69,0x1e,0x3b,0x0c,0x5b,0x00,0x6f,0x3b,0x0a,0x07,0x3b,0x0b,0x69,0x00,0x3b,0x0c,0x5b,0x00))
 PictureDisplay(5,"80_ogretooth_st11",0,0,0,0,100,100,0,0)
 PictureMove(5,null,0,0,0,0,100,100,255,0,30,true)
 ShowMessageFace("",0,0,2,11)
 ShowMessage("オーガトゥースはフォームを解放した！！")
 355("clear_skill_name")
 PictureClear(5)
 Wait(30)
 ShowMessageFace("mistilteinn_fc1",3,0,2,12)
 ShowMessage("\\n<Mysteltainn>")
 ShowMessage("これで決着、出し惜しみは無しで行きましょう……")
 ShowMessage("……神殺しの枝！")
 355("display_skill_name(\"神殺ノ枝\")")
 212(23,42,false)
 Wait(60)
 205(23,bytes(0x04,0x08,0x6f,0x3a,0x13,0x52,0x50,0x47,0x3a,0x3a,0x4d,0x6f,0x76,0x65,0x52,0x6f,0x75,0x74,0x65,0x09,0x3a,0x0c,0x40,0x72,0x65,0x70,0x65,0x61,0x74,0x46,0x3a,0x0f,0x40,0x73,0x6b,0x69,0x70,0x70,0x61,0x62,0x6c,0x65,0x46,0x3a,0x0a,0x40,0x77,0x61,0x69,0x74,0x54,0x3a,0x0a,0x40,0x6c,0x69,0x73,0x74,0x5b,0x08,0x6f,0x3a,0x15,0x52,0x50,0x47,0x3a,0x3a,0x4d,0x6f,0x76,0x65,0x43,0x6f,0x6d,0x6d,0x61,0x6e,0x64,0x07,0x3a,0x0a,0x40,0x63,0x6f,0x64,0x65,0x69,0x2e,0x3a,0x10,0x40,0x70,0x61,0x72,0x61,0x6d,0x65,0x74,0x65,0x72,0x73,0x5b,0x07,0x49,0x22,0x0a,0x52,0x4f,0x42,0x46,0x34,0x06,0x3a,0x06,0x45,0x54,0x69,0x09,0x6f,0x3b,0x0a,0x07,0x3b,0x0b,0x69,0x1e,0x3b,0x0c,0x5b,0x00,0x6f,0x3b,0x0a,0x07,0x3b,0x0b,0x69,0x00,0x3b,0x0c,0x5b,0x00))
 PictureDisplay(5,"80_mistilteinn_st11",0,0,0,0,100,100,0,0)
 PictureMove(5,null,0,0,0,0,100,100,255,0,30,true)
 ShowMessageFace("",0,0,2,13)
 ShowMessage("ミステルテインはフォームを解放した！")
 355("clear_skill_name")
 PictureDisplay(5,"80_executioner_st11",0,0,70,-50,70,70,255,0)
 PictureDisplay(6,"80_ogretooth_st11",0,0,-150,80,100,100,255,0)
 PictureDisplay(7,"80_mistilteinn_st11",0,0,280,130,80,80,255,0)
 ShowMessageFace("nobissa_fc1",0,0,2,14)
 ShowMessage("\\n<Novissa>")
 ShowMessage("…………！！")
 ShowMessageFace("ruka_fc1",0,0,2,15)
 ShowMessage("\\n<Luka>")
 ShowMessage("すごい力だな……")
 ShowMessage("でも、負けはしない！")
 PictureClear(5)
 PictureClear(6)
 PictureClear(7)
 SetBattleBGM(bytes(0x04,0x08,0x6f,0x3a,0x0d,0x52,0x50,0x47,0x3a,0x3a,0x42,0x47,0x4d,0x08,0x3a,0x0a,0x40,0x6e,0x61,0x6d,0x65,0x49,0x22,0x0a,0x62,0x6f,0x73,0x73,0x33,0x06,0x3a,0x06,0x45,0x54,0x3a,0x0c,0x40,0x76,0x6f,0x6c,0x75,0x6d,0x65,0x69,0x69,0x3a,0x0b,0x40,0x70,0x69,0x74,0x63,0x68,0x69,0x69))
 Battle(0,1418,false,false)
 SetBattleBGM(bytes(0x04,0x08,0x6f,0x3a,0x0d,0x52,0x50,0x47,0x3a,0x3a,0x42,0x47,0x4d,0x08,0x3a,0x0a,0x40,0x6e,0x61,0x6d,0x65,0x49,0x22,0x0b,0x62,0x61,0x74,0x74,0x6c,0x65,0x06,0x3a,0x06,0x45,0x54,0x3a,0x0c,0x40,0x76,0x6f,0x6c,0x75,0x6d,0x65,0x69,0x69,0x3a,0x0b,0x40,0x70,0x69,0x74,0x63,0x68,0x69,0x69))
 241(bytes(0x04,0x08,0x6f,0x3a,0x0d,0x52,0x50,0x47,0x3a,0x3a,0x42,0x47,0x4d,0x08,0x3a,0x0a,0x40,0x6e,0x61,0x6d,0x65,0x49,0x22,0x14,0x73,0x63,0x65,0x6e,0x65,0x5f,0x65,0x70,0x69,0x6c,0x6f,0x67,0x75,0x65,0x32,0x06,0x3a,0x06,0x45,0x54,0x3a,0x0c,0x40,0x76,0x6f,0x6c,0x75,0x6d,0x65,0x69,0x69,0x3a,0x0b,0x40,0x70,0x69,0x74,0x63,0x68,0x69,0x69))
 PictureDisplay(5,"80_executioner_st01",0,0,70,-50,70,70,0,0)
 PictureDisplay(6,"80_ogretooth_st01",0,0,-150,80,100,100,0,0)
 PictureDisplay(7,"80_mistilteinn_st01",0,0,280,130,80,80,0,0)
 PictureMove(5,null,0,0,70,-50,70,70,255,0,30,false)
 PictureMove(6,null,0,0,-150,80,100,100,255,0,30,false)
 PictureMove(7,null,0,0,280,130,80,80,255,0,30,true)
 314(0,0)
 ShowMessageFace("mistilteinn_fc1",2,0,2,16)
 ShowMessage("\\n<Mysteltainn>")
 ShowMessage("まさか、私達が負けるとは……")
 ShowMessage("見事な力です。")
 ShowMessageFace("tarsa_fc2",1,0,2,17)
 ShowMessage("\\n<Tarsa>")
 ShowMessage("これでもう、町や村を襲うのは止めてもらうわよ！")
 ShowMessageFace("mistilteinn_fc1",0,0,2,18)
 ShowMessage("\\n<Mysteltainn>")
 ShowMessage("最初から、そのような気はありません……")
 ShowMessage("あれは、「夢の主」への義理のようなもの。")
 ShowMessageFace("executioner_fc1",0,0,2,19)
 ShowMessage("\\n<Executioner>")
 ShowMessage("アタシは、けっこう楽しかったけどね～♪")
 ShowMessageFace("mistilteinn_fc1",0,0,2,20)
 ShowMessage("\\n<Mysteltainn>")
 ShowMessage("私達の目的は、別にあるのです……")
 ShowMessage("この世界で、ある「もの」を探しているのですよ。")
 ShowMessageFace("ruka_fc1",0,0,2,21)
 ShowMessage("\\n<Luka>")
 ShowMessage("ある「もの」って、いったい……？")
 ShowMessageFace("mistilteinn_fc1",0,0,2,22)
 ShowMessage("\\n<Mysteltainn>")
 ShowMessage("それは……天使を殺す方法です。")
 ShowMessageFace("ogretooth_fc1",0,0,2,23)
 ShowMessage("\\n<Ogretooth>")
 ShowMessage("俺達の来た世界では、天使どもとの戦争が迫ってる。")
 ShowMessage("だから、ここで天使を殺す方法を見つけたかったのさ。")
 If(0,4,0)
  ShowMessageFace("alice_fc5",0,0,2,24)
  ShowMessage("\\n<Alice>")
  ShowMessage("天使を殺す方法……か。")
  ShowMessage("それがあれば、もうこの世界を荒らしはしないのだな？")
  0()
 EndIf()
 If(0,5,0)
  ShowMessageFace("iriasu_fc4",7,0,2,25)
  ShowMessage("\\n<Ilias>")
  ShowMessage("天使を殺す方法……")
  ShowMessage("それがあれば、もうこの世界を荒らしはしないのですね？")
  0()
 EndIf()
 ShowMessageFace("mistilteinn_fc1",0,0,2,26)
 ShowMessage("\\n<Mysteltainn>")
 ShowMessage("ええ、約束しましょう。")
 ShowMessage("そうなれば、元の世界に戻る手段を探すだけ……")
 If(0,4,0)
  ShowMessageFace("alice_fc5",2,0,2,27)
  ShowMessage("\\n<Alice>")
  ShowMessage("いいだろう。")
  ShowMessage("天使を殺す方法……我々が探してきてやる。")
  ShowMessageFace("alice_fc5",2,0,2,28)
  ShowMessage("\\n<Alice>")
  ShowMessage("だが、この世界の天使で試すなよ。")
  ShowMessage("余も天使は好きではないが、連中も苦労しているのだ。")
  0()
 EndIf()
 If(0,5,0)
  ShowMessageFace("iriasu_fc4",2,0,2,29)
  ShowMessage("\\n<Ilias>")
  ShowMessage("いいでしょう。")
  ShowMessage("天使を殺す方法……私達が用意します。")
  ShowMessageFace("iriasu_fc4",2,0,2,30)
  ShowMessage("\\n<Ilias>")
  ShowMessage("ですが、この世界の天使で試すのは許しません。")
  ShowMessage("全ての天使は、この私の被造物なのですから……")
  0()
 EndIf()
 ShowMessageFace("executioner_fc1",0,0,2,31)
 ShowMessage("\\n<Executioner>")
 ShowMessage("大丈夫、この世界の天使に恨みはないし。")
 ShowMessage("それじゃあ、お願いね～♪")
 If(8,595)
  JumpToLabel("所持")
  0()
 EndIf()
 PictureClear(5)
 PictureClear(6)
 PictureClear(7)
 ShowMessageFace("",0,0,2,32)
 ShowMessage("魔剣三姉妹のため、天使を殺す方法を探すことになった。")
 ShowMessage("しかし、僕達もそのような手段には心当たりがない――")
 ShowMessageFace("ruka_fc1",0,0,2,33)
 ShowMessage("\\n<Luka>")
 ShowMessage("さあ、どうしよう……？")
 If(0,4,0)
  ShowMessageFace("alice_fc5",0,0,2,34)
  ShowMessage("\\n<Alice>")
  ShowMessage("心当たりがない以上、どうしようもない。")
  ShowMessage("今は、他の同盟者への対処を優先しよう。")
  0()
 EndIf()
 If(0,5,0)
  ShowMessageFace("iriasu_fc4",2,0,2,35)
  ShowMessage("\\n<Ilias>")
  ShowMessage("そう言われても、なかなか難しいですね。")
  ShowMessage("今は、他の同盟者への対処を優先しましょう。")
  0()
 EndIf()
 ShowMessageFace("",0,0,2,36)
 ShowMessage("そういうわけで、この件は後回しだ。")
 ShowMessage("他の同盟者を追っているうちに、良い手が見つかるかもしれない――")
 ChangeVariable(1213,1213,0,0,2)
 241(bytes(0x04,0x08,0x6f,0x3a,0x0d,0x52,0x50,0x47,0x3a,0x3a,0x42,0x47,0x4d,0x08,0x3a,0x0a,0x40,0x6e,0x61,0x6d,0x65,0x49,0x22,0x19,0x64,0x75,0x6e,0x67,0x65,0x6f,0x6e,0x5f,0x73,0x65,0x69,0x72,0x65,0x69,0x6e,0x6f,0x6d,0x6f,0x72,0x69,0x06,0x3a,0x06,0x45,0x54,0x3a,0x0c,0x40,0x76,0x6f,0x6c,0x75,0x6d,0x65,0x69,0x69,0x3a,0x0b,0x40,0x70,0x69,0x74,0x63,0x68,0x69,0x69))
 EndEventProcessing()
 0()
EndIf()
If(1,1213,0,2,0)
 205(21,bytes(0x04,0x08,0x6f,0x3a,0x13,0x52,0x50,0x47,0x3a,0x3a,0x4d,0x6f,0x76,0x65,0x52,0x6f,0x75,0x74,0x65,0x09,0x3a,0x0c,0x40,0x72,0x65,0x70,0x65,0x61,0x74,0x46,0x3a,0x0f,0x40,0x73,0x6b,0x69,0x70,0x70,0x61,0x62,0x6c,0x65,0x46,0x3a,0x0a,0x40,0x77,0x61,0x69,0x74,0x54,0x3a,0x0a,0x40,0x6c,0x69,0x73,0x74,0x5b,0x07,0x6f,0x3a,0x15,0x52,0x50,0x47,0x3a,0x3a,0x4d,0x6f,0x76,0x65,0x43,0x6f,0x6d,0x6d,0x61,0x6e,0x64,0x07,0x3a,0x0a,0x40,0x63,0x6f,0x64,0x65,0x69,0x1e,0x3a,0x10,0x40,0x70,0x61,0x72,0x61,0x6d,0x65,0x74,0x65,0x72,0x73,0x5b,0x00,0x6f,0x3b,0x0a,0x07,0x3b,0x0b,0x69,0x00,0x3b,0x0c,0x5b,0x00))
 205(22,bytes(0x04,0x08,0x6f,0x3a,0x13,0x52,0x50,0x47,0x3a,0x3a,0x4d,0x6f,0x76,0x65,0x52,0x6f,0x75,0x74,0x65,0x09,0x3a,0x0c,0x40,0x72,0x65,0x70,0x65,0x61,0x74,0x46,0x3a,0x0f,0x40,0x73,0x6b,0x69,0x70,0x70,0x61,0x62,0x6c,0x65,0x46,0x3a,0x0a,0x40,0x77,0x61,0x69,0x74,0x54,0x3a,0x0a,0x40,0x6c,0x69,0x73,0x74,0x5b,0x07,0x6f,0x3a,0x15,0x52,0x50,0x47,0x3a,0x3a,0x4d,0x6f,0x76,0x65,0x43,0x6f,0x6d,0x6d,0x61,0x6e,0x64,0x07,0x3a,0x0a,0x40,0x63,0x6f,0x64,0x65,0x69,0x1e,0x3a,0x10,0x40,0x70,0x61,0x72,0x61,0x6d,0x65,0x74,0x65,0x72,0x73,0x5b,0x00,0x6f,0x3b,0x0a,0x07,0x3b,0x0b,0x69,0x00,0x3b,0x0c,0x5b,0x00))
 205(23,bytes(0x04,0x08,0x6f,0x3a,0x13,0x52,0x50,0x47,0x3a,0x3a,0x4d,0x6f,0x76,0x65,0x52,0x6f,0x75,0x74,0x65,0x09,0x3a,0x0c,0x40,0x72,0x65,0x70,0x65,0x61,0x74,0x46,0x3a,0x0f,0x40,0x73,0x6b,0x69,0x70,0x70,0x61,0x62,0x6c,0x65,0x46,0x3a,0x0a,0x40,0x77,0x61,0x69,0x74,0x54,0x3a,0x0a,0x40,0x6c,0x69,0x73,0x74,0x5b,0x07,0x6f,0x3a,0x15,0x52,0x50,0x47,0x3a,0x3a,0x4d,0x6f,0x76,0x65,0x43,0x6f,0x6d,0x6d,0x61,0x6e,0x64,0x07,0x3a,0x0a,0x40,0x63,0x6f,0x64,0x65,0x69,0x1e,0x3a,0x10,0x40,0x70,0x61,0x72,0x61,0x6d,0x65,0x74,0x65,0x72,0x73,0x5b,0x00,0x6f,0x3b,0x0a,0x07,0x3b,0x0b,0x69,0x00,0x3b,0x0c,0x5b,0x00))
 If(8,595)
  DefineLabel("所持")
  ShowMessageFace("",0,0,2,37)
  ShowMessage("そう言えば、打神鞭の破片が手元にある。")
  ShowMessage("武器としては使えないが、この三人なら欲しがるかもしれない――")
  241(bytes(0x04,0x08,0x6f,0x3a,0x0d,0x52,0x50,0x47,0x3a,0x3a,0x42,0x47,0x4d,0x08,0x3a,0x0a,0x40,0x6e,0x61,0x6d,0x65,0x49,0x22,0x14,0x73,0x63,0x65,0x6e,0x65,0x5f,0x65,0x70,0x69,0x6c,0x6f,0x67,0x75,0x65,0x31,0x06,0x3a,0x06,0x45,0x54,0x3a,0x0c,0x40,0x76,0x6f,0x6c,0x75,0x6d,0x65,0x69,0x69,0x3a,0x0b,0x40,0x70,0x69,0x74,0x63,0x68,0x69,0x69))
  PictureDisplay(5,"80_executioner_st02",0,0,70,-50,70,70,0,0)
  PictureDisplay(6,"80_ogretooth_st01",0,0,-150,80,100,100,0,0)
  PictureDisplay(7,"80_mistilteinn_st01",0,0,280,130,80,80,0,0)
  PictureMove(5,null,0,0,70,-50,70,70,255,0,30,false)
  PictureMove(6,null,0,0,-150,80,100,100,255,0,30,false)
  PictureMove(7,null,0,0,280,130,80,80,255,0,30,true)
  If(0,4,0)
   ShowMessageFace("alice_fc5",2,0,2,38)
   ShowMessage("\\n<Alice>")
   ShowMessage("ほれ、これならばどうだ？")
   ShowMessage("天使を滅ぼす力を秘めた宝具――の破片だ。")
   0()
  EndIf()
  If(0,5,0)
   ShowMessageFace("iriasu_fc4",0,0,2,39)
   ShowMessage("\\n<Ilias>")
   ShowMessage("これならどうでしょうか……？")
   ShowMessage("天使を滅ぼす力を秘めた宝具――の破片です。")
   0()
  EndIf()
  ShowMessageFace("mistilteinn_fc1",0,0,2,40)
  ShowMessage("\\n<Mysteltainn>")
  ShowMessage("なるほど、これは――")
  ShowMessage("破片から、禍々しい力を感じます。")
  ShowMessageFace("ogretooth_fc1",2,0,2,41)
  ShowMessage("\\n<Ogretooth>")
  ShowMessage("これは、相当に天使の血を吸いやがったな……")
  ShowMessage("強烈な殺意と怨念にまみれてるぜ。")
  ShowMessageFace("executioner_fc1",1,0,2,42)
  ShowMessage("\\n<Executioner>")
  ShowMessage("これなら、イけるかもね～♪")
  If(0,4,0)
   ShowMessageFace("alice_fc5",2,0,2,43)
   ShowMessage("\\n<Alice>")
   ShowMessage("だが、良いのか……？")
   ShowMessage("おそらく、武器としては使えんぞ。")
   0()
  EndIf()
  If(0,5,0)
   ShowMessageFace("iriasu_fc4",2,0,2,44)
   ShowMessage("\\n<Ilias>")
   ShowMessage("でも、本当に良いのですか……？")
   ShowMessage("おそらく、武器としては使えませんが。")
   0()
  EndIf()
  ShowMessageFace("mistilteinn_fc1",0,0,2,45)
  ShowMessage("\\n<Mysteltainn>")
  ShowMessage("私達は、魔剣の化身……")
  ShowMessage("いかようにも、使い途はあります。")
  250(bytes(0x04,0x08,0x6f,0x3a,0x0c,0x52,0x50,0x47,0x3a,0x3a,0x53,0x45,0x08,0x3a,0x0a,0x40,0x6e,0x61,0x6d,0x65,0x49,0x22,0x0a,0x49,0x74,0x65,0x6d,0x31,0x06,0x3a,0x06,0x45,0x54,0x3a,0x0b,0x40,0x70,0x69,0x74,0x63,0x68,0x69,0x69,0x3a,0x0c,0x40,0x76,0x6f,0x6c,0x75,0x6d,0x65,0x69,0x55))
  ChangeInventory_Item(595,1,0,1)
  ShowMessageFace("",0,0,2,46)
  ShowMessage("打神鞭の破片をミステルテインに渡した！")
  ShowMessageFace("mistilteinn_fc1",0,0,2,47)
  ShowMessage("\\n<Mysteltainn>")
  ShowMessage("……確かに、約束を果たしてくれましたね。")
  ShowMessage("もう、この世界をうろつく必要はありません。")
  ShowMessageFace("ogretooth_fc1",0,0,2,48)
  ShowMessage("\\n<Ogretooth>")
  ShowMessage("後は、元の世界に戻る方法を探すだけだな……")
  If(0,4,0)
   ShowMessageFace("alice_fc5",2,0,2,49)
   ShowMessage("\\n<Alice>")
   ShowMessage("それも、我々が手伝ってやろう。")
   ShowMessage("今は難しいが、いずれ方法は見つかるはずだ。")
   ShowMessageFace("alice_fc5",2,0,2,50)
   ShowMessage("\\n<Alice>")
   ShowMessage("それまで、我々と一緒に行動しないか？")
   ShowMessage("正直、貴様等にウロウロされると困るのだ……")
   0()
  EndIf()
  If(0,5,0)
   ShowMessageFace("iriasu_fc4",0,0,2,51)
   ShowMessage("\\n<Ilias>")
   ShowMessage("それに関しても、我々が手を貸しましょう。")
   ShowMessage("今は難しいですが、遠からず方法は見つかるはずです。")
   ShowMessageFace("iriasu_fc4",0,0,2,52)
   ShowMessage("\\n<Ilias>")
   ShowMessage("それまで、我々と共に行動しませんか？")
   ShowMessage("正直なところ、この世界をウロウロされると困るのです……")
   0()
  EndIf()
  ShowMessageFace("mistilteinn_fc1",0,0,2,53)
  ShowMessage("\\n<Mysteltainn>")
  ShowMessage("ふふ……信用がないのですね。")
  ShowMessage("まあ、それなりに暴れてきたので当然かと。")
  ShowMessageFace("executioner_fc1",1,0,2,54)
  ShowMessage("\\n<Executioner>")
  ShowMessage("養ってくれるのなら、全然オーケーだよ～♪")
  ShowMessageFace("ogretooth_fc1",2,0,2,55)
  ShowMessage("\\n<Ogretooth>")
  ShowMessage("ただし、条件がある。")
  ShowMessage("強い奴と戦り合う時は、俺を呼びな！")
  PictureClear(6)
  PictureClear(7)
  PictureDisplay(5,"80_mistilteinn_st31",0,0,0,0,100,100,255,0)
  ShowMessageFace("mistilteinn_fc1",0,0,2,56)
  ShowMessage("\\n<Mysteltainn>")
  ShowMessage("それでは、今後は仲間として行動しましょう。")
  ShowMessage("ふふふ……よろしく。")
  ChangeVariable(1213,1213,0,0,3)
  PictureClear(5)
  355("add_actor_ex(828)")
  249(bytes(0x04,0x08,0x6f,0x3a,0x0c,0x52,0x50,0x47,0x3a,0x3a,0x4d,0x45,0x08,0x3a,0x0a,0x40,0x6e,0x61,0x6d,0x65,0x49,0x22,0x0c,0x66,0x61,0x6e,0x66,0x61,0x6c,0x65,0x06,0x3a,0x06,0x45,0x54,0x3a,0x0b,0x40,0x70,0x69,0x74,0x63,0x68,0x69,0x69,0x3a,0x0c,0x40,0x76,0x6f,0x6c,0x75,0x6d,0x65,0x69,0x69))
  ShowMessageFace("",0,0,2,57)
  ShowMessage("ミステルテインが仲間に加わった！")
  Wait(60)
  PictureDisplay(5,"80_ogretooth_st01",0,0,0,0,100,100,255,0)
  ShowMessageFace("ogretooth_fc1",0,0,2,58)
  ShowMessage("\\n<Ogretooth>")
  ShowMessage("俺の力、頼りにしな！")
  PictureClear(5)
  355("add_actor_ex(827)")
  249(bytes(0x04,0x08,0x6f,0x3a,0x0c,0x52,0x50,0x47,0x3a,0x3a,0x4d,0x45,0x08,0x3a,0x0a,0x40,0x6e,0x61,0x6d,0x65,0x49,0x22,0x0c,0x66,0x61,0x6e,0x66,0x61,0x6c,0x65,0x06,0x3a,0x06,0x45,0x54,0x3a,0x0b,0x40,0x70,0x69,0x74,0x63,0x68,0x69,0x69,0x3a,0x0c,0x40,0x76,0x6f,0x6c,0x75,0x6d,0x65,0x69,0x69))
  ShowMessageFace("",0,0,2,59)
  ShowMessage("オーガトゥースが仲間に加わった！")
  Wait(60)
  PictureDisplay(5,"80_executioner_st02",0,0,0,0,100,100,255,0)
  ShowMessageFace("executioner_fc1",1,0,2,60)
  ShowMessage("\\n<Executioner>")
  ShowMessage("みんなで、敵を処刑しようね～♪")
  PictureClear(5)
  355("add_actor_ex(826)")
  249(bytes(0x04,0x08,0x6f,0x3a,0x0c,0x52,0x50,0x47,0x3a,0x3a,0x4d,0x45,0x08,0x3a,0x0a,0x40,0x6e,0x61,0x6d,0x65,0x49,0x22,0x0c,0x66,0x61,0x6e,0x66,0x61,0x6c,0x65,0x06,0x3a,0x06,0x45,0x54,0x3a,0x0b,0x40,0x70,0x69,0x74,0x63,0x68,0x69,0x69,0x3a,0x0c,0x40,0x76,0x6f,0x6c,0x75,0x6d,0x65,0x69,0x69))
  ShowMessageFace("",0,0,2,61)
  ShowMessage("エクスキューショナーが仲間に加わった！")
  Wait(60)
  ShowMessageFace("rovissa_fc1",0,0,2,62)
  ShowMessage("\\n<Rovissa>")
  ShowMessage("まさか、この連中と組むなんてね……")
  ShowMessageFace("executioner_fc1",2,0,2,63)
  ShowMessage("\\n<Executioner>")
  ShowMessage("このちびっこ、感じ悪いなぁ。")
  ShowMessageFace("rovissa_fc1",0,0,2,64)
  ShowMessage("\\n<Rovissa>")
  ShowMessage("……ちびっこは、あんたでしょ！")
  If(0,4,0)
   ShowMessageFace("alice_fc5",3,0,2,65)
   ShowMessage("\\n<Alice>")
   ShowMessage("ちびっこ同士、ケンカするな……")
   0()
  EndIf()
  If(0,5,0)
   ShowMessageFace("iriasu_fc4",2,0,2,66)
   ShowMessage("\\n<Ilias>")
   ShowMessage("ちびっこ同士、ケンカしてはいけませんよ。")
   0()
  EndIf()
  ShowMessageFace("rovissa_fc1",0,0,2,67)
  ShowMessage("\\n<Rovissa>")
  ShowMessage("……あんたもちびっこでしょ！")
  ShowMessageFace("mistilteinn_fc1",0,0,2,68)
  ShowMessage("\\n<Mysteltainn>")
  ShowMessage("エクス、仲間内でトラブルは控えなさい。")
  ShowMessage("オーガも……分かっていますね。")
  ShowMessageFace("ogretooth_fc1",0,0,2,69)
  ShowMessage("\\n<Ogretooth>")
  ShowMessage("分かってるさ、姉貴。")
  ShowMessage("味方に喧嘩売りやしないぜ……")
  If(0,4,0)
   ShowMessageFace("alice_fc5",0,0,2,70)
   ShowMessage("\\n<Alice>")
   ShowMessage("まったく、癖の強い連中だ……")
   ShowMessage("何かあった時は頼むぞ、ノビッサ。")
   0()
  EndIf()
  If(0,5,0)
   ShowMessageFace("iriasu_fc4",7,0,2,71)
   ShowMessage("\\n<Ilias>")
   ShowMessage("まったく、癖の強い連中ですね……")
   ShowMessage("ノビッサ、あなたがちゃんと監督するのですよ。")
   0()
  EndIf()
  ShowMessageFace("nobissa_fc1",0,0,2,72)
  ShowMessage("\\n<Novissa>")
  ShowMessage("……………………")
  If(1,1213,0,3,1)
   If(1,1214,0,9,1)
    If(1,1215,0,5,1)
     If(1,1216,0,6,1)
      If(1,1217,0,5,1)
       If(1,1218,0,3,1)
        ShowMessageFace("",0,0,2,73)
        ShowMessage("ともかく、これで世界をうろつく全ての同盟者を仲間にした。")
        ShowMessage("今度こそ本当に、あの一件が全て片付いたのだ――")
        242(1)
        221()
        Wait(60)
        211(0)
        TeleportPlayer(0,950,22,17,0,2)
        222()
        EndEventProcessing()
        0()
       EndIf()
       0()
      EndIf()
      0()
     EndIf()
     0()
    EndIf()
    0()
   EndIf()
   0()
  EndIf()
  ShowMessageFace("",0,0,2,74)
  ShowMessage("ともかく、これでこの一件は片付いた。")
  ShowMessage("他の同盟者達の行方を追うとしよう――")
  241(bytes(0x04,0x08,0x6f,0x3a,0x0d,0x52,0x50,0x47,0x3a,0x3a,0x42,0x47,0x4d,0x08,0x3a,0x0a,0x40,0x6e,0x61,0x6d,0x65,0x49,0x22,0x19,0x64,0x75,0x6e,0x67,0x65,0x6f,0x6e,0x5f,0x73,0x65,0x69,0x72,0x65,0x69,0x6e,0x6f,0x6d,0x6f,0x72,0x69,0x06,0x3a,0x06,0x45,0x54,0x3a,0x0c,0x40,0x76,0x6f,0x6c,0x75,0x6d,0x65,0x69,0x69,0x3a,0x0b,0x40,0x70,0x69,0x74,0x63,0x68,0x69,0x69))
  EndEventProcessing()
  0()
 Else()
  ShowMessageFace("mistilteinn_fc1",0,0,2,75)
  ShowMessage("\\n<Mysteltainn>")
  ShowMessage("私達は、天使を殺す方法を探しています。")
  ShowMessage("何か見付けたなら、持ってきてくれませんか……？")
  ShowMessageFace("ogretooth_fc1",0,0,2,76)
  ShowMessage("\\n<Ogretooth>")
  ShowMessage("俺達の来た世界では、天使どもとの戦争が迫ってる。")
  ShowMessage("だから、ここで天使を殺す方法を見つけたかったのさ。")
  ShowMessageFace("executioner_fc1",1,0,2,77)
  ShowMessage("\\n<Executioner>")
  ShowMessage("見付けてくれたら、サービスしてあげる。")
  ShowMessage("それじゃあ、お願いね～♪")
  ShowMessageFace("",0,0,2,78)
  ShowMessage("しかし今は、この件は後回しだ。")
  ShowMessage("他の同盟者を追っているうちに、良い手が見つかるかもしれない――")
  EndEventProcessing()
  0()
 EndIf()
 0()
EndIf()
0()
