﻿// EVENT 0529
Name "コラボ後日談：ミュゼット"

241(bytes(0x04,0x08,0x6f,0x3a,0x0d,0x52,0x50,0x47,0x3a,0x3a,0x42,0x47,0x4d,0x08,0x3a,0x0a,0x40,0x6e,0x61,0x6d,0x65,0x49,0x22,0x0c,0x62,0x6f,0x73,0x73,0x30,0x2d,0x34,0x06,0x3a,0x06,0x45,0x54,0x3a,0x0c,0x40,0x76,0x6f,0x6c,0x75,0x6d,0x65,0x69,0x69,0x3a,0x0b,0x40,0x70,0x69,0x74,0x63,0x68,0x69,0x69))
205(5,bytes(0x04,0x08,0x6f,0x3a,0x13,0x52,0x50,0x47,0x3a,0x3a,0x4d,0x6f,0x76,0x65,0x52,0x6f,0x75,0x74,0x65,0x09,0x3a,0x0c,0x40,0x72,0x65,0x70,0x65,0x61,0x74,0x46,0x3a,0x0f,0x40,0x73,0x6b,0x69,0x70,0x70,0x61,0x62,0x6c,0x65,0x46,0x3a,0x0a,0x40,0x77,0x61,0x69,0x74,0x54,0x3a,0x0a,0x40,0x6c,0x69,0x73,0x74,0x5b,0x07,0x6f,0x3a,0x15,0x52,0x50,0x47,0x3a,0x3a,0x4d,0x6f,0x76,0x65,0x43,0x6f,0x6d,0x6d,0x61,0x6e,0x64,0x07,0x3a,0x0a,0x40,0x63,0x6f,0x64,0x65,0x69,0x1e,0x3a,0x10,0x40,0x70,0x61,0x72,0x61,0x6d,0x65,0x74,0x65,0x72,0x73,0x5b,0x00,0x6f,0x3b,0x0a,0x07,0x3b,0x0b,0x69,0x00,0x3b,0x0c,0x5b,0x00))
205(6,bytes(0x04,0x08,0x6f,0x3a,0x13,0x52,0x50,0x47,0x3a,0x3a,0x4d,0x6f,0x76,0x65,0x52,0x6f,0x75,0x74,0x65,0x09,0x3a,0x0c,0x40,0x72,0x65,0x70,0x65,0x61,0x74,0x46,0x3a,0x0f,0x40,0x73,0x6b,0x69,0x70,0x70,0x61,0x62,0x6c,0x65,0x46,0x3a,0x0a,0x40,0x77,0x61,0x69,0x74,0x54,0x3a,0x0a,0x40,0x6c,0x69,0x73,0x74,0x5b,0x07,0x6f,0x3a,0x15,0x52,0x50,0x47,0x3a,0x3a,0x4d,0x6f,0x76,0x65,0x43,0x6f,0x6d,0x6d,0x61,0x6e,0x64,0x07,0x3a,0x0a,0x40,0x63,0x6f,0x64,0x65,0x69,0x1e,0x3a,0x10,0x40,0x70,0x61,0x72,0x61,0x6d,0x65,0x74,0x65,0x72,0x73,0x5b,0x00,0x6f,0x3b,0x0a,0x07,0x3b,0x0b,0x69,0x00,0x3b,0x0c,0x5b,0x00))
205(7,bytes(0x04,0x08,0x6f,0x3a,0x13,0x52,0x50,0x47,0x3a,0x3a,0x4d,0x6f,0x76,0x65,0x52,0x6f,0x75,0x74,0x65,0x09,0x3a,0x0c,0x40,0x72,0x65,0x70,0x65,0x61,0x74,0x46,0x3a,0x0f,0x40,0x73,0x6b,0x69,0x70,0x70,0x61,0x62,0x6c,0x65,0x46,0x3a,0x0a,0x40,0x77,0x61,0x69,0x74,0x54,0x3a,0x0a,0x40,0x6c,0x69,0x73,0x74,0x5b,0x07,0x6f,0x3a,0x15,0x52,0x50,0x47,0x3a,0x3a,0x4d,0x6f,0x76,0x65,0x43,0x6f,0x6d,0x6d,0x61,0x6e,0x64,0x07,0x3a,0x0a,0x40,0x63,0x6f,0x64,0x65,0x69,0x1e,0x3a,0x10,0x40,0x70,0x61,0x72,0x61,0x6d,0x65,0x74,0x65,0x72,0x73,0x5b,0x00,0x6f,0x3b,0x0a,0x07,0x3b,0x0b,0x69,0x00,0x3b,0x0c,0x5b,0x00))
PictureDisplay(7,"80_lira_st01",0,0,-200,0,100,100,0,0)
PictureDisplay(6,"80_bell_st01",0,0,200,0,100,100,0,0)
PictureDisplay(5,"80_muzet_st01",0,0,0,0,100,100,0,0)
PictureMove(7,null,0,0,-200,0,100,100,255,0,30,false)
PictureMove(6,null,0,0,200,0,100,100,255,0,30,false)
PictureMove(5,null,0,0,0,0,100,100,255,0,30,true)
ShowMessageFace("rest_fc1",0,0,2,1)
ShowMessage("\\n<Lest>")
ShowMessage("ミュゼット！")
ShowMessage("今度こそ、お縄についてもらうぞ！")
ShowMessageFace("muzet_fc1",0,0,2,2)
ShowMessage("\\n<Musette>")
ShowMessage("ここを嗅ぎつけるなんて……")
ShowMessage("ずいぶん、血眼になって調べ回ったようね。")
ShowMessageFace("bell_fc1",0,0,2,3)
ShowMessage("\\n<Bell>")
ShowMessage("ふふっ……")
ShowMessage("そんなに、私達に弄ばれたいのかしら？")
ShowMessageFace("lira_fc1",0,0,2,4)
ShowMessage("\\n<Lyla>")
ShowMessage("言ってくれれば、めちゃくちゃにしてあげるのに♪")
ShowMessageFace("rest_fc1",0,0,2,5)
ShowMessage("\\n<Lest>")
ShowMessage("そんな言葉には、惑わされないぞ！")
ShowMessage("どうしても、抵抗するというのなら……！")
ShowMessageFace("muzet_fc1",0,0,2,6)
ShowMessage("\\n<Musette>")
ShowMessage("そちらこそ、私達の僕になりなさい。")
ShowMessage("素直に従うなら、たっぷりご褒美をあげるわ……")
ShowMessageFace("ruka_fc1",0,0,2,7)
ShowMessage("\\n<Luka>")
ShowMessage("仕方ない、やるしかないか……！")
ShowMessageFace("muzet_fc1",0,0,2,8)
ShowMessage("\\n<Musette>")
ShowMessage("行くわよ……ベル、リラ。")
ShowMessageFace("bell_fc1",0,0,2,9)
ShowMessage("\\n<Bell>")
ShowMessage("はい、ミュゼット様。")
ShowMessageFace("lira_fc1",0,0,2,10)
ShowMessage("\\n<Lyla>")
ShowMessage("うふふっ、遊んであげるね……♪")
SetBattleBGM(bytes(0x04,0x08,0x6f,0x3a,0x0d,0x52,0x50,0x47,0x3a,0x3a,0x42,0x47,0x4d,0x08,0x3a,0x0a,0x40,0x6e,0x61,0x6d,0x65,0x49,0x22,0x0a,0x62,0x6f,0x73,0x73,0x33,0x06,0x3a,0x06,0x45,0x54,0x3a,0x0c,0x40,0x76,0x6f,0x6c,0x75,0x6d,0x65,0x69,0x69,0x3a,0x0b,0x40,0x70,0x69,0x74,0x63,0x68,0x69,0x69))
Battle(0,1420,false,false)
SetBattleBGM(bytes(0x04,0x08,0x6f,0x3a,0x0d,0x52,0x50,0x47,0x3a,0x3a,0x42,0x47,0x4d,0x08,0x3a,0x0a,0x40,0x6e,0x61,0x6d,0x65,0x49,0x22,0x0b,0x62,0x61,0x74,0x74,0x6c,0x65,0x06,0x3a,0x06,0x45,0x54,0x3a,0x0c,0x40,0x76,0x6f,0x6c,0x75,0x6d,0x65,0x69,0x69,0x3a,0x0b,0x40,0x70,0x69,0x74,0x63,0x68,0x69,0x69))
241(bytes(0x04,0x08,0x6f,0x3a,0x0d,0x52,0x50,0x47,0x3a,0x3a,0x42,0x47,0x4d,0x08,0x3a,0x0a,0x40,0x6e,0x61,0x6d,0x65,0x49,0x22,0x14,0x73,0x63,0x65,0x6e,0x65,0x5f,0x65,0x70,0x69,0x6c,0x6f,0x67,0x75,0x65,0x31,0x06,0x3a,0x06,0x45,0x54,0x3a,0x0c,0x40,0x76,0x6f,0x6c,0x75,0x6d,0x65,0x69,0x69,0x3a,0x0b,0x40,0x70,0x69,0x74,0x63,0x68,0x69,0x69))
314(0,0)
ShowMessageFace("rest_fc1",0,0,2,11)
ShowMessage("\\n<Lest>")
ShowMessage("僕の……そして、みんなの勝利だ！")
ShowMessageFace("muzet_fc1",0,0,2,12)
ShowMessage("\\n<Musette>")
ShowMessage("勝つことよりも、あなた達を操ろうとしたこと……")
ShowMessage("それにこだわりすぎた事が、敗因かもしれないわね。")
ShowMessageFace("bell_fc1",0,0,2,13)
ShowMessage("\\n<Bell>")
ShowMessage("こんな……また負けるなんて……")
ShowMessageFace("lira_fc1",0,0,2,14)
ShowMessage("\\n<Lyla>")
ShowMessage("あたし達、どうなるの～？")
ShowMessageFace("rest_fc1",0,0,2,15)
ShowMessage("\\n<Lest>")
ShowMessage("もちろん、グランドノアに引き渡す！")
ShowMessage("重罪人として、ずっと牢の中だ！")
If(0,1533,0)
 ShowMessageFace("grandnoa_fc1",0,0,2,16)
 ShowMessage("\\n<グランドノア女王>")
 ShowMessage("実は、その事なのですが……")
 0()
Else()
 ShowMessageFace("mefist_fc1",0,0,2,17)
 ShowMessage("\\n<メフィスト>")
 ShowMessage("そのことに関してですが……女王より通信がありました。")
 ShowMessage("今、皆に繋ぎますね。")
 0()
EndIf()
ShowMessageFace("grandnoa_fc1",0,0,2,18)
ShowMessage("\\n<グランドノア女王>")
ShowMessage("その者達を、投獄しておくのは不可能です。")
ShowMessage("我が国の衛兵では、洗脳の力に抗えきれません。")
If(0,4,0)
 ShowMessageFace("alice_fc5",0,0,2,19)
 ShowMessage("\\n<Alice>")
 ShowMessage("確かに……")
 ShowMessage("これほどの者達、人間の牢では繋ぎ止められんか。")
 0()
EndIf()
If(0,5,0)
 ShowMessageFace("iriasu_fc4",2,0,2,20)
 ShowMessage("\\n<Ilias>")
 ShowMessage("確かに……")
 ShowMessage("これほどの者達、人間の牢では繋ぎ止められませんね。")
 0()
EndIf()
ShowMessageFace("grandnoa_fc1",0,0,2,21)
ShowMessage("\\n<グランドノア女王>")
ShowMessage("そこで、あなた達に監視と管理を委託したいのです。")
ShowMessage("その者達を縛れる者は、あなた達以外にいません。")
ShowMessageFace("ruka_fc1",0,0,2,22)
ShowMessage("\\n<Luka>")
ShowMessage("分かりました……")
ShowMessage("ミュゼット達の身柄は、こちらで預かります。")
ShowMessageFace("",0,0,2,23)
ShowMessage("ミュゼットをグランドノアに送るのは、危険すぎる。")
ShowMessage("やはり、僕達が身近に置いて見張るのが得策だろう――")
If(0,4,0)
 ShowMessageFace("alice_fc5",0,0,2,24)
 ShowMessage("\\n<Alice>")
 ShowMessage("さて、お前達の待遇だが……")
 ShowMessage("囚人として拘束するか、もしくは――")
 0()
EndIf()
If(0,5,0)
 ShowMessageFace("iriasu_fc4",7,0,2,25)
 ShowMessage("\\n<Ilias>")
 ShowMessage("さて、貴方達の待遇ですが……")
 ShowMessage("囚人として拘束するか、さもなければ――")
 0()
EndIf()
ShowMessageFace("muzet_fc1",0,0,2,26)
ShowMessage("\\n<Musette>")
ShowMessage("仲間として、戦闘に貢献するか――でしょう。")
If(0,4,0)
 ShowMessageFace("alice_fc5",2,0,2,27)
 ShowMessage("\\n<Alice>")
 ShowMessage("……うむ、その通り。")
 ShowMessage("さあ、どうする？")
 0()
EndIf()
If(0,5,0)
 ShowMessageFace("iriasu_fc4",7,0,2,28)
 ShowMessage("\\n<Ilias>")
 ShowMessage("察しが良いですね……さあ、どうしますか？")
 0()
EndIf()
ShowMessageFace("muzet_fc1",0,0,2,29)
ShowMessage("\\n<Musette>")
ShowMessage("小癪だけれど、受け入れざるを得ないわね。")
ShowMessage("そういうわけで、これから私達は仲間よ。")
ShowMessageFace("bell_fc1",0,0,2,30)
ShowMessage("\\n<Bell>")
ShowMessage("……ミュゼット様の、お言葉のままに。")
ShowMessageFace("lira_fc1",0,0,2,31)
ShowMessage("\\n<Lyla>")
ShowMessage("私達は、ミュゼット様に付き従うだけよ。")
PictureClear(6)
PictureClear(7)
PictureDisplay(5,"80_muzet_st01",0,0,0,0,100,100,255,0)
ShowMessageFace("muzet_fc1",0,0,2,32)
ShowMessage("\\n<Musette>")
ShowMessage("それじゃあ、今後は手を組みましょう……")
ShowMessage("ふふふふっ……")
ChangeVariable(1215,1215,0,0,5)
PictureClear(5)
355("add_actor_ex(822)")
249(bytes(0x04,0x08,0x6f,0x3a,0x0c,0x52,0x50,0x47,0x3a,0x3a,0x4d,0x45,0x08,0x3a,0x0a,0x40,0x6e,0x61,0x6d,0x65,0x49,0x22,0x0c,0x66,0x61,0x6e,0x66,0x61,0x6c,0x65,0x06,0x3a,0x06,0x45,0x54,0x3a,0x0b,0x40,0x70,0x69,0x74,0x63,0x68,0x69,0x69,0x3a,0x0c,0x40,0x76,0x6f,0x6c,0x75,0x6d,0x65,0x69,0x69))
ShowMessageFace("",0,0,2,33)
ShowMessage("ミュゼットが仲間に加わった！")
Wait(60)
PictureDisplay(5,"80_bell_st01",0,0,0,0,100,100,255,0)
ShowMessageFace("bell_fc1",0,0,2,34)
ShowMessage("\\n<Bell>")
ShowMessage("ミュゼット様の命令なら、仕方ないわね……")
ShowMessage("一緒に行ってあげるわ。")
PictureClear(5)
355("add_actor_ex(820)")
249(bytes(0x04,0x08,0x6f,0x3a,0x0c,0x52,0x50,0x47,0x3a,0x3a,0x4d,0x45,0x08,0x3a,0x0a,0x40,0x6e,0x61,0x6d,0x65,0x49,0x22,0x0c,0x66,0x61,0x6e,0x66,0x61,0x6c,0x65,0x06,0x3a,0x06,0x45,0x54,0x3a,0x0b,0x40,0x70,0x69,0x74,0x63,0x68,0x69,0x69,0x3a,0x0c,0x40,0x76,0x6f,0x6c,0x75,0x6d,0x65,0x69,0x69))
ShowMessageFace("",0,0,2,35)
ShowMessage("ベルが仲間に加わった！")
Wait(60)
PictureDisplay(5,"80_lira_st01",0,0,0,0,100,100,255,0)
ShowMessageFace("lira_fc1",0,0,2,36)
ShowMessage("\\n<Lyla>")
ShowMessage("よろしくね、新しい仲間達♪")
PictureClear(5)
355("add_actor_ex(821)")
249(bytes(0x04,0x08,0x6f,0x3a,0x0c,0x52,0x50,0x47,0x3a,0x3a,0x4d,0x45,0x08,0x3a,0x0a,0x40,0x6e,0x61,0x6d,0x65,0x49,0x22,0x0c,0x66,0x61,0x6e,0x66,0x61,0x6c,0x65,0x06,0x3a,0x06,0x45,0x54,0x3a,0x0b,0x40,0x70,0x69,0x74,0x63,0x68,0x69,0x69,0x3a,0x0c,0x40,0x76,0x6f,0x6c,0x75,0x6d,0x65,0x69,0x69))
ShowMessageFace("",0,0,2,37)
ShowMessage("リラが仲間に加わった！")
Wait(60)
ShowMessageFace("rest_fc1",0,0,2,38)
ShowMessage("\\n<Lest>")
ShowMessage("ミュゼット……妙な動きがあれば僕が斬る。")
ShowMessage("常に見張っていることを忘れるな。")
ShowMessageFace("muzet_fc1",0,0,2,39)
ShowMessage("\\n<Musette>")
ShowMessage("そちらこそ……")
ShowMessage("常に、私達に見張られていることを忘れずに。")
If(0,4,0)
 ShowMessageFace("alice_fc5",3,0,2,40)
 ShowMessage("\\n<Alice>")
 ShowMessage("やれやれ、厄介な連中を抱え込んでしまったな。")
 ShowMessage("寝首を掻かれないようにしなければ……")
 0()
EndIf()
If(0,5,0)
 ShowMessageFace("iriasu_fc4",2,0,2,41)
 ShowMessage("\\n<Ilias>")
 ShowMessage("まったく、厄介な連中を抱え込んでしまったものです。")
 ShowMessage("寝首を掻かれないようにしなければなりませんね……")
 0()
EndIf()
If(1,1213,0,3,1)
 If(1,1214,0,9,1)
  If(1,1215,0,5,1)
   If(1,1216,0,6,1)
    If(1,1217,0,5,1)
     If(1,1218,0,3,1)
      ShowMessageFace("",0,0,2,42)
      ShowMessage("ともかく、これで世界をうろつく全ての同盟者を仲間にした。")
      ShowMessage("今度こそ本当に、あの一件が全て片付いたのだ――")
      242(1)
      221()
      Wait(60)
      211(0)
      TeleportPlayer(0,950,22,17,0,2)
      222()
      EndEventProcessing()
      0()
     EndIf()
     0()
    EndIf()
    0()
   EndIf()
   0()
  EndIf()
  0()
 EndIf()
 0()
EndIf()
ShowMessageFace("",0,0,2,43)
ShowMessage("ともかく、これでこの一件は片付いた。")
ShowMessage("他の同盟者達の行方を追うとしよう――")
241(bytes(0x04,0x08,0x6f,0x3a,0x0d,0x52,0x50,0x47,0x3a,0x3a,0x42,0x47,0x4d,0x08,0x3a,0x0a,0x40,0x6e,0x61,0x6d,0x65,0x49,0x22,0x12,0x64,0x75,0x6e,0x67,0x65,0x6f,0x6e,0x5f,0x73,0x69,0x6e,0x70,0x69,0x06,0x3a,0x06,0x45,0x54,0x3a,0x0c,0x40,0x76,0x6f,0x6c,0x75,0x6d,0x65,0x69,0x69,0x3a,0x0b,0x40,0x70,0x69,0x74,0x63,0x68,0x69,0x69))
EndEventProcessing()
0()
