// EVENT 0004
Name "Execute Before Combat"

ChangeSwitch(21,21,1)
ChangeVariable(11,11,0,4,"party_members.size")
If(1,11,0,1,0)
 ChangeSwitch(7,7,0)
 0()
EndIf()
If(1,1202,0,1,1)
 If(1,1202,0,9,2)
  313(0,815,0,462)
  0()
 EndIf()
 0()
EndIf()
If(1,902,0,-2,0)
 If(0,41,1)
  355("all_members_add_state(318)")
  333(-1,0,319)
  0()
 EndIf()
 0()
EndIf()
If(0,61,0)
 355("all_members_add_state(185)")
 250(bytes(0x04,0x08,0x6f,0x3a,0x0c,0x52,0x50,0x47,0x3a,0x3a,0x53,0x45,0x08,0x3a,0x0a,0x40,0x6e,0x61,0x6d,0x65,0x49,0x22,0x0e,0x6d,0x6f,0x6e,0x5f,0x77,0x69,0x6e,0x64,0x31,0x06,0x3a,0x06,0x45,0x54,0x3a,0x0b,0x40,0x70,0x69,0x74,0x63,0x68,0x69,0x69,0x3a,0x0c,0x40,0x76,0x6f,0x6c,0x75,0x6d,0x65,0x69,0x69))
 ShowMessageFace("",0,0,2,1)
 ShowMessage("Sylph imbues the party with the power of the wind!")
 0()
EndIf()
If(0,62,0)
 355("all_members_add_state(186)")
 250(bytes(0x04,0x08,0x6f,0x3a,0x0c,0x52,0x50,0x47,0x3a,0x3a,0x53,0x45,0x08,0x3a,0x0a,0x40,0x6e,0x61,0x6d,0x65,0x49,0x22,0x0f,0x6d,0x6f,0x6e,0x5f,0x65,0x61,0x72,0x74,0x68,0x31,0x06,0x3a,0x06,0x45,0x54,0x3a,0x0b,0x40,0x70,0x69,0x74,0x63,0x68,0x69,0x69,0x3a,0x0c,0x40,0x76,0x6f,0x6c,0x75,0x6d,0x65,0x69,0x69))
 ShowMessageFace("",0,0,2,2)
 ShowMessage("Gnome imbues the party with the power of the earth!")
 0()
EndIf()
If(0,63,0)
 355("all_members_add_state(187)")
 250(bytes(0x04,0x08,0x6f,0x3a,0x0c,0x52,0x50,0x47,0x3a,0x3a,0x53,0x45,0x08,0x3a,0x0a,0x40,0x6e,0x61,0x6d,0x65,0x49,0x22,0x0d,0x6d,0x6f,0x6e,0x5f,0x61,0x71,0x75,0x61,0x06,0x3a,0x06,0x45,0x54,0x3a,0x0b,0x40,0x70,0x69,0x74,0x63,0x68,0x69,0x69,0x3a,0x0c,0x40,0x76,0x6f,0x6c,0x75,0x6d,0x65,0x69,0x69))
 ShowMessageFace("",0,0,2,3)
 ShowMessage("Undine imbues the party with the power of water!")
 0()
EndIf()
If(0,64,0)
 355("all_members_add_state(188)")
 250(bytes(0x04,0x08,0x6f,0x3a,0x0c,0x52,0x50,0x47,0x3a,0x3a,0x53,0x45,0x08,0x3a,0x0a,0x40,0x6e,0x61,0x6d,0x65,0x49,0x22,0x0e,0x6d,0x6f,0x6e,0x5f,0x66,0x69,0x72,0x65,0x32,0x06,0x3a,0x06,0x45,0x54,0x3a,0x0b,0x40,0x70,0x69,0x74,0x63,0x68,0x69,0x69,0x3a,0x0c,0x40,0x76,0x6f,0x6c,0x75,0x6d,0x65,0x69,0x69))
 ShowMessageFace("",0,0,2,4)
 ShowMessage("Salamander imbues the party with the power of fire!")
 0()
EndIf()
If(0,65,0)
 355("all_members_add_state(137)")
 0()
EndIf()
If(0,66,0)
 355("all_members_add_state(326)")
 0()
EndIf()
If(0,67,0)
 355("all_members_add_state(327)")
 0()
EndIf()
If(0,68,0)
 355("all_members_add_state(328)")
 0()
EndIf()
If(0,69,0)
 355("all_members_add_state(151)")
 0()
EndIf()
If(0,70,0)
 355("all_members_add_state(329)")
 0()
EndIf()
If(0,71,0)
 355("all_members_add_state(330)")
 0()
EndIf()
If(0,72,0)
 313(0,0,0,234)
 ShowMessageFace("",0,0,2,5)
 ShowMessage("The Minotauros's beef bowl restored the party's strength!")
 0()
EndIf()
If(0,427,0)
 313(0,1,0,239)
 0()
EndIf()
If(0,428,0)
 355("all_members_add_state(378)")
 0()
EndIf()
If(0,429,0)
 355("all_members_add_state(379)")
 0()
EndIf()
If(0,430,0)
 355("all_members_add_state(380)")
 0()
EndIf()
If(0,431,0)
 355("all_members_add_state(381)")
 0()
EndIf()
If(0,432,0)
 355("all_members_add_state(382)")
 0()
EndIf()
If(0,433,0)
 355("all_members_add_state(383)")
 0()
EndIf()
If(0,434,0)
 355("all_members_add_state(384)")
 0()
EndIf()
If(0,435,0)
 355("all_members_add_state(385)")
 0()
EndIf()
If(0,436,0)
 355("all_members_add_state(386)")
 0()
EndIf()
If(0,437,0)
 355("all_members_add_state(387)")
 0()
EndIf()
If(0,438,0)
 355("all_members_add_state(388)")
 0()
EndIf()
If(0,439,0)
 355("all_members_add_state(389)")
 0()
EndIf()
If(0,440,0)
 355("all_members_add_state(390)")
 0()
EndIf()
If(0,441,0)
 355("all_members_add_state(391)")
 0()
EndIf()
If(0,2333,0)
 If(1,149,0,2000,1)
  If(1,149,0,4999,2)
   333(0,0,406)
   333(1,0,406)
   333(2,0,406)
   333(3,0,406)
   EndEventProcessing()
   0()
  EndIf()
  0()
 EndIf()
 If(1,149,0,5000,1)
  If(1,149,0,19999,2)
   333(0,0,407)
   333(1,0,407)
   333(2,0,407)
   333(3,0,407)
   EndEventProcessing()
   0()
  EndIf()
  0()
 EndIf()
 If(1,149,0,20000,1)
  333(0,0,407)
  333(1,0,407)
  333(2,0,407)
  333(3,0,407)
  EndEventProcessing()
  0()
 EndIf()
 0()
EndIf()
If(0,41,0)
 If(1,149,0,1000,1)
  If(1,149,0,1999,2)
   ChangeVariable(15,15,0,2,1,100)
   If(1,14,0,75,2)
    333(0,0,409)
    0()
   EndIf()
   ChangeVariable(15,15,0,2,1,100)
   If(1,14,0,75,2)
    333(1,0,409)
    0()
   EndIf()
   ChangeVariable(15,15,0,2,1,100)
   If(1,14,0,75,2)
    333(2,0,409)
    0()
   EndIf()
   ChangeVariable(15,15,0,2,1,100)
   If(1,14,0,75,2)
    333(3,0,409)
    0()
   EndIf()
   EndEventProcessing()
   0()
  EndIf()
  0()
 EndIf()
 If(1,149,0,2000,1)
  If(1,149,0,4999,2)
   ChangeVariable(14,14,0,2,1,100)
   ChangeVariable(15,15,0,2,1,100)
   If(1,14,0,50,2)
    333(0,0,406)
    0()
   EndIf()
   If(1,14,0,75,2)
    333(0,0,410)
    0()
   EndIf()
   ChangeVariable(14,14,0,2,1,100)
   ChangeVariable(15,15,0,2,1,100)
   If(1,14,0,50,2)
    333(1,0,406)
    0()
   EndIf()
   If(1,14,0,75,2)
    333(1,0,410)
    0()
   EndIf()
   ChangeVariable(14,14,0,2,1,100)
   ChangeVariable(15,15,0,2,1,100)
   If(1,14,0,50,2)
    333(2,0,406)
    0()
   EndIf()
   If(1,14,0,75,2)
    333(2,0,410)
    0()
   EndIf()
   ChangeVariable(14,14,0,2,1,100)
   ChangeVariable(15,15,0,2,1,100)
   If(1,14,0,50,2)
    333(3,0,406)
    0()
   EndIf()
   If(1,14,0,75,2)
    333(3,0,410)
    0()
   EndIf()
   EndEventProcessing()
   0()
  EndIf()
  0()
 EndIf()
 If(1,149,0,5000,1)
  If(1,149,0,19999,2)
   ChangeVariable(14,14,0,2,1,100)
   ChangeVariable(15,15,0,2,1,100)
   If(1,14,0,50,2)
    333(0,0,407)
    0()
   EndIf()
   If(1,14,0,75,2)
    333(0,0,411)
    0()
   EndIf()
   ChangeVariable(14,14,0,2,1,100)
   ChangeVariable(15,15,0,2,1,100)
   If(1,14,0,50,2)
    333(1,0,407)
    0()
   EndIf()
   If(1,14,0,75,2)
    333(1,0,411)
    0()
   EndIf()
   ChangeVariable(14,14,0,2,1,100)
   ChangeVariable(15,15,0,2,1,100)
   If(1,14,0,50,2)
    333(2,0,407)
    0()
   EndIf()
   If(1,14,0,75,2)
    333(2,0,411)
    0()
   EndIf()
   ChangeVariable(14,14,0,2,1,100)
   ChangeVariable(15,15,0,2,1,100)
   If(1,14,0,50,2)
    333(3,0,407)
    0()
   EndIf()
   If(1,14,0,75,2)
    333(3,0,411)
    0()
   EndIf()
   EndEventProcessing()
   0()
  EndIf()
  0()
 EndIf()
 If(1,149,0,20000,1)
  ChangeVariable(14,14,0,2,1,100)
  ChangeVariable(15,15,0,2,1,100)
  If(1,14,0,50,2)
   333(0,0,408)
   0()
  EndIf()
  If(1,14,0,80,2)
   333(0,0,411)
   0()
  EndIf()
  ChangeVariable(14,14,0,2,1,100)
  ChangeVariable(15,15,0,2,1,100)
  If(1,14,0,50,2)
   333(1,0,408)
   0()
  EndIf()
  If(1,14,0,80,2)
   333(1,0,411)
   0()
  EndIf()
  ChangeVariable(14,14,0,2,1,100)
  ChangeVariable(15,15,0,2,1,100)
  If(1,14,0,50,2)
   333(2,0,408)
   0()
  EndIf()
  If(1,14,0,80,2)
   333(2,0,411)
   0()
  EndIf()
  ChangeVariable(14,14,0,2,1,100)
  ChangeVariable(15,15,0,2,1,100)
  If(1,14,0,50,2)
   333(3,0,408)
   0()
  EndIf()
  If(1,14,0,80,2)
   333(3,0,411)
   0()
  EndIf()
  EndEventProcessing()
  0()
 EndIf()
 0()
EndIf()
If(4,810,0)
 If(4,810,5,348)
  355("all_members_add_state(466)")
  0()
 EndIf()
 0()
EndIf()
0()
