// EVENT 7045
Name "Buny: Defeat"

RunCommonEvent(7000)
PictureClear(6)
ShowMessageFace("mob_bunny1_fc1",0,0,2,1)
ShowMessage("\\n<Bunny-chan>That'll be 50G, please. ♪\nBecause you came, of course. ♪")
125(1,0,50)
ShowMessageFace("",0,0,2,2)
ShowMessage("Luka handed over 50G.")
ShowMessageFace("mob_bunny1_fc1",0,0,2,3)
ShowMessage("\\n<Bunny-chan>Ahaha, thank you for your patronage. ♪\nSee you next time. ♪")
If(0,2331,1)
 PictureClear(5)
 281(1)
 TeleportPlayer(0,52,39,52,2,0)
 216(0)
 0()
EndIf()
EndEventProcessing()
0()
