// EVENT 4506
Name "Bandersnatch Girl 1"

If(0,25,1)
 221()
 PictureClear(5)
 PictureClear(6)
 ShowMessageFace("",0,0,2,0)
 ShowMessage("......")
 242(2)
 Wait(120)
 241(bytes(0x04,0x08,0x6f,0x3a,0x0d,0x52,0x50,0x47,0x3a,0x3a,0x42,0x47,0x4d,0x08,0x3a,0x0a,0x40,0x6e,0x61,0x6d,0x65,0x49,0x22,0x0c,0x63,0x61,0x73,0x74,0x6c,0x65,0x36,0x06,0x3a,0x06,0x45,0x54,0x3a,0x0c,0x40,0x76,0x6f,0x6c,0x75,0x6d,0x65,0x69,0x69,0x3a,0x0b,0x40,0x70,0x69,0x74,0x63,0x68,0x69,0x69))
 EndEventProcessing()
 0()
EndIf()
PictureDisplay(5,"80_bander_st01",0,0,0,0,100,100,255,0)
ShowMessageFace("bander_fc1",0,0,2,1)
ShowMessage("\\n<Banachi>You want me to squeeze out your semen...?\nAre you serious...?")
ShowMessageFace("",0,0,2,2)
ShowMessage("\\n<Luka>P-please...")
PictureDisplay(5,"80_bander_st02",0,0,0,0,100,100,255,0)
ShowMessageFace("bander_fc1",1,0,2,3)
ShowMessage("\\n<Banachi>Don't regret those words...\nI'll do as you requested.")
ShowMessageFace("bander_fc1",1,0,2,4)
ShowMessage("\\n<Banachi>I'm a magical being who requires the life energy of prey...\nI'll squeeze the life energy from your body.")
ShowMessageFace("",0,0,2,5)
ShowMessage("\\n<Luka>Wh-What do you mean by squeeze life energy?")
ShowMessageFace("",0,0,2,6)
ShowMessage("I feel a slight threat from those words.")
ShowMessage("Ignoring my question, her huge arm reaches out toward me.")
241(bytes(0x04,0x08,0x6f,0x3a,0x0d,0x52,0x50,0x47,0x3a,0x3a,0x42,0x47,0x4d,0x08,0x3a,0x0a,0x40,0x6e,0x61,0x6d,0x65,0x49,0x22,0x09,0x65,0x72,0x6f,0x31,0x06,0x3a,0x06,0x45,0x54,0x3a,0x0c,0x40,0x76,0x6f,0x6c,0x75,0x6d,0x65,0x69,0x69,0x3a,0x0b,0x40,0x70,0x69,0x74,0x63,0x68,0x69,0x69))
PictureDisplay(5,"ev_bander_ha1",0,0,0,0,100,100,0,0)
PictureMove(5,null,0,0,0,0,100,100,255,0,30,true)
ShowMessageFace("",0,0,2,7)
ShowMessage("Banachi grabs hold of me, and presses me against her.")
ShowMessage("My whole upper body is caught underneath her huge breasts.")
ShowMessageFace("",0,0,2,8)
ShowMessage("I weakly sigh as this soft feeling presses down on me.")
ShowMessage("It feels surprisingly good to be held by Banachi...")
ShowMessageFace("bander_fc1",1,0,2,9)
ShowMessage("\\n<Banachi>Are you already erect...?\nThere's no reproductive act that's going to happen, though...")
ShowMessageFace("",0,0,2,10)
ShowMessage("Her huge arm closes around my lower body.")
ShowMessage("Her giant fingers press against my penis!")
ShowMessageFace("",0,0,2,11)
ShowMessage("\\n<Luka>Aaah...!")
ShowMessageFace("",0,0,2,12)
ShowMessage("Her fingers are softer than they look.")
ShowMessage("As they press against my penis, I can't help but let out a moan.")
ShowMessageFace("",0,0,2,13)
ShowMessage("But there's a strange feeling aside from her touch.")
ShowMessage("It's like something sweet and numbing is touching me...")
ShowMessageFace("",0,0,2,14)
ShowMessage("\\n<Luka>What... Is this... Aaah...")
PictureDisplay(6,"ev_bander_ct01",0,0,0,0,100,100,255,0)
ShowMessageFace("",0,0,2,15)
ShowMessage("My face and upper body are pressed against her large breast.")
ShowMessage("At the same time, my penis is held firmly between her fingers...")
ShowMessageFace("",0,0,2,16)
ShowMessage("Everywhere her arm touches feels sweet and numb.")
ShowMessage("The weakness and ecstasy mix together, filling my body.")
ShowMessageFace("",0,0,2,17)
ShowMessage("\\n<Luka>M-My strength... Nnngh...")
ShowMessageFace("bander_fc1",1,0,2,18)
ShowMessage("\\n<Banachi>I'm a magical being who requires the life energy of prey...\nI can take your energy just by touching you like this.")
ShowMessageFace("bander_fc1",1,0,2,19)
ShowMessage("\\n<Banachi>But the quickest way...")
245(bytes(0x04,0x08,0x6f,0x3a,0x0d,0x52,0x50,0x47,0x3a,0x3a,0x42,0x47,0x53,0x08,0x3a,0x0a,0x40,0x6e,0x61,0x6d,0x65,0x49,0x22,0x17,0x6d,0x6f,0x6e,0x5f,0x68,0x73,0x65,0x61,0x6e,0x31,0x37,0x5f,0x73,0x69,0x67,0x6f,0x6b,0x69,0x06,0x3a,0x06,0x45,0x54,0x3a,0x0c,0x40,0x76,0x6f,0x6c,0x75,0x6d,0x65,0x69,0x55,0x3a,0x0b,0x40,0x70,0x69,0x74,0x63,0x68,0x69,0x69))
ShowMessageFace("",0,0,2,20)
ShowMessage("\\n<Luka>Nnngh...")
ShowMessageFace("",0,0,2,21)
ShowMessage("Banachi starts to move her fingers.")
ShowMessage("Squeezing, moving, she carefully stimulates me.")
ShowMessageFace("bander_fc1",1,0,2,22)
ShowMessage("\\n<Banachi>Lead my prey to ejaculation like this...\nConvert their life energy into semen, and squeeze it out...")
ShowMessageFace("",0,0,2,23)
ShowMessage("\\n<Luka>N-no...! Don't...")
ShowMessageFace("",0,0,2,24)
ShowMessage("If I come, she'll steal my energy.")
ShowMessage("In other words, it will slowly kill me.")
ShowMessageFace("",0,0,2,25)
ShowMessage("I absolutely can't ejaculate.")
ShowMessage("I clench my stomach, trying to hold back any desire to come.")
ShowMessageFace("bander_fc1",1,0,2,26)
ShowMessage("\\n<Banachi>Are you trying to hold back...?\nThat's useless...")
ShowMessageFace("bander_fc1",1,0,2,27)
ShowMessage("\\n<Banachi>There's no escape for you anymore...\nYou'll be just like all the other men I've squeezed dry...")
ShowMessageFace("",0,0,2,28)
ShowMessage("\\n<Luka>N-nnngh...")
ShowMessageFace("",0,0,2,29)
ShowMessage("Despite how large they are, her fingers are dexterous.")
ShowMessage("Her soft fingers skillfully rub and squeeze me with incredible speed.")
ShowMessageFace("",0,0,2,30)
ShowMessage("At the same time, that numbing feeling is spreading through more of me.")
ShowMessage("I feel myself slowly losing this battle of will.")
ShowMessageFace("",0,0,2,31)
ShowMessage("\\n<Luka>Aaah...")
PictureDisplay(5,"ev_bander_ha2",0,0,0,0,100,100,255,0)
ShowMessageFace("",0,0,2,32)
ShowMessage("Then... Precome starts to leak from my penis.")
ShowMessage("This sweet pleasure is driving me to the edge.")
ShowMessageFace("bander_fc1",1,0,2,33)
ShowMessage("\\n<Banachi>It's almost time...\nYou should just resign yourself to it, and finish...")
ShowMessageFace("",0,0,2,34)
ShowMessage("\\n<Luka>No... I can't...")
ShowMessageFace("",0,0,2,35)
ShowMessage("I feebly shake my head, trying to break free...")
ShowMessage("But she's too strong, and she just presses my face back against her breast to stop me.")
ShowMessageFace("",0,0,2,36)
ShowMessage("The numbing ecstasy spreads to my head, too.")
ShowMessage("It's as if the sweet ecstasy is taking over my mind.")
ShowMessageFace("",0,0,2,37)
ShowMessage("\\n<Luka>Ah... Ugh...")
ShowMessageFace("",0,0,2,38)
ShowMessage("I try to fight through the fog of ecstasy and reclaim my senses.")
ShowMessage("If I come here, I'll die...")
ShowMessageFace("",0,0,2,39)
ShowMessage("\\n<Luka>I-I can't... I don't want to come...")
ShowMessageFace("bander_fc1",1,0,2,40)
ShowMessage("\\n<Banachi>No matter how you try to resist, it's useless...\nYour sexual organ is at its limit.")
ShowMessageFace("",0,0,2,41)
ShowMessage("My penis is trembling in her caress.")
ShowMessage("With this sweet feeling filling me, there's no way I can resist.")
ShowMessageFace("",0,0,2,42)
ShowMessage("If I come, it's the end.")
ShowMessage("But sadly, my male instinct is wanting nothing more than to release.")
ShowMessageFace("",0,0,2,43)
ShowMessage("\\n<Luka>Nooo... No......")
ShowMessageFace("",0,0,2,44)
ShowMessage("Even if I struggle, her embrace just gets tighter.")
ShowMessage("Pressing her breast to my face, it's like she's trying to pacify me.")
ShowMessageFace("",0,0,2,45)
ShowMessage("But even this soft breast is just to make me prey.")
ShowMessage("She's going to drain my life in this soft embrace...")
ShowMessageFace("bander_fc1",1,0,2,46)
ShowMessage("\\n<Banachi>This is the end...\nNow finish...")
ShowMessageFace("",0,0,2,47)
ShowMessage("\\n<Luka>D-don't... Aaah...")
ShowMessageFace("",0,0,2,48)
ShowMessage("Her fingers rub against me even harder.")
ShowMessage("Moving up and down, they bring me to the very edge,")
ShowMessageFace("",0,0,2,49)
ShowMessage("I can't hold back any longer.")
ShowMessage("At last, my penis starts to tremble as I give up.")
RunCommonEvent(104)
PictureDisplay(5,"ev_bander_ha3",0,0,0,0,100,100,255,0)
RunCommonEvent(105)
ShowMessageFace("",0,0,2,50)
ShowMessage("\\n<Luka>Aaaaah...")
ShowMessageFace("",0,0,2,51)
ShowMessage("With my face buried in her breast, I come.")
ShowMessage("I can feel my penis tremble between her fingers, spurting my semen into the air.")
ShowMessageFace("",0,0,2,52)
ShowMessage("It feels like my life itself is shooting away.")
ShowMessage("It's accompanied by a catastrophic pleasure...")
ShowMessageFace("bander_fc1",1,0,2,53)
ShowMessage("\\n<Banachi>Good, come as much as you can...\nTo the very last drop.")
ShowMessageFace("",0,0,2,54)
ShowMessage("\\n<Luka>Nnngh...")
PictureDisplay(5,"ev_bander_ha4",0,0,0,0,100,100,255,0)
ShowMessageFace("",0,0,2,55)
ShowMessage("Her huge finger continues to rub against my penis.")
ShowMessage("She's deftly drawing out every last drop of semen from me.")
ShowMessageFace("",0,0,2,56)
ShowMessage("The more she rubs me, the more my semen spurts out.")
ShowMessage("It's like an endless ejaculation, with my semen spurting out every second.")
ShowMessageFace("",0,0,2,57)
ShowMessage("\\n<Luka>Aaah... It won't stop...")
ShowMessageFace("bander_fc1",1,0,2,58)
ShowMessage("\\n<Banachi>I'm converting your life energy into semen, and extracting it...\nWhen your ejaculation ends, you'll be drained...")
ShowMessageFace("",0,0,2,59)
ShowMessage("This orgasm is continuing because she's draining my energy.")
ShowMessage("It's not a normal ejaculation, my life itself is shooting away.")
ShowMessageFace("",0,0,2,60)
ShowMessage("Spurt after spurt, my strength is fading.")
ShowMessage("The sweet feeling dominates my body as I tremble in her embrace.")
ShowMessageFace("",0,0,2,61)
ShowMessage("\\n<Luka>Th-that feels so good...")
ShowMessageFace("",0,0,2,62)
ShowMessage("I'm drowning in this pleasure.")
ShowMessage("Paying with my life, this endless orgasm is like heaven.")
ShowMessageFace("",0,0,2,63)
ShowMessage("I bury my face in her breasts, and soak in the ecstasy.")
ShowMessage("My life will be drained away like this...")
ShowMessageFace("bander_fc1",1,0,2,64)
ShowMessage("\\n<Banachi>Have you lost your sanity...?\nI'll let you fade away in my embrace...")
ShowMessageFace("",0,0,2,65)
ShowMessage("She hugs me even tighter.")
ShowMessage("Burying my head in her soft breasts, I feel euphoria.")
ShowMessageFace("",0,0,2,66)
ShowMessage("\\n<Luka>Ah...ah...")
ShowMessageFace("",0,0,2,67)
ShowMessage("This endless orgasm-")
ShowMessage("After a while, the amount of semen in each spurt thins out.")
ShowMessageFace("",0,0,2,68)
ShowMessage("My life energy is almost empty.")
ShowMessage("The end of my life...")
ShowMessageFace("",0,0,2,69)
ShowMessage("My life itself is being stolen by her.")
ShowMessage("But it feels amazing, right to the end.")
246(2)
ShowMessageFace("",0,0,2,70)
ShowMessage("\\n<Luka>.....A.....")
ShowMessageFace("",0,0,2,71)
ShowMessage("I slowly lose consciousness, unable to move.")
ShowMessage("To my last breath, she holds me in her tight embrace.")
ShowMessageFace("bander_fc1",1,0,2,72)
ShowMessage("\\n<Banachi>It's over.\nI took everything away.")
ShowMessageFace("",0,0,2,73)
ShowMessage("With a final squeeze, the Bandersnatch milks out the last drop.")
ShowMessage("At the same time, Luka fades away.")
221()
PictureClear(5)
ShowMessageFace("",0,0,2,74)
ShowMessage("......")
242(2)
Wait(120)
ChangeVariable(1002,1002,0,0,0)
216(1)
355("forced_transfer(154,18,52)")
355("release_temp_actors")
355("$game_map.screen.clear")
0()
