
DisplayName "Grand Noah Palace 2F"



EVENT   1
 PAGE   1
  250(bytes(0x04,0x08,0x6f,0x3a,0x0c,0x52,0x50,0x47,0x3a,0x3a,0x53,0x45,0x08,0x3a,0x0a,0x40,0x6e,0x61,0x6d,0x65,0x49,0x22,0x09,0x4d,0x6f,0x76,0x65,0x06,0x3a,0x06,0x45,0x54,0x3a,0x0b,0x40,0x70,0x69,0x74,0x63,0x68,0x69,0x69,0x3a,0x0c,0x40,0x76,0x6f,0x6c,0x75,0x6d,0x65,0x69,0x55))
  TeleportPlayer(0,382,39,12,0,0)
  0()



EVENT   2
 PAGE   1
  250(bytes(0x04,0x08,0x6f,0x3a,0x0c,0x52,0x50,0x47,0x3a,0x3a,0x53,0x45,0x08,0x3a,0x0a,0x40,0x6e,0x61,0x6d,0x65,0x49,0x22,0x09,0x4d,0x6f,0x76,0x65,0x06,0x3a,0x06,0x45,0x54,0x3a,0x0b,0x40,0x70,0x69,0x74,0x63,0x68,0x69,0x69,0x3a,0x0c,0x40,0x76,0x6f,0x6c,0x75,0x6d,0x65,0x69,0x55))
  TeleportPlayer(0,382,39,12,0,0)
  0()



EVENT   3
 PAGE   1
  250(bytes(0x04,0x08,0x6f,0x3a,0x0c,0x52,0x50,0x47,0x3a,0x3a,0x53,0x45,0x08,0x3a,0x0a,0x40,0x6e,0x61,0x6d,0x65,0x49,0x22,0x09,0x4d,0x6f,0x76,0x65,0x06,0x3a,0x06,0x45,0x54,0x3a,0x0b,0x40,0x70,0x69,0x74,0x63,0x68,0x69,0x69,0x3a,0x0c,0x40,0x76,0x6f,0x6c,0x75,0x6d,0x65,0x69,0x55))
  TeleportPlayer(0,382,39,12,0,0)
  0()



EVENT   4
 PAGE   1
  If(1,1215,0,1,0)
   PictureDisplay(5,"80_grandnoa_st01",0,0,0,0,100,100,0,0)
   PictureMove(5,null,0,0,0,0,100,100,255,0,30,true)
   ShowMessageFace("grandnoa_fc1",0,0,2,1)
   ShowMessage("\\n<Queen of Grand Noah>すでに御存知でしょうが……")
   ShowMessage("ミュゼット達三名は、重罪人として手配されました。")
   ShowMessageFace("grandnoa_fc1",0,0,2,2)
   ShowMessage("\\n<Queen of Grand Noah>手配書を全国に配布し、懸賞金を用意しましたが……")
   ShowMessage("相手の強さから考えて、捕獲は期待できないでしょう。")
   If(0,4,0)
    ShowMessageFace("alice_fc5",0,0,2,3)
    ShowMessage("\\n<Alice>そうだな、同感だ……")
    0()
   EndIf()
   If(0,5,0)
    ShowMessageFace("iriasu_fc4",2,0,2,4)
    ShowMessage("\\n<Ilias>ええ、同感です……")
    0()
   EndIf()
   ShowMessageFace("",0,0,2,5)
   ShowMessage("ミュゼット達を捕獲できるような強者がいるとは思えない。")
   ShowMessage("迂闊に近付くだけでも危険だろう。")
   ShowMessageFace("",0,0,2,6)
   ShowMessage("すなわち、手配書は情報集めのためだけのもの。")
   ShowMessage("だが、まだ有力な情報は上がっていないらしい……")
   ShowMessageFace("sonia_fc2",2,0,2,7)
   ShowMessage("\\n<Sonya>あの三人が、どこかに潜伏するとしたら……")
   ShowMessage("もしかして、グランドノアにいるんじゃない？")
   ShowMessageFace("sonia_fc2",2,0,2,8)
   ShowMessage("\\n<Sonya>だって、犯罪者は犯行現場に戻るって言うし……")
   If(0,4,0)
    ShowMessageFace("alice_fc5",0,0,2,9)
    ShowMessage("\\n<Alice>……ドアホか。")
    0()
   EndIf()
   If(0,5,0)
    ShowMessageFace("iriasu_fc4",2,0,2,10)
    ShowMessage("\\n<Ilias>相変わらず、頭の中まで筋肉ですね。")
    0()
   EndIf()
   ShowMessageFace("mefist_fc1",0,0,2,11)
   ShowMessage("\\n<Mephisto>別の誰かに化けるとしても、ずっと化けていては疲れます。")
   ShowMessage("普段から変化を続けるような状況は避けたいでしょう。")
   ShowMessageFace("mefist_fc1",0,0,2,12)
   ShowMessage("\\n<Mephisto>あの者達の姿で、どこに溶け込めるかというと……")
   ShowMessage("……スノウヘブンではないでしょうか。")
   ShowMessageFace("ruka_fc1",0,0,2,13)
   ShowMessage("\\n<Luka>A town of angels...!")
   ShowMessageFace("",0,0,2,14)
   ShowMessage("Musettes isn't exactly an angel...\nBut with an appearance like that, she could be mistaken for such.")
   If(0,4,0)
    ShowMessageFace("alice_fc5",2,0,2,15)
    ShowMessage("\\n<Alice>All right, let's head to Snow Heaven!")
    0()
   EndIf()
   If(0,5,0)
    ShowMessageFace("iriasu_fc4",7,0,2,16)
    ShowMessage("\\n<Ilias>さっそく、スノウヘブンに行きましょう！")
    0()
   EndIf()
   ShowMessageFace("grandnoa_fc1",0,0,2,17)
   ShowMessage("\\n<Queen of Grand Noah>また……謎の退魔師の情報がありました。")
   ShowMessage("ミュゼット討伐の依頼を受け、旅立ったそうです。")
   ShowMessageFace("grandnoa_fc1",0,0,2,18)
   ShowMessage("\\n<Queen of Grand Noah>その退魔師の姿は、緑っぽい子供だったとか……")
   ShowMessage("あなた達が探している人物と、特徴が酷似しています。")
   ShowMessageFace("byakunen_fc2",4,0,2,19)
   ShowMessage("\\n<Hakunen>まさか……大明海様！？")
   ShowMessageFace("magatu_fc1",2,0,2,20)
   ShowMessage("\\n<Magatsu>おそらく、間違いあるまい。")
   ShowMessage("奴め、姿をくらましたと思えば……")
   If(0,4,0)
    ShowMessageFace("alice_fc5",0,0,2,21)
    ShowMessage("\\n<Alice>大明海も、ミュゼット達を追っていたという事か。")
    ShowMessage("話を聞く限り、奴も騒動の種になりかねんな……")
    0()
   EndIf()
   If(0,5,0)
    ShowMessageFace("iriasu_fc4",2,0,2,22)
    ShowMessage("\\n<Ilias>大明海も、ミュゼット達を追っていたという事ですね。")
    ShowMessage("余計な騒動にならなければ良いのですが……")
    0()
   EndIf()
   ShowMessageFace(binary"",0,0,2,23)
   ShowMessage("どこかに潜伏しているというミュゼット達。")
   ShowMessage("そして、それを追う大明海……")
   ShowMessageFace(binary"",0,0,2,24)
   ShowMessage("なかなか、事態は面倒な事になりそうだ。")
   ShowMessage("とりあえず、スノウヘブンに行ってみよう。")
   ChangeVariable(1215,1215,0,0,2)
   PictureClear(5)
   EndEventProcessing()
   0()
  EndIf()
  If(1,1001,0,25,2)
   If(1,1052,0,1,0)
    ChangeVariable(1052,1052,0,0,2)
    217()
    PictureDisplay(5,"80_grandnoa_st01",0,0,0,0,100,100,0,0)
    PictureMove(5,null,0,0,0,0,100,100,255,0,30,true)
    ShowMessageFace("grandnoa_fc1",0,0,2,25)
    ShowMessage("\\n<Queen of Grand Noah>Welcome to my palace, Queen Sara.\nI'm glad to see you overcame the troubles you were going through.")
    ShowMessageFace("sara_fc1",1,0,2,26)
    ShowMessage("\\n<Sara>...Good to see you again, too.\nSadly, everything Sabasa suffered was due to my own inadequacies.")
    ShowMessageFace("grandnoa_fc1",0,0,2,27)
    ShowMessage("\\n<Queen of Grand Noah>I heard you temporarily abdicated the throne, but then your parliament reinstated you as Queen?")
    ShowMessageFace("sara_fc1",1,0,2,28)
    ShowMessage("\\n<Sara>That's right. I still enjoy the loving support of the people of Sabasa. Our country is now a Constitutional Monarchy, with a parliament and a queen.")
    ShowMessageFace("sara_fc1",1,0,2,29)
    ShowMessage("\\n<Sara>Sabasa aside, I'm curious about the incident at Esta and its connection to Tartarus.")
    ShowMessageFace("grandnoa_fc1",0,0,2,30)
    ShowMessage("\\n<Queen of Grand Noah>That's an interesting topic, but first, how about you introduce your companions?")
    ShowMessageFace("ruka_fc1",0,0,2,31)
    ShowMessage("\\n<Luka>Umm... I'm...")
    ShowMessageFace("sara_fc1",1,0,2,32)
    ShowMessage("\\n<Sara>They're traveling heroes and experts when it comes to events surrounding Tartarus. Sabasa and San Ilia can vouch for their abilities.")
    ShowMessageFace("sara_fc1",1,0,2,33)
    ShowMessage("\\n<Sara>Therefore, we ask that you allow us to join the investigation into the disappearance of the residents of Esta. I promise it will be beneficial for your country as well.")
    ShowMessageFace("grandnoa_fc1",0,0,2,34)
    ShowMessage("\\n<Queen of Grand Noah>............")
    PictureDisplay(5,"80_grandnoa_st02",0,0,0,0,100,100,255,0)
    ShowMessageFace("grandnoa_fc1",1,0,2,35)
    ShowMessage("\\n<Queen of Grand Noah>Permission granted. I'll make the arrangements at--")
    241(bytes(0x04,0x08,0x6f,0x3a,0x0d,0x52,0x50,0x47,0x3a,0x3a,0x42,0x47,0x4d,0x08,0x3a,0x0a,0x40,0x6e,0x61,0x6d,0x65,0x49,0x22,0x0a,0x6b,0x69,0x6b,0x69,0x32,0x06,0x3a,0x06,0x45,0x54,0x3a,0x0c,0x40,0x76,0x6f,0x6c,0x75,0x6d,0x65,0x69,0x69,0x3a,0x0b,0x40,0x70,0x69,0x74,0x63,0x68,0x69,0x69))
    ShowMessageFace("",0,0,2,36)
    ShowMessage("\\n<? ? ?>A moment, Your Majesty.")
    PictureClear(5)
    Wait(60)
    250(bytes(0x04,0x08,0x6f,0x3a,0x0c,0x52,0x50,0x47,0x3a,0x3a,0x53,0x45,0x08,0x3a,0x0a,0x40,0x6e,0x61,0x6d,0x65,0x49,0x22,0x0d,0x6d,0x6f,0x6e,0x5f,0x77,0x61,0x72,0x70,0x06,0x3a,0x06,0x45,0x54,0x3a,0x0b,0x40,0x70,0x69,0x74,0x63,0x68,0x69,0x69,0x3a,0x0c,0x40,0x76,0x6f,0x6c,0x75,0x6d,0x65,0x69,0x55))
    ChangeSwitch(31,31,0)
    205(5,bytes(0x04,0x08,0x6f,0x3a,0x13,0x52,0x50,0x47,0x3a,0x3a,0x4d,0x6f,0x76,0x65,0x52,0x6f,0x75,0x74,0x65,0x09,0x3a,0x0c,0x40,0x72,0x65,0x70,0x65,0x61,0x74,0x46,0x3a,0x0f,0x40,0x73,0x6b,0x69,0x70,0x70,0x61,0x62,0x6c,0x65,0x46,0x3a,0x0a,0x40,0x77,0x61,0x69,0x74,0x54,0x3a,0x0a,0x40,0x6c,0x69,0x73,0x74,0x5b,0x07,0x6f,0x3a,0x15,0x52,0x50,0x47,0x3a,0x3a,0x4d,0x6f,0x76,0x65,0x43,0x6f,0x6d,0x6d,0x61,0x6e,0x64,0x07,0x3a,0x0a,0x40,0x63,0x6f,0x64,0x65,0x69,0x06,0x3a,0x10,0x40,0x70,0x61,0x72,0x61,0x6d,0x65,0x74,0x65,0x72,0x73,0x5b,0x00,0x6f,0x3b,0x0a,0x07,0x3b,0x0b,0x69,0x00,0x3b,0x0c,0x5b,0x00))
    ShowMessageFace("grandnoa_fc1",0,0,2,37)
    ShowMessage("\\n<Queen of Grand Noah>Do you have an objection, Mephisto?")
    PictureDisplay(5,"80_mefist_st01",0,0,0,0,100,100,0,0)
    PictureMove(5,null,0,0,0,0,100,100,255,0,30,true)
    ShowMessageFace("mefist_fc1",0,0,2,38)
    ShowMessage("\\n<Mephisto>I wouldn't presume to second guess your decisions, Majesty... However, please allow me to introduce myself to the Hero Luka and his companions.")
    ShowMessageFace("mefist_fc1",0,0,2,39)
    ShowMessage("\\n<Mephisto>I am Mephisto, magical advisor to Grand Noah. I handle magical education and provide counsel to Her Majesty, the Queen.")
    ShowMessageFace("ruka_fc1",0,0,2,40)
    ShowMessage("\\n<Luka>I am the Hero Luka. Nice to meet you...")
    If(0,4,0)
     ShowMessageFace("alice_fc5",0,0,2,41)
     ShowMessage("\\n<Alice>I'm his companion, Alice.")
     0()
    EndIf()
    If(0,5,0)
     ShowMessageFace("iriasu_fc4",0,0,2,42)
     ShowMessage("\\n<Ilias>Despite appearances, I am your Goddess Ilias, Creator of the World.")
     0()
    EndIf()
    ShowMessageFace("mefist_fc1",0,0,2,43)
    ShowMessage("\\n<Mephisto>Pleased to meet you, young heroes. Now, about you joining the Esta investigation team...")
    ShowMessageFace("mefist_fc1",0,0,2,44)
    ShowMessage("\\n<Mephisto>Needless to say, the Esta incident is of utmost concern to our country, especially given the rumors that it may have been the result of a covert military operation by Grangold.")
    ShowMessageFace("mefist_fc1",0,0,2,45)
    ShowMessage("\\n<Mephisto>In light of that, I wonder if we should involve outsiders in the investigation so casually...")
    PictureDisplay(6,"80_grandnoa_st01",0,0,-150,0,100,100,255,0)
    PictureDisplay(5,"80_mefist_st01",0,0,150,0,100,100,255,0)
    ShowMessageFace("grandnoa_fc1",0,0,2,46)
    ShowMessage("\\n<Queen of Grand Noah>In other words, you oppose adding them to the investigation team?")
    ShowMessageFace("mefist_fc1",0,0,2,47)
    ShowMessage("\\n<Mephisto>I don't oppose it. Rather, I simply think it necessary for them to demonstrate their talents.")
    ShowMessageFace("mefist_fc1",0,0,2,48)
    ShowMessage("\\n<Mephisto>It just so happens that the Queen's Cup is being held in the Colosseum in three days time. Why don't you participate in the tournament and show us what you can do?")
    If(4,202,0)
     ShowMessageFace("bonny_fc1",0,0,2,49)
     ShowMessage("\\n<Bonnie>We're going to fight in the Colosseum?!")
     0()
    EndIf()
    ShowMessageFace("mefist_fc1",0,0,2,50)
    ShowMessage("\\n<Mephisto>If Sabasa and San Ilia both vouch for you, surely winning a little tournament is child's play. Right, Queen Sara?")
    ShowMessageFace("sara_fc1",3,0,2,51)
    ShowMessage("\\n<Sara>Well, that's not...")
    ShowMessageFace("",0,0,2,52)
    ShowMessage("Sara glances over at me...")
    ShowChoices(strings("Nod confidently","Shake your head in silence","Complain"),0)
    IfPlayerPicksChoice(0,null)
     ShowMessageFace("",0,0,2,53)
     ShowMessage("I nod confidently to Sara!")
     ShowMessageFace("sara_fc1",1,0,2,54)
     ShowMessage("\\n<Sara>...We have no objections, assuming we're allowed into the investigation team if we demonstrate our strength in the tournament.")
     ShowMessageFace("mefist_fc1",0,0,2,55)
     ShowMessage("\\n<Mephisto>Excellent... Is that satisfactory to you, Your Majesty?")
     ShowMessageFace("grandnoa_fc1",0,0,2,56)
     ShowMessage("\\n<Queen of Grand Noah>It is. Win the Queen's Cup, and I shall permit you to join the investigation team.")
     0()
    IfPlayerPicksChoice(1,null)
     ShowMessageFace("",0,0,2,57)
     ShowMessage("I silently shake my head back and forth...")
     ShowMessageFace("sara_fc1",2,0,2,58)
     ShowMessage("\\n<Sara>...We must decline.\nWinning a tournament seems an inappropriate condition for joining the investigation team.")
     ShowMessageFace("mefist_fc1",0,0,2,59)
     ShowMessage("\\n<Mephisto>Oh, how disappointing.\nIs that the level of commitment we can expect from your investigation?")
     ShowMessageFace("mefist_fc1",0,0,2,60)
     ShowMessage("\\n<Mephisto>If so, then perhaps we shouldn't let you...")
     If(0,4,0)
      ShowMessageFace("alice_fc5",2,0,2,61)
      ShowMessage("\\n<Alice>Hold on! You'll let us investigate if we win the tournament, right? I'll do it.")
      0()
     EndIf()
     If(0,5,0)
      ShowMessageFace("iriasu_fc4",7,0,2,62)
      ShowMessage("\\n<Ilias>Wait, you'll let us investigate if we win, correct? In that case, we'll defeat everyone who stands in our way, you included.")
      0()
     EndIf()
     ShowMessageFace("mefist_fc1",0,0,2,63)
     ShowMessage("\\n<Mephisto>So you're changing your minds?\nIs that all right, Your Majesty?")
     ShowMessageFace("grandnoa_fc1",0,0,2,64)
     ShowMessage("\\n<Queen of Grand Noah>It is. Win the Queen's Cup, and I shall permit you to join the investigation team.")
     0()
    IfPlayerPicksChoice(2,null)
     ShowMessageFace("ruka_fc1",0,0,2,65)
     ShowMessage("\\n<Luka>What does winning a tournament have to do with the investigation? Forcing us to do that just to join the team doesn't make any sense.")
     ShowMessageFace("mefist_fc1",0,0,2,66)
     ShowMessage("\\n<Mephisto>Oh, how disappointing.\nIs that the level of commitment we can expect from your investigation?")
     ShowMessageFace("mefist_fc1",0,0,2,67)
     ShowMessage("\\n<Mephisto>If so, then perhaps we shouldn't let you...")
     If(0,4,0)
      ShowMessageFace("alice_fc5",2,0,2,68)
      ShowMessage("\\n<Alice>Hold on! You'll let us investigate if we win the tournament, right? I'll do it.")
      0()
     EndIf()
     If(0,5,0)
      ShowMessageFace("iriasu_fc4",7,0,2,69)
      ShowMessage("\\n<Ilias>Wait, you'll let us investigate if we win, correct? In that case, we'll defeat everyone who stands in our way, you included.")
      0()
     EndIf()
     ShowMessageFace("mefist_fc1",0,0,2,70)
     ShowMessage("\\n<Mephisto>So you're changing your minds?\nIs that all right, Your Majesty?")
     ShowMessageFace("grandnoa_fc1",0,0,2,71)
     ShowMessage("\\n<Queen of Grand Noah>It is. Win the Queen's Cup, and I shall permit you to join the investigation team.")
     0()
    404()
    ShowMessageFace("mefist_fc1",0,0,2,72)
    ShowMessage("\\n<Mephisto>As you wish, Your Majesty.\nI shall see you at the Colosseum three days hence.")
    PictureClear(5)
    PictureClear(6)
    Wait(60)
    250(bytes(0x04,0x08,0x6f,0x3a,0x0c,0x52,0x50,0x47,0x3a,0x3a,0x53,0x45,0x08,0x3a,0x0a,0x40,0x6e,0x61,0x6d,0x65,0x49,0x22,0x0d,0x6d,0x6f,0x6e,0x5f,0x77,0x61,0x72,0x70,0x06,0x3a,0x06,0x45,0x54,0x3a,0x0b,0x40,0x70,0x69,0x74,0x63,0x68,0x69,0x69,0x3a,0x0c,0x40,0x76,0x6f,0x6c,0x75,0x6d,0x65,0x69,0x55))
    ChangeSwitch(31,31,1)
    Wait(60)
    PictureDisplay(5,"80_grandnoa_st03",0,0,0,0,100,100,0,0)
    PictureMove(5,null,0,0,0,0,100,100,255,0,30,true)
    ShowMessageFace("grandnoa_fc1",2,0,2,72)
    ShowMessage("\\n<Queen of Grand Noah>............")
    241(bytes(0x04,0x08,0x6f,0x3a,0x0d,0x52,0x50,0x47,0x3a,0x3a,0x42,0x47,0x4d,0x08,0x3a,0x0a,0x40,0x6e,0x61,0x6d,0x65,0x49,0x22,0x0c,0x63,0x61,0x73,0x74,0x6c,0x65,0x33,0x06,0x3a,0x06,0x45,0x54,0x3a,0x0c,0x40,0x76,0x6f,0x6c,0x75,0x6d,0x65,0x69,0x69,0x3a,0x0b,0x40,0x70,0x69,0x74,0x63,0x68,0x69,0x69))
    PictureDisplay(5,"80_grandnoa_st01",0,0,0,0,100,100,255,0)
    ShowMessageFace("grandnoa_fc1",0,0,2,74)
    ShowMessage("\\n<Queen of Grand Noah>That concludes your audience.\nPlease do not fail to win the Queen's Cup.")
    ShowMessageFace("sara_fc1",0,0,2,75)
    ShowMessage("\\n<Sara>We promise that we shall be victorious.\nThank you for taking the time to see us.")
    ShowMessageFace("ruka_fc1",0,0,2,76)
    ShowMessage("\\n<Luka>A martial arts tournament...")
    If(4,79,0)
     ShowMessageFace("nuruko_fc1",2,0,2,77)
     ShowMessage("\\n<Nuruko>Kyu kyu...")
     0()
    EndIf()
    PictureClear(5)
    ShowMessageFace("",0,0,2,78)
    ShowMessage("Thus, we end up going along with Mephisto's proposal to enter the Queen's Cup at the Colosseum.")
    ChangeSwitch(100,100,0)
    EndEventProcessing()
    0()
   EndIf()
   If(1,1052,0,2,0)
    PictureDisplay(5,"80_grandnoa_st01",0,0,0,0,100,100,0,0)
    PictureMove(5,null,0,0,0,0,100,100,255,0,30,true)
    ShowMessageFace("grandnoa_fc1",0,0,2,79)
    ShowMessage("\\n<Queen of Grand Noah>You need to first register for the tournament at the Colosseum's reception. After that, just win all your matches.")
    ShowMessageFace("grandnoa_fc1",0,0,2,80)
    ShowMessage("\\n<Queen of Grand Noah>That concludes your audience.\nPlease do not fail to win the Queen's Cup.")
    PictureClear(5)
    EndEventProcessing()
    0()
   EndIf()
   If(1,1052,0,6,0)
    PictureDisplay(5,"80_grandnoa_st01",0,0,0,0,100,100,0,0)
    PictureMove(5,null,0,0,0,0,100,100,255,0,30,true)
    ShowMessageFace("grandnoa_fc1",0,0,2,81)
    ShowMessage("\\n<Queen of Grand Noah>The Magical Academy is north of Grand Noah Palace. Please exercise the utmost caution there.")
    ShowMessageFace("grandnoa_fc1",0,0,2,82)
    ShowMessage("\\n<Queen of Grand Noah>The academy will be filled with Mephisto's students. Even though they're still in training, they're very powerful mages.")
    ShowMessageFace("grandnoa_fc1",0,0,2,83)
    ShowMessage("\\n<Queen of Grand Noah>I leave the rest to you...\nIn the meantime, I'll process the proper paperwork to have you added to the Esta investigation team.")
    PictureClear(5)
    EndEventProcessing()
    0()
   EndIf()
   If(1,1052,0,7,0)
    PictureDisplay(5,"80_grandnoa_st01",0,0,0,0,100,100,0,0)
    PictureMove(5,null,0,0,0,0,100,100,255,0,30,true)
    ShowMessageFace("grandnoa_fc1",0,0,2,84)
    ShowMessage("\\n<Queen of Grand Noah>The Magical Academy is north of Grand Noah Palace. Please exercise the utmost caution there.")
    ShowMessageFace("grandnoa_fc1",0,0,2,85)
    ShowMessage("\\n<Queen of Grand Noah>The academy will be filled with Mephisto's students. Even though they're still in training, they're very powerful mages.")
    ShowMessageFace("grandnoa_fc1",0,0,2,86)
    ShowMessage("\\n<Queen of Grand Noah>I leave the rest to you...\nIn the meantime, I'll process the proper paperwork to have you added to the Esta investigation team.")
    PictureClear(5)
    EndEventProcessing()
    0()
   EndIf()
   If(1,1052,0,8,0)
    If(1,1062,0,4,2)
     PictureDisplay(5,"80_grandnoa_st01",0,0,0,0,100,100,0,0)
     PictureMove(5,null,0,0,0,0,100,100,255,0,30,true)
     ShowMessageFace("grandnoa_fc1",0,0,2,87)
     ShowMessage("\\n<Queen of Grand Noah>I presume you still want to investigate Esta. As I promised before, the paperwork to add you to the investigation team has been completed.")
     ShowMessageFace("grandnoa_fc1",0,0,2,88)
     ShowMessage("\\n<Queen of Grand Noah>By the time you return, our war council should have concluded. No doubt we could use your help with whatever our new strategy entails.")
     ShowMessageFace("grandnoa_fc1",0,0,2,89)
     ShowMessage("\\n<Queen of Grand Noah>Godspeed, hero. I await good news from your investigation.")
     PictureClear(5)
     If(1,1054,0,6,2)
      ShowMessageFace("kerberos_fc1",0,0,2,90)
      ShowMessage("\\n<Caesar>Hey, you haven't forgotten about my mission, have you? You've gotta help me resolve the case of the missing Minotauros.")
      0()
     EndIf()
     If(1,1055,0,3,2)
      ShowMessageFace("durahan_fc1",0,0,2,91)
      ShowMessage("\\n<Arthur>If you have some time to spare, I'd appreciate your help with the incidents at Yamatai.")
      0()
     EndIf()
     PictureClear(5)
     EndEventProcessing()
     0()
    EndIf()
    If(1,1062,0,5,1)
     If(0,2156,1)
      ChangeSwitch(2156,2156,0)
      PictureDisplay(5,"80_grandnoa_st01",0,0,0,0,100,100,0,0)
      PictureMove(5,null,0,0,0,0,100,100,255,0,30,true)
      ShowMessageFace("grandnoa_fc1",0,0,2,92)
      ShowMessage("\\n<Queen of Grand Noah>Good to see you again, Hero Luka. Did you learn anything while investigating Esta?")
      ShowMessageFace("ruka_fc1",0,0,2,93)
      ShowMessage("\\n<Luka>Yes, actually--")
      ShowMessageFace("",0,0,2,94)
      ShowMessage("I explain that angels are likely connected to the events there...")
      ShowMessageFace("grandnoa_fc1",2,0,2,95)
      ShowMessage("\\n<Queen of Grand Noah>Oh my, I never would have guessed that angels were involved.")
      ShowMessageFace("grandnoa_fc1",2,0,2,96)
      ShowMessage("\\n<Queen of Grand Noah>It's good to know, though. Thank you for discovering such valuable information.")
      0()
     EndIf()
     If(1,1001,0,24,2)
      ShowMessageFace("grandnoa_fc1",0,0,2,97)
      ShowMessage("\\n<Queen of Grand Noah>We still need a bit more time to prepare and coordinate the counterattack on Grangold, however.")
      If(0,4,0)
       ShowMessageFace("alice_fc5",0,0,2,98)
       ShowMessage("\\n<Alice>In the meantime, perhaps we should pay Undine's Spring a visit? Forming contracts with the Four Spirits is one of our goals, after all.")
       ShowMessageFace("alice_fc5",0,0,2,99)
       ShowMessage("\\n<Alice>Undine's Spring is north of Esta, although that will require detouring around the lake.")
       0()
      EndIf()
      If(0,5,0)
       ShowMessageFace("iriasu_fc4",2,0,2,100)
       ShowMessage("\\n<Ilias>Perhaps we should kill some time by visiting Undine's Spring? I'm not particularly eager to go, but it is one of our goals.")
       ShowMessageFace("iriasu_fc4",2,0,2,101)
       ShowMessage("\\n<Ilias>Undine's Spring is north of Esta, although that will require detouring around the lake.")
       0()
      EndIf()
      If(1,1054,0,6,2)
       ShowMessageFace("kerberos_fc1",0,0,2,102)
       ShowMessage("\\n<Caesar>Hey, you haven't forgotten about my request, have you? Help me uncover the mystery behind the Minotauros' disappearances.")
       0()
      EndIf()
      If(1,1055,0,3,2)
       ShowMessageFace("durahan_fc1",0,0,2,103)
       ShowMessage("\\n<Arthur>If you're free, then please lend me your aid at Yamatai.")
       0()
      EndIf()
      PictureClear(5)
      EndEventProcessing()
      0()
     EndIf()
     If(1,1001,0,25,0)
      If(1,1022,0,5,2)
       ShowMessageFace("grandnoa_fc1",2,0,2,104)
       ShowMessage("\\n<Queen of Grand Noah>We're just about ready to go with the counterattack against Grangold, but there's some holdup with San Ilia.")
       ShowMessageFace("grandnoa_fc1",2,0,2,105)
       ShowMessage("\\n<Queen of Grand Noah>It seems like they must be having some difficulties. If you don't mind, would you go there and see if you can help out?")
       If(0,4,0)
        ShowMessageFace("alice_fc5",0,0,2,106)
        ShowMessage("\\n<Alice>I guess we'll have to pay them a visit at least...")
        0()
       EndIf()
       If(0,5,0)
        ShowMessageFace("iriasu_fc4",2,0,2,107)
        ShowMessage("\\n<Ilias>Oh well, to San Ilia then...")
        0()
       EndIf()
       PictureClear(5)
       EndEventProcessing()
       0()
      EndIf()
      ChangeVariable(1052,1052,0,0,9)
      ChangeVariable(1063,1063,0,0,1)
      ShowMessageFace("grandnoa_fc1",0,0,2,108)
      ShowMessage("\\n<Queen of Grand Noah>Okay, our preparations for the counterattack on Grangold are complete. As I mentioned before, we'd like your help as well.")
      ShowMessageFace("grandnoa_fc1",0,0,2,109)
      ShowMessage("\\n<Queen of Grand Noah>For our strategy--")
      PictureDisplay(6,"80_grandnoa_st01",0,0,-150,0,100,100,255,0)
      PictureDisplay(5,"80_mefist_st01",0,0,150,0,100,100,255,0)
      ShowMessageFace("mefist_fc1",0,0,2,110)
      ShowMessage("\\n<Mephisto>I can explain the details of the strategy to them. It might take a while, so let's go to my room.")
      If(0,6,0)
       ShowMessageFace("sonia_fc4",0,0,2,111)
       ShowMessage("\\n<Sonya>Rude as always...")
       0()
      Else()
       ShowMessageFace("ruka_fc1",0,0,2,112)
       ShowMessage("\\n<Luka>............")
       0()
      EndIf()
      221()
      PictureClear(5)
      PictureClear(6)
      ChangeSwitch(31,31,0)
      TeleportPlayer(0,383,16,22,4,0)
      241(bytes(0x04,0x08,0x6f,0x3a,0x0d,0x52,0x50,0x47,0x3a,0x3a,0x42,0x47,0x4d,0x08,0x3a,0x0a,0x40,0x6e,0x61,0x6d,0x65,0x49,0x22,0x16,0x64,0x75,0x6e,0x67,0x65,0x6f,0x6e,0x5f,0x63,0x6f,0x6c,0x6f,0x73,0x73,0x65,0x75,0x6d,0x06,0x3a,0x06,0x45,0x54,0x3a,0x0c,0x40,0x76,0x6f,0x6c,0x75,0x6d,0x65,0x69,0x69,0x3a,0x0b,0x40,0x70,0x69,0x74,0x63,0x68,0x69,0x69))
      222()
      PictureDisplay(6,"80_grandnoa_st01",0,0,-150,0,100,100,0,0)
      PictureDisplay(5,"80_mefist_st01",0,0,150,0,100,100,0,0)
      PictureMove(6,null,0,0,-150,0,100,100,255,0,30,false)
      PictureMove(5,null,0,0,150,0,100,100,255,0,30,true)
      ShowMessageFace("mefist_fc1",0,0,2,113)
      ShowMessage("\\n<Mephisto>Our strategy plans to end this war once and for all. Not only are the three major allied countries working together, but we have other forces joining in too.")
      If(0,4,0)
       ShowMessageFace("alice_fc5",0,0,2,114)
       ShowMessage("\\n<Alice>Those \"other forces\" would include us, I presume.")
       0()
      EndIf()
      If(0,5,0)
       ShowMessageFace("iriasu_fc4",2,0,2,115)
       ShowMessage("\\n<Ilias>Those \"other forces\" would include us, I presume.")
       0()
      EndIf()
      ShowMessageFace("mefist_fc1",0,0,2,116)
      ShowMessage("\\n<Mephisto>Yes... You're actually the crux of the plan, so please pay close attention.")
      ShowMessageFace("ruka_fc1",0,0,2,117)
      ShowMessage("\\n<Luka>We're the crux of the plan?!")
      ShowMessageFace("mefist_fc1",0,0,2,118)
      ShowMessage("\\n<Mephisto>Our first move is to mobilize the armies of our country, San Ilia, and Sabasa. Our enemies can't help but notice such a large-scale maneuver.")
      ShowMessageFace("mefist_fc1",0,0,2,119)
      ShowMessage("\\n<Mephisto>From the front lines at Gold Fort, their main force will come to intercept... and should be lured out.")
      If(0,4,0)
       ShowMessageFace("alice_fc5",0,0,2,120)
       ShowMessage("\\n<Alice>In other words, your armies are a feint too tempting for them to pass up.")
       0()
      EndIf()
      If(0,5,0)
       ShowMessageFace("iriasu_fc4",2,0,2,121)
       ShowMessage("\\n<Ilias>I'm surprised you would spend all three armies on a feint. That is quite a bold strategy.")
       0()
      EndIf()
      ShowMessageFace("mefist_fc1",0,0,2,122)
      ShowMessage("\\n<Mephisto>Yes, and their full focus will be on the front lines, where our entire might will appear to challenge them to a decisive battle...")
      ShowMessageFace("mefist_fc1",0,0,2,123)
      ShowMessage("\\n<Mephisto>Meanwhile, you'll infiltrate Gold Fort, slip through, and make your way into enemy territory.")
      If(0,6,0)
       ShowMessageFace("sonia_fc3",2,0,2,124)
       ShowMessage("\\n<Sonya>You're sending us in alone?! What kind of crazy plan is this?!")
       0()
      Else()
       ShowMessageFace("ruka_fc1",0,0,2,125)
       ShowMessage("\\n<Luka>You mean you're sending us in alone?!")
       0()
      EndIf()
      ShowMessageFace("grandnoa_fc1",2,0,2,126)
      ShowMessage("\\n<Queen of Grand Noah>I'll be offering you my full support, of course. We have spies concealed within enemy territory.")
      ShowMessageFace("mefist_fc1",0,0,2,127)
      ShowMessage("\\n<Mephisto>Yes, Her Majesty is correct, of course. We won't be sending you in as a sacrifice by any means.")
      ShowMessageFace("mefist_fc1",0,0,2,128)
      ShowMessage("\\n<Mephisto>After passing through Gold Fort, you'll need to make your way to the capital of Grangold.")
      ShowMessageFace("mefist_fc1",0,0,2,129)
      ShowMessage("\\n<Mephisto>Considering the length of the journey between them, you should first stop in a town near Gold Fort named Goddard.")
      ShowMessageFace("mefist_fc1",0,0,2,130)
      ShowMessage("\\n<Mephisto>There you can make contact with one of our agents. You can find the agent at the bar, but you'll need to give a special sign to the bartender and--")
      ShowMessageFace("ruka_fc1",0,0,2,131)
      ShowMessage("\\n<Luka>Wait, hold on...\nCan I write all this down?")
      If(0,4,0)
       ShowMessageFace("alice_fc5",2,0,2,132)
       ShowMessage("\\n<Alice>You want to write down the details of our super secret mission? Are you an idiot? If you forget anything, just ask me later.")
       0()
      EndIf()
      If(0,5,0)
       ShowMessageFace("iriasu_fc4",2,0,2,133)
       ShowMessage("\\n<Ilias>Great idea! Write down all the details of our super secret mission... Idiot. Don't worry, I'll remember everything for us.")
       0()
      EndIf()
      ShowMessageFace("",0,0,2,134)
      ShowMessage("Mephisto explains all the details of the mission. Contact the spy, make our way to the capital Grangold, etc.")
      If(0,4,0)
       ShowMessageFace("alice_fc5",0,0,2,135)
       ShowMessage("\\n<Alice>So after we arrive in Grangold, then what?")
       0()
      EndIf()
      If(0,5,0)
       ShowMessageFace("iriasu_fc4",2,0,2,136)
       ShowMessage("\\n<Ilias>Once we arrive in Grangold, what then? Attack Grangold Palace by ourselves?")
       0()
      EndIf()
      ShowMessageFace("mefist_fc1",0,0,2,137)
      ShowMessage("\\n<Mephisto>Grangold's king is probably being controlled. Your target is the Queen Ant.")
      ShowMessageFace("grandnoa_fc1",0,0,2,138)
      ShowMessage("\\n<Queen of Grand Noah>Your mission is essentially an assassination. I would never suggest such measures under normal circumstances...")
      If(0,4,0)
       ShowMessageFace("alice_fc5",0,0,2,139)
       ShowMessage("\\n<Alice>Of course not. Assassinating key figures is typically a horrible idea. It emboldens your enemies and risks complicating a war further.")
       0()
      EndIf()
      If(0,5,0)
       ShowMessageFace("iriasu_fc4",2,0,2,140)
       ShowMessage("\\n<Ilias>Of course you wouldn't. Assassinating key figures is an awful move. It emboldens your enemies and risks complicating a war further.")
       0()
      EndIf()
      ShowMessageFace("grandnoa_fc1",0,0,2,141)
      ShowMessage("\\n<Queen of Grand Noah>However, this war is anything but normal. We have to consider that the Monster Lord is pulling the strings from behind the scenes.")
      ShowMessageFace("grandnoa_fc1",0,0,2,142)
      ShowMessage("\\n<Queen of Grand Noah>Therefore, our goal is to cut those strings. The success or failure of this strategy will depend on your ability to pull it off.")
      If(0,6,0)
       ShowMessageFace("sonia_fc4",0,0,2,143)
       ShowMessage("\\n<Sonya>Wow, that's a lot of pressure...\nIf we screw up, Grand Noah will be in big trouble.")
       0()
      Else()
       ShowMessageFace("ruka_fc1",0,0,2,144)
       ShowMessage("\\n<Luka>That's a lot of pressure...")
       0()
      EndIf()
      ShowMessageFace("mefist_fc1",0,0,2,145)
      ShowMessage("\\n<Mephisto>If you fail, we will disavow all knowledge of you and your mission. You'll be treated as terrorists acting independently, so don't worry about us.")
      If(0,6,0)
       ShowMessageFace("sonia_fc3",2,0,2,146)
       ShowMessage("\\n<Sonya>What?!")
       0()
      Else()
       ShowMessageFace("ruka_fc1",0,0,2,147)
       ShowMessage("\\n<Luka>What?!")
       0()
      EndIf()
      ShowMessageFace("grandnoa_fc1",0,0,2,148)
      ShowMessage("\\n<Queen of Grand Noah>However, if that happens, we'll have to go with the brute force approach and fight with our armies.")
      ShowMessageFace("grandnoa_fc1",0,0,2,149)
      ShowMessage("\\n<Queen of Grand Noah>Who knows how many lives will be lost before the war ends. I don't even want to estimate them.")
      If(0,4,0)
       ShowMessageFace("alice_fc5",0,0,2,150)
       ShowMessage("\\n<Alice>So we're a lucky opportunity, but if we fail, it's war as usual. As a fellow statesman, I understand the political decision.")
       ShowMessageFace("alice_fc5",2,0,2,151)
       ShowMessage("\\n<Alice>You better support us when we're in enemy territory, though. If you give up on us too early, our lives are on the line.")
       0()
      EndIf()
      If(0,5,0)
       ShowMessageFace("iriasu_fc4",2,0,2,152)
       ShowMessage("\\n<Ilias>So if we fail, the war will continue as usual? Hmm, I suppose I can accept that decision.")
       ShowMessageFace("iriasu_fc4",7,0,2,153)
       ShowMessage("\\n<Ilias>You better support us when we're in enemy territory, though. If you give up on us, I will never forgive you.")
       0()
      EndIf()
      ShowMessageFace("mefist_fc1",0,0,2,154)
      ShowMessage("\\n<Mephisto>Yes, of course.\nWe'll ensure you supplies and personnel at every stage of the mission.")
      ShowMessageFace("mefist_fc1",0,0,2,155)
      ShowMessage("\\n<Mephisto>On that topic, we've arranged help for the first step of infiltrating Gold Fort.")
      ShowMessageFace("mefist_fc1",0,0,2,156)
      ShowMessage("\\n<Mephisto>You're to meet up with them at the ruins of the town of Lima. If you follow the road northwest from Esta, you'll come to Lima.")
      If(0,6,0)
       ShowMessageFace("sonia_fc2",2,0,2,157)
       ShowMessage("\\n<Sonya>Lima? That was the town that the Gold army destroyed a few years ago. I heard that most of the villages were massacred.")
       0()
      Else()
       ShowMessageFace("ruka_fc1",0,0,2,158)
       ShowMessage("\\n<Luka>Lima? That was the town that the Gold army destroyed a few years ago. I heard that most of the villages were massacred.")
       0()
      EndIf()
      ShowMessageFace("grandnoa_fc1",2,0,2,159)
      ShowMessage("\\n<Queen of Grand Noah>Yes, burn the sight of that town into your minds. That's the level of brutality the Gold army is capable of with the Monster Lord manipulating them.")
      ShowMessageFace("grandnoa_fc1",2,0,2,160)
      ShowMessage("\\n<Queen of Grand Noah>We must stop Grangold before that tragedy can be repeated.")
      ShowMessageFace("grandnoa_fc1",2,0,2,161)
      ShowMessage("\\n<Queen of Grand Noah>That is what all your efforts are for. Don't ever forget it.")
      ShowMessageFace("ruka_fc1",0,0,2,162)
      ShowMessage("\\n<Luka>Of course, you can count on us!")
      ShowMessageFace("",0,0,2,163)
      ShowMessage("That's the end of the strategy explanation. First, we need to link up with our help in Lima northeast of Esta.")
      If(0,4,0)
       ShowMessageFace("alice_fc5",0,0,2,164)
       ShowMessage("\\n<Alice>By the way, who is this helper of yours? I hope it isn't someone that's going to slow us down...")
       0()
      EndIf()
      If(0,5,0)
       ShowMessageFace("iriasu_fc4",2,0,2,165)
       ShowMessage("\\n<Ilias>By the way, who is this helper? I don't want them holding us back...")
       0()
      EndIf()
      ShowMessageFace("mefist_fc1",0,0,2,166)
      ShowMessage("\\n<Mephisto>Don't worry, you won't be disappointed with them. You'll see what I mean when you meet.")
      If(0,6,0)
       ShowMessageFace("sonia_fc2",2,0,2,167)
       ShowMessage("\\n<Sonya>That makes it sound like it's someone we know.")
       0()
      EndIf()
      ShowMessageFace("mefist_fc1",0,0,2,168)
      ShowMessage("\\n<Mephisto>Fufu... Quite possibly.")
      ShowMessageFace("ruka_fc1",0,0,2,169)
      ShowMessage("\\n<Luka>I see...\nAll right, let's go!")
      PictureClear(5)
      PictureClear(6)
      ShowMessageFace("",0,0,2,170)
      ShowMessage("Let's meet with this helper in Lima. That will be the start of the counterattack against Grangold.")
      ShowMessageFace("",0,0,2,171)
      ShowMessage("We better prepare carefully and follow the strategy. World peace is riding on our shoulders--")
      221()
      ChangeSwitch(31,31,1)
      TeleportPlayer(0,382,39,12,2,0)
      222()
      EndEventProcessing()
      0()
     EndIf()
     0()
    EndIf()
    0()
   EndIf()
   If(1,1052,0,9,1)
    If(1,1063,0,1,0)
     PictureDisplay(5,"80_grandnoa_st01",0,0,0,0,100,100,0,0)
     PictureMove(5,null,0,0,0,0,100,100,255,0,30,true)
     ShowMessageFace("grandnoa_fc1",0,0,2,172)
     ShowMessage("\\n<Queen of Grand Noah>The armies have begun preparations to march to the front. Once you make contact with our helper, that will signal the start to our advance.")
     ShowMessageFace("grandnoa_fc1",0,0,2,173)
     ShowMessage("\\n<Queen of Grand Noah>It's up to you to pull it off. We must break the Monster Lord's hold on Grangold.")
     PictureClear(5)
     EndEventProcessing()
     0()
    EndIf()
    If(1,1063,0,2,1)
     PictureDisplay(5,"80_grandnoa_st01",0,0,0,0,100,100,0,0)
     PictureMove(5,null,0,0,0,0,100,100,255,0,30,true)
     ShowMessageFace("grandnoa_fc1",0,0,2,174)
     ShowMessage("\\n<Queen of Grand Noah>Oh, what's the matter? Is something wrong with the plan?")
     ShowMessageFace("grandnoa_fc1",0,0,2,175)
     ShowMessage("\\n<Queen of Grand Noah>It's up to you to pull it off. We must break the Monster Lord's hold on Grangold.")
     PictureClear(5)
     EndEventProcessing()
     0()
    EndIf()
    0()
   EndIf()
   0()
  EndIf()
  If(1,1001,0,26,0)
   PictureDisplay(5,"80_grandnoa_st01",0,0,0,0,100,100,0,0)
   PictureMove(5,null,0,0,0,0,100,100,255,0,30,true)
   ShowMessageFace("grandnoa_fc1",2,0,2,176)
   ShowMessage("\\n<Queen of Grand Noah>The King of Grangold had a request for you, did he not? Apparently there has been some unusual activity from powerful monsters in his territory.")
   ShowMessageFace("grandnoa_fc1",0,0,2,177)
   ShowMessage("\\n<Queen of Grand Noah>If anything happens here, I'll contact you through Mephisto. Please do what you can to save our world.")
   PictureClear(5)
   EndEventProcessing()
   0()
  EndIf()
  If(1,1001,0,27,1)
   If(1,1001,0,28,2)
    PictureDisplay(5,"80_grandnoa_st01",0,0,0,0,100,100,0,0)
    PictureMove(5,null,0,0,0,0,100,100,255,0,30,true)
    ShowMessageFace("grandnoa_fc1",2,0,2,178)
    ShowMessage("\\n<Queen of Grand Noah>Ever since the Monster Lord declared war, there hasn't been any significant activity. However, it is unlikely that the calm will last forever...")
    ShowMessageFace("grandnoa_fc1",0,0,2,179)
    ShowMessage("\\n<Queen of Grand Noah>If something occurs here, I shall contact you through Mephisto. Please, do your best for the world.")
    PictureClear(5)
    EndEventProcessing()
    0()
   EndIf()
   0()
  EndIf()
  If(1,1001,0,29,0)
   PictureDisplay(5,"80_grandnoa_st01",0,0,0,0,100,100,0,0)
   PictureMove(5,null,0,0,0,0,100,100,255,0,30,true)
   ShowMessageFace("grandnoa_fc1",0,0,2,180)
   ShowMessage("\\n<Queen of Grand Noah>There are still capitals in danger.\nHero Luka, please save them.")
   PictureClear(5)
   EndEventProcessing()
   0()
  EndIf()
  If(1,1001,0,30,0)
   If(1,1070,0,1,0)
    PictureDisplay(5,"80_grandnoa_st01",0,0,0,0,100,100,0,0)
    PictureMove(5,null,0,0,0,0,100,100,255,0,30,true)
    ShowMessageFace("grandnoa_fc1",2,0,2,181)
    ShowMessage("\\n<Queen of Grand Noah>The country is still under attack by the joint elf and fairy army. Their base is on Fairy's Island, far southwest of Sabasa.")
    ShowMessageFace("grandnoa_fc1",2,0,2,182)
    ShowMessage("\\n<Queen of Grand Noah>If you can defeat Queen Elf, the attacks should stop. Hero Luka, I have high hopes for your success.")
    PictureClear(5)
    EndEventProcessing()
    0()
   EndIf()
   If(1,1070,0,2,0)
    ChangeVariable(1070,1070,0,0,3)
    ShowMessageFace("",0,0,2,183)
    ShowMessage("We report the news of our exchange with Queen Elf to the queen...")
    PictureDisplay(5,"80_grandnoa_st01",0,0,0,0,100,100,0,0)
    PictureMove(5,null,0,0,0,0,100,100,255,0,30,true)
    ShowMessageFace("grandnoa_fc1",2,0,2,184)
    ShowMessage("\\n<Queen of Grand Noah>I see... So they harbor resentment against humanity. Perhaps we have overlooked those who have been affected by our progress for too long.")
    ShowMessageFace("grandnoa_fc1",2,0,2,185)
    ShowMessage("\\n<Queen of Grand Noah>Rest assured that our government will work with the elves to resolve their issues.")
    ShowMessageFace("grandnoa_fc1",0,0,2,186)
    ShowMessage("\\n<Queen of Grand Noah>Whatever the outcome, your job has been completed spectacularly. Hero Luka, I'd like you to have this as thanks for saving our country.")
    250(bytes(0x04,0x08,0x6f,0x3a,0x0c,0x52,0x50,0x47,0x3a,0x3a,0x53,0x45,0x08,0x3a,0x0a,0x40,0x6e,0x61,0x6d,0x65,0x49,0x22,0x0a,0x49,0x74,0x65,0x6d,0x31,0x06,0x3a,0x06,0x45,0x54,0x3a,0x0b,0x40,0x70,0x69,0x74,0x63,0x68,0x69,0x69,0x3a,0x0c,0x40,0x76,0x6f,0x6c,0x75,0x6d,0x65,0x69,0x55))
    ChangeInventory_Item(637,0,0,1)
    ChangeSwitch(2311,2311,0)
    If(0,4,0)
     ShowMessageFace("alice_fc5",1,0,2,187)
     ShowMessage("\\n<Alice>This is one of the job change items passed down within the royal families. It will allow us to take on advanced service jobs for cooks, maid, and the like.")
     0()
    EndIf()
    If(0,5,0)
     ShowMessageFace("iriasu_fc4",1,0,2,188)
     ShowMessage("\\n<Ilias>This is one of the job change items passed down within the royal families. It will allow us to take on advanced service jobs for cooks, maid, and the like.")
     0()
    EndIf()
    ChangeVariable(1079,1079,0,0,1)
    RunCommonEvent(329)
    If(0,2274,0)
     EndEventProcessing()
     0()
    EndIf()
    ShowMessageFace("grandnoa_fc1",0,0,2,189)
    ShowMessage("\\n<Queen of Grand Noah>Please defeat the other queens threatening the rest of the world. If we whittle down the strength of the Monster Lord's army, they won't be able to stand against us.")
    PictureClear(5)
    EndEventProcessing()
    0()
   EndIf()
   If(1,1070,0,3,1)
    PictureDisplay(5,"80_grandnoa_st01",0,0,0,0,100,100,0,0)
    PictureMove(5,null,0,0,0,0,100,100,255,0,30,true)
    ShowMessageFace("grandnoa_fc1",0,0,2,190)
    ShowMessage("\\n<Queen of Grand Noah>Please subdue the Queens who are threatening the other countries. If we do not reduce the strength of the Monster Lord's army, we won't have any chance of winning...")
    PictureClear(5)
    EndEventProcessing()
    0()
   EndIf()
   0()
  EndIf()
  If(1,1001,0,31,1)
   PictureDisplay(5,"80_grandnoa_st01",0,0,0,0,100,100,0,0)
   PictureMove(5,null,0,0,0,0,100,100,255,0,30,true)
   ShowMessageFace("grandnoa_fc1",1,0,2,191)
   ShowMessage("\\n<Queen of Grand Noah>Please defeat the Monster Lord.\nThe Grand Noah army can deal with her army's invasion at this point.")
   PictureClear(5)
   EndEventProcessing()
   0()
  EndIf()
  0()



EVENT   5
 PAGE   1
  // condition: switch 31 is ON
  0()
 PAGE   2
  // condition: variable 1052 >= 8
  If(1,1063,0,0,0)
   If(1,1061,0,0,0)
    PictureDisplay(5,"80_mefist_st01",0,0,0,0,100,100,0,0)
    PictureMove(5,null,0,0,0,0,100,100,255,0,30,true)
    ShowMessageFace("mefist_fc1",0,0,2,1)
    ShowMessage("\\n<Mephisto>Plansect Village is a settlement of monsters in the forest west of here.")
    ShowMessageFace("mefist_fc1",0,0,2,2)
    ShowMessage("\\n<Mephisto>There appears to be significant trouble going on there. The village has split into two warring factions.")
    ShowMessageFace("mefist_fc1",0,0,2,3)
    ShowMessage("\\n<Mephisto>Please put a stop to the fighting in Plansect. Having a source of trouble in our domain is one more chink in our armor that other countries could exploit...")
    PictureClear(5)
    EndEventProcessing()
    0()
   EndIf()
   If(1,1061,0,1,1)
    PictureDisplay(5,"80_mefist_st01",0,0,0,0,100,100,0,0)
    PictureMove(5,null,0,0,0,0,100,100,255,0,30,true)
    ShowMessageFace("mefist_fc1",0,0,2,4)
    ShowMessage("\\n<Mephisto>You put down the civil war in Plansect? Rather impressive...")
    ShowMessageFace("mefist_fc1",0,0,2,5)
    ShowMessage("\\n<Mephisto>Black Alice is stirring up trouble with radicals all over the world, so keep a lookout...")
    PictureClear(5)
    EndEventProcessing()
    0()
   EndIf()
   0()
  EndIf()
  If(1,1063,0,1,0)
   PictureDisplay(5,"80_mefist_st01",0,0,0,0,100,100,0,0)
   PictureMove(5,null,0,0,0,0,100,100,255,0,30,true)
   ShowMessageFace("mefist_fc1",0,0,2,6)
   ShowMessage("\\n<Mephisto>We've arranged help for the first step of infiltrating Gold Fort.")
   ShowMessageFace("mefist_fc1",0,0,2,7)
   ShowMessage("\\n<Mephisto>You're to meet up with them at the ruins of the town of Lima. If you follow the road northwest from Esta, you'll come to Lima.")
   PictureClear(5)
   EndEventProcessing()
   0()
  EndIf()
  If(1,1063,0,2,0)
   PictureDisplay(5,"80_mefist_st01",0,0,0,0,100,100,0,0)
   PictureMove(5,null,0,0,0,0,100,100,255,0,30,true)
   ShowMessageFace("mefist_fc1",0,0,2,8)
   ShowMessage("\\n<Mephisto>We've arranged help for the first step of infiltrating Gold Fort.")
   ShowMessageFace("mefist_fc1",0,0,2,9)
   ShowMessage("\\n<Mephisto>You're to meet up with them at the ruins of the town of Lima. If you follow the road northwest from Esta, you'll come to Lima.")
   PictureClear(5)
   EndEventProcessing()
   0()
  EndIf()
  If(1,1063,0,3,1)
   PictureDisplay(5,"80_mefist_st01",0,0,0,0,100,100,0,0)
   PictureMove(5,null,0,0,0,0,100,100,255,0,30,true)
   ShowMessageFace("mefist_fc1",0,0,2,10)
   ShowMessage("\\n<Mephisto>Oh, and why have you returned?\nPlease carry out our strategy as planned.")
   If(0,6,0)
    ShowMessageFace("sonia_fc1",5,0,2,11)
    ShowMessage("\\n<Sonya>She still gives me the creeps...")
    0()
   EndIf()
   PictureClear(5)
   EndEventProcessing()
   0()
  EndIf()
  0()
 PAGE   3
  // condition: variable 1063 >= 9
  0()



EVENT   6
 PAGE   1
  // condition: switch 2268 is ON
  241(bytes(0x04,0x08,0x6f,0x3a,0x0d,0x52,0x50,0x47,0x3a,0x3a,0x42,0x47,0x4d,0x08,0x3a,0x0a,0x40,0x6e,0x61,0x6d,0x65,0x49,0x22,0x0a,0x6b,0x69,0x6b,0x69,0x32,0x06,0x3a,0x06,0x45,0x54,0x3a,0x0c,0x40,0x76,0x6f,0x6c,0x75,0x6d,0x65,0x69,0x69,0x3a,0x0b,0x40,0x70,0x69,0x74,0x63,0x68,0x69,0x69))
  ChangeSelfSwitch("A",0)
  PictureDisplay(5,"80_grandnoa_st01",0,0,0,0,100,100,0,0)
  PictureMove(5,null,0,0,0,0,100,100,255,0,30,true)
  ShowMessageFace("grandnoa_fc1",2,0,2,1)
  ShowMessage("\\n<Queen of Grand Noah>Mephisto, is it true that you were secretly serving the Monster Lord?")
  PictureDisplay(6,"80_grandnoa_st01",0,0,-150,0,100,100,255,0)
  PictureDisplay(5,"80_mefist_st01",0,0,150,0,100,100,255,0)
  ShowMessageFace("mefist_fc1",0,0,2,2)
  ShowMessage("\\n<Mephisto>...yes, that is correct. I took the position of magical advisor to Grand Noah at the Monster Lord's command.")
  ShowMessageFace("grandnoa_fc1",2,0,2,3)
  ShowMessage("\\n<Queen of Grand Noah>You've been deceiving me, and the entire country, all this time?")
  ShowMessageFace("mefist_fc1",0,0,2,4)
  ShowMessage("\\n<Mephisto>Truthfully, I have served Grand Noah to the utmost of my abilities.")
  ShowMessageFace("mefist_fc1",0,0,2,5)
  ShowMessage("\\n<Mephisto>The orders I received from the Monster Lord were to assist Grand Noah and use my intellect to guide them to victory.")
  If(0,6,0)
   ShowMessageFace("sonia_fc1",5,0,2,6)
   ShowMessage("\\n<Sonya>In other words, the Monster Lord wanted you to help here? So you mean you've really been devoted to Grand Noah the whole time?")
   0()
  Else()
   ShowMessageFace("ruka_fc1",0,0,2,7)
   ShowMessage("\\n<Luka>In other words, the Monster Lord wanted you to help here? So you mean you've really been devoted to Grand Noah the whole time?")
   0()
  EndIf()
  ShowMessageFace("mefist_fc1",0,0,2,8)
  ShowMessage("\\n<Mephisto>Correct. I'm not lying when I say my services to Grand Noah have not caused you one bit of harm.")
  ShowMessageFace("grandnoa_fc1",2,0,2,9)
  ShowMessage("\\n<Queen of Grand Noah>...I believe you.\nIt's certainly true that we've managed to stay relatively safe thanks to your efforts.")
  ShowMessageFace("grandnoa_fc1",2,0,2,10)
  ShowMessage("\\n<Queen of Grand Noah>Let's move on to another subject.\nI've heard that those three succubus sisters were responsible for the chaos in Sabasa.")
  ShowMessageFace("grandnoa_fc1",2,0,2,11)
  ShowMessage("\\n<Queen of Grand Noah>If they're cooperating with the Monster Lord, does that mean she wanted them to corrupt the Queen of Sabasa?")
  ShowMessageFace("mefist_fc1",0,0,2,12)
  ShowMessage("\\n<Mephisto>Yes, that is correct.\nThe Monster Lord and the three sisters are allies.")
  ShowMessageFace("mefist_fc1",0,0,2,13)
  ShowMessage("\\n<Mephisto>They aren't taking orders from the Monster Lord, but their interests are perfectly aligned.")
  If(0,4,0)
   ShowMessageFace("alice_fc5",3,0,2,14)
   ShowMessage("\\n<Alice>My mother... The present Monster Lord and the three sisters certainly look equally powerful. But what are their motives for meddling with Sabasa and Grand Noah...")
   0()
  EndIf()
  If(0,5,0)
   ShowMessageFace("iriasu_fc4",2,0,2,15)
   ShowMessage("\\n<Ilias>The present Monster Lord and the three sisters certainly look equally powerful. I cannot fathom what role their infiltrations into Sabasa and Grand Noah play in their larger schemes, however.")
   0()
  EndIf()
  If(4,529,0)
   ShowMessageFace("sara_fc1",4,0,2,16)
   ShowMessage("\\n<Sara>I'd love to know too...")
   0()
  EndIf()
  ShowMessageFace("grandnoa_fc1",2,0,2,17)
  ShowMessage("\\n<Queen of Grand Noah>Moreover, what is their intent behind aiding Grand Noah while hampering Sabasa? What is the Monster Lord planning?")
  ShowMessageFace("mefist_fc1",0,0,2,18)
  ShowMessage("\\n<Mephisto>...I do not know.")
  ShowMessageFace("mefist_fc1",0,0,2,19)
  ShowMessage("\\n<Mephisto>After all, if you were working under the assumption that I could fall into enemy hands, would you have let me in on the entire plan?")
  ShowMessageFace("grandnoa_fc1",2,0,2,20)
  ShowMessage("\\n<Queen of Grand Noah>I have a hard time believing that, but fine. One last question.")
  ShowMessageFace("grandnoa_fc1",2,0,2,21)
  ShowMessage("\\n<Queen of Grand Noah>Is the Monster Lord manipulating Grangold behind the scenes as well?")
  ShowMessageFace("mefist_fc1",2,0,2,22)
  ShowMessage("\\n<Mephisto>............")
  ShowMessageFace("mefist_fc1",0,0,2,23)
  ShowMessage("\\n<Mephisto>...yes.\nI've heard that the Monster Lord has full control over the country.")
  If(0,4,0)
   ShowMessageFace("alice_fc6",0,0,2,24)
   ShowMessage("\\n<Alice>What?! Grangold is already my mother's...")
   0()
  EndIf()
  If(0,5,0)
   ShowMessageFace("iriasu_fc4",5,0,2,25)
   ShowMessage("\\n<Ilias>You have got to be kidding me!\nEven Grangold is under her control?")
   0()
  EndIf()
  If(0,6,0)
   ShowMessageFace("sonia_fc1",5,0,2,26)
   ShowMessage("\\n<Sonya>Hold on, that doesn't make any sense!\nYou mean to tell me that the Monster Lord is behind Grangold AND Grand Noah?")
   ShowMessageFace("sonia_fc1",5,0,2,27)
   ShowMessage("\\n<Sonya>Why would she steer both countries into conflict? Is she trying to cause a world war?!")
   If(0,4,0)
    ShowMessageFace("alice_fc5",2,0,2,28)
    ShowMessage("\\n<Alice>I'd love to hear the answer to that, Mephisto. If the goal was to have both countries crush one another, that's going too far.")
    0()
   EndIf()
   If(0,5,0)
    ShowMessageFace("iriasu_fc4",7,0,2,29)
    ShowMessage("\\n<Ilias>The meathead brings up a good point for once. Can you answer her, Mephisto?")
    0()
   EndIf()
   0()
  Else()
   ShowMessageFace("ruka_fc1",0,0,2,30)
   ShowMessage("\\n<Luka>So why are Grand Noah and Grangold at war if the Monster Lord is manipulating both countries?")
   If(0,4,0)
    ShowMessageFace("alice_fc5",2,0,2,31)
    ShowMessage("\\n<Alice>I'd love to hear the answer to that, Mephisto. If the goal was to have both countries crush one another, that's going too far.")
    0()
   EndIf()
   If(0,5,0)
    ShowMessageFace("iriasu_fc4",7,0,2,32)
    ShowMessage("\\n<Ilias>What's going on here, Mephisto? I would love to hear your explanation.")
    0()
   EndIf()
   0()
  EndIf()
  ShowMessageFace("mefist_fc1",0,0,2,33)
  ShowMessage("\\n<Mephisto>Ask not the sparrow how the eagle soars. The Monster Lord's reasons are as deep as the sea.")
  If(0,4,0)
   ShowMessageFace("alice_fc5",3,0,2,34)
   ShowMessage("\\n<Alice>So you won't tell us. Disappointing.")
   0()
  EndIf()
  If(0,5,0)
   ShowMessageFace("iriasu_fc4",2,0,2,35)
   ShowMessage("\\n<Ilias>Just stupid quotations, no answers.")
   0()
  EndIf()
  ShowMessageFace("grandnoa_fc1",2,0,2,36)
  ShowMessage("\\n<Queen of Grand Noah>Questioning her any further is pointless. As for what to do with her--")
  If(0,6,0)
   ShowMessageFace("sonia_fc2",2,0,2,37)
   ShowMessage("\\n<Sonya>Execution...?\nThat seems a little harsh...")
   0()
  EndIf()
  If(4,159,0)
   ShowMessageFace("ironmaiden_fc1",0,0,2,38)
   ShowMessage("\\n<Maiden>You need me...?")
   0()
  EndIf()
  241(bytes(0x04,0x08,0x6f,0x3a,0x0d,0x52,0x50,0x47,0x3a,0x3a,0x42,0x47,0x4d,0x08,0x3a,0x0a,0x40,0x6e,0x61,0x6d,0x65,0x49,0x22,0x0c,0x63,0x61,0x73,0x74,0x6c,0x65,0x33,0x06,0x3a,0x06,0x45,0x54,0x3a,0x0c,0x40,0x76,0x6f,0x6c,0x75,0x6d,0x65,0x69,0x69,0x3a,0x0b,0x40,0x70,0x69,0x74,0x63,0x68,0x69,0x69))
  ShowMessageFace("grandnoa_fc1",2,0,2,39)
  ShowMessage("\\n<Queen of Grand Noah>You will resume your job as my magical advisor and continue to serve Grand Noah.")
  ShowMessageFace("mefist_fc1",0,0,2,40)
  ShowMessage("\\n<Mephisto>Yes, your Majesty.")
  If(0,6,0)
   ShowMessageFace("sonia_fc3",2,0,2,41)
   ShowMessage("\\n<Sonya>Eh?! That's it?!")
   0()
  Else()
   ShowMessageFace("ruka_fc1",0,0,2,42)
   ShowMessage("\\n<Luka>Umm, are you sure?!")
   0()
  EndIf()
  ShowMessageFace("mefist_fc1",0,0,2,43)
  ShowMessage("\\n<Mephisto>First of all, an excellent statesman knows you have to swallow the bad with the good.")
  ShowMessageFace("mefist_fc1",0,0,2,44)
  ShowMessage("\\n<Mephisto>Grand Noah should take advantage of talented people, whomever they are. This is especially true during a time of war.")
  If(0,6,0)
   ShowMessageFace("sonia_fc2",4,0,2,45)
   ShowMessage("\\n<Sonya>But what if you turn traitor?!")
   0()
  Else()
   ShowMessageFace("ruka_fc1",0,0,2,46)
   ShowMessage("\\n<Luka>Is that really a good idea?!")
   0()
  EndIf()
  ShowMessageFace("mefist_fc1",0,0,2,47)
  ShowMessage("\\n<Mephisto>Second, keep your friends close, and your enemies closer. Better to keep them somewhere you can keep your eyes on them.")
  If(0,6,0)
   ShowMessageFace("mefist_fc1",0,0,2,48)
   ShowMessage("\\n<Mephisto>Through me, you may even be able to learn what is being plotted behind the scenes... Was that enlightening, little priestess?")
   ShowMessageFace("sonia_fc1",5,0,2,49)
   ShowMessage("\\n<Sonya>You're pissing me off...")
   0()
  Else()
   ShowMessageFace("mefist_fc1",0,0,2,50)
   ShowMessage("\\n<Mephisto>Through me, you may even be able to learn what is being plotted behind the scenes... Was that enlightening, young hero?")
   ShowMessageFace("ruka_fc1",0,0,2,51)
   ShowMessage("\\n<Luka>Ngh...")
   0()
  EndIf()
  355("gain_medal(36)")
  ShowMessageFace("mefist_fc1",0,0,2,52)
  ShowMessage("\\n<Mephisto>Well then...")
  PictureClear(5)
  PictureClear(6)
  Wait(60)
  250(bytes(0x04,0x08,0x6f,0x3a,0x0c,0x52,0x50,0x47,0x3a,0x3a,0x53,0x45,0x08,0x3a,0x0a,0x40,0x6e,0x61,0x6d,0x65,0x49,0x22,0x0d,0x6d,0x6f,0x6e,0x5f,0x77,0x61,0x72,0x70,0x06,0x3a,0x06,0x45,0x54,0x3a,0x0b,0x40,0x70,0x69,0x74,0x63,0x68,0x69,0x69,0x3a,0x0c,0x40,0x76,0x6f,0x6c,0x75,0x6d,0x65,0x69,0x55))
  ChangeVariable(1052,1052,0,0,8)
  ChangeVariable(1062,1062,0,0,1)
  ChangeSwitch(100,100,1)
  ShowMessageFace("mefist_fc1",0,0,2,53)
  ShowMessage("\\n<Mephisto>I swear on the honor of my master, the Monster Lord, that I will continue to serve Grand Noah to the best of my ability.")
  PictureDisplay(5,"80_grandnoa_st01",0,0,0,0,100,100,0,0)
  PictureMove(5,null,0,0,0,0,100,100,255,0,30,true)
  ShowMessageFace("grandnoa_fc1",0,0,2,54)
  ShowMessage("\\n<Queen of Grand Noah>All this has confirmed my suspicions that the Monster Lord's influence reaches as far as Grangold.")
  ShowMessageFace("grandnoa_fc1",0,0,2,55)
  ShowMessage("\\n<Queen of Grand Noah>It's possible that their king is being mind controlled just like Queen Sara of Sabasa.")
  If(4,529,0)
   ShowMessageFace("sara_fc1",4,0,2,56)
   ShowMessage("\\n<Sara>The possibility is certainly high...")
   0()
  EndIf()
  ShowMessageFace("grandnoa_fc1",0,0,2,57)
  ShowMessage("\\n<Queen of Grand Noah>Now that it's clear this war is part of the Monster Lord's plan, it would be foolish to act openly against her and aggravate the situation.")
  ShowMessageFace("grandnoa_fc1",0,0,2,58)
  ShowMessage("\\n<Queen of Grand Noah>Hero Luka, I trust I can count on your cooperation in this matter?")
  ShowChoices(strings("Of course!","Heck No!"),0)
  IfPlayerPicksChoice(0,null)
   ShowMessageFace("ruka_fc1",0,0,2,59)
   ShowMessage("\\n<Luka>Yes, of course!")
   0()
  IfPlayerPicksChoice(1,null)
   ShowMessageFace("ruka_fc1",0,0,2,60)
   ShowMessage("\\n<Luka>Heck no!")
   If(0,4,0)
    ShowMessageFace("alice_fc5",3,0,2,61)
    ShowMessage("\\n<Alice>Don't say no, idiot.\nA conspiracy involving the Monster Lord is not something we can ignore.")
    ShowMessageFace("alice_fc5",2,0,2,62)
    ShowMessage("\\n<Alice>Needless to say, we'll help. It will more than likely intersect with the rest of our journey anyway.")
    0()
   EndIf()
   If(0,5,0)
    ShowMessageFace("iriasu_fc4",2,0,2,63)
    ShowMessage("\\n<Ilias>And you call yourself a hero...?\nThe Monster Lord's conspiracy is likely intertwined with our journey anyway.")
    ShowMessageFace("iriasu_fc4",0,0,2,64)
    ShowMessage("\\n<Ilias>So yes, we shall assist you in thwarting the Monster Lord's plans and restoring law and order.")
    0()
   EndIf()
   0()
  404()
  ShowMessageFace("grandnoa_fc1",0,0,2,65)
  ShowMessage("\\n<Queen of Grand Noah>My thanks, hero.\nWith our forces combined, let's crush this conspiracy.")
  If(0,2149,0)
   ShowMessageFace("bonny_fc1",1,0,2,66)
   ShowMessage("\\n<Bonnie>The Fishy Pirates are with you!")
   ShowMessageFace("ashel_fc1",1,0,2,67)
   ShowMessage("\\n<Ashel>Another great chance to make our name known!")
   0()
  EndIf()
  If(0,2148,0)
   ShowMessageFace("umiusi_k_fc1",0,0,2,68)
   ShowMessage("\\n<Stacy>The Navy will provide support too, of course!")
   ShowMessageFace("tatunoko_k_fc1",0,0,2,69)
   ShowMessage("\\n<Tatsuko>Let's do it together!")
   0()
  EndIf()
  ShowMessageFace("grandnoa_fc1",0,0,2,70)
  ShowMessage("\\n<Queen of Grand Noah>I'll convene a council with my senior advisors after this. Based on what we've learned, our strategy is going to need serious revisions.")
  ShowMessageFace("grandnoa_fc1",0,0,2,71)
  ShowMessage("\\n<Queen of Grand Noah>I presume you still want to investigate Esta? As I promised before, the paperwork to add you to the investigation team has been completed.")
  If(0,4,0)
   ShowMessageFace("alice_fc5",0,0,2,72)
   ShowMessage("\\n<Alice>Good, let's head that way.\nIf we follow the signs along the road west, we shouldn't get lost.")
   0()
  EndIf()
  If(0,5,0)
   ShowMessageFace("iriasu_fc4",0,0,2,73)
   ShowMessage("\\n<Ilias>Let's head that way then.\nWe should make it there just fine if we take the road west and follow the signs.")
   0()
  EndIf()
  ShowMessageFace("grandnoa_fc1",0,0,2,74)
  ShowMessage("\\n<Queen of Grand Noah>By the time you return, our war council should have concluded. No doubt we could use your help with whatever our new strategy entails.")
  ShowMessageFace("grandnoa_fc1",0,0,2,75)
  ShowMessage("\\n<Queen of Grand Noah>Godspeed, hero. I await good news from your investigation.")
  ShowMessageFace("ruka_fc1",0,0,2,76)
  ShowMessage("\\n<Luka>You can count on us!")
  If(1,1061,0,0,0)
   PictureDisplay(5,"80_mefist_st01",0,0,0,0,100,100,0,0)
   PictureMove(5,null,0,0,0,0,100,100,255,0,30,true)
   ShowMessageFace("mefist_fc1",0,0,2,77)
   ShowMessage("\\n<Mephisto>Hero Luka, I have a request for you as well.")
   If(0,6,0)
    ShowMessageFace("sonia_fc3",2,0,2,78)
    ShowMessage("\\n<Sonya>Really? How cheeky can she get?!")
    0()
   Else()
    ShowMessageFace("ruka_fc1",0,0,2,79)
    ShowMessage("\\n<Luka>Really...?")
    0()
   EndIf()
   ShowMessageFace("mefist_fc1",0,0,2,80)
   ShowMessage("\\n<Mephisto>Well, not a request, per se...\nIt's something right up your alley.")
   ShowMessageFace("mefist_fc1",0,0,2,81)
   ShowMessage("\\n<Mephisto>There's a forest west of here. In that forest is a settlement of monsters named Plansect Village.")
   ShowMessageFace("mefist_fc1",0,0,2,82)
   ShowMessage("\\n<Mephisto>There appears to be significant trouble going on there. The village has split into two warring factions.")
   If(0,4,0)
    ShowMessageFace("alice_fc5",0,0,2,83)
    ShowMessage("\\n<Alice>Conflict between the insect and plant races? From what we heard, Alice the 17th forcefully put a stop to that...")
    0()
   EndIf()
   If(0,5,0)
    ShowMessageFace("iriasu_fc4",2,0,2,84)
    ShowMessage("\\n<Ilias>Conflict between the insect and plant races? I believe we heard that Alice the 17th forcefully put a stop to that...")
    0()
   EndIf()
   ShowMessageFace("mefist_fc1",0,0,2,85)
   ShowMessage("\\n<Mephisto>Someone up to no good may have reignited the conflict. You'll have to go to the village for more details.")
   ShowMessageFace("mefist_fc1",0,0,2,86)
   ShowMessage("\\n<Mephisto>Please put a stop to the fighting in Plansect. Having a source of trouble in our domain is one more chink in our armor that other countries could exploit...")
   If(0,6,0)
    ShowMessageFace("sonia_fc2",4,0,2,87)
    ShowMessage("\\n<Sonya>The nerve of this monster, I swear!")
    0()
   EndIf()
   PictureClear(5)
   ShowMessageFace("",0,0,2,88)
   ShowMessage("In any case, we can't leave a request like that alone. Perhaps we should drop by Plansect Village on our way west...")
   If(1,1056,0,0,0)
    ChangeVariable(1056,1056,0,0,1)
    0()
   EndIf()
   0()
  EndIf()
  PictureClear(5)
  EndEventProcessing()
  0()
 PAGE   2
  // condition: self-switch A is ON
  0()



EVENT   7
 PAGE   1
  // condition: switch 31 is ON
  0()



EVENT   8
 PAGE   1
  // condition: switch 31 is ON
  0()



EVENT   9
 PAGE   1
  ShowMessageFace("",0,0,2,1)
  ShowMessage("\\n<Guard>Please mind your manners during the audience.")
  0()



EVENT   10
 PAGE   1
  ShowMessageFace("",0,0,2,1)
  ShowMessage("\\n<Guard>It is the duty of the royal guards to protect Her Majesty.")
  0()



EVENT   11
 PAGE   1
  ShowMessageFace("",0,0,2,1)
  ShowMessage("\\n<Maid>This is Her Majesty's room, but she doesn't seem to spend much time in it. She usually goes to the Medal Castle... No no, it's nothing.")
  0()



EVENT   12
 PAGE   1
  ShowMessageFace("",0,0,2,1)
  ShowMessage("\\n<Guard>This is the meeting room.")
  0()



EVENT   13
 PAGE   1
  ShowMessageFace("",0,0,2,1)
  ShowMessage("\\n<Guard>This is the Queen's room.\nWe ask that you refrain from entering without good reason.")
  0()



EVENT   14
 PAGE   1
  ShowMessageFace("",0,0,2,1)
  ShowMessage("\\n<Knight>My life is dedicated to Her Majesty.")
  0()



EVENT   15
 PAGE   1
  ShowMessageFace("",0,0,2,1)
  ShowMessage("\\n<Guard>We'll slay anyone who intends to harm Her Majesty.")
  0()

EVENT   16
 PAGE   1
  ShowMessageFace("",0,0,2,1)
  ShowMessage("\\n<Knight>I swear absolute loyalty to Her Majesty!")
  0()



EVENT   17
 PAGE   1
  ShowMessageFace("",0,0,2,1)
  ShowMessage("\\n<Guard>For the sake of my brothers who died on the battlefield...\nWe shall defend Her Majesty.")
  0()
