


EVENT   1
 PAGE   1
  0()



EVENT   2
 PAGE   1
  0()



EVENT   3
 PAGE   1
  0()



EVENT   4
 PAGE   1
  0()



EVENT   5
 PAGE   1
  0()



EVENT   6
 PAGE   1
  0()



EVENT   7
 PAGE   1
  0()



EVENT   8
 PAGE   1
  0()



EVENT   9
 PAGE   1
  0()



EVENT   10
 PAGE   1
  0()



EVENT   11
 PAGE   1
  0()



EVENT   12
 PAGE   1
  0()



EVENT   13
 PAGE   1
  0()



EVENT   14
 PAGE   1
  0()



EVENT   15
 PAGE   1
  0()



EVENT   16
 PAGE   1
  0()



EVENT   17
 PAGE   1
  0()



EVENT   18
 PAGE   1
  0()



EVENT   19
 PAGE   1
  0()



EVENT   20
 PAGE   1
  0()



EVENT   21
 PAGE   1
  // condition: switch 611 is ON
  241(bytes(0x04,0x08,0x6f,0x3a,0x0d,0x52,0x50,0x47,0x3a,0x3a,0x42,0x47,0x4d,0x08,0x3a,0x0a,0x40,0x6e,0x61,0x6d,0x65,0x49,0x22,0x0b,0x73,0x74,0x61,0x67,0x65,0x31,0x06,0x3a,0x06,0x45,0x54,0x3a,0x0c,0x40,0x76,0x6f,0x6c,0x75,0x6d,0x65,0x69,0x69,0x3a,0x0b,0x40,0x70,0x69,0x74,0x63,0x68,0x69,0x69))
  ShowMessageFace("jack_fc1",1,0,2,1)
  ShowMessage("\\n<Pumpkin>Can I let froggies out in here...?")
  ShowMessageFace("fairy_fc1",0,0,2,2)
  ShowMessage("\\n<Fell>Yaay, let's prank theem. ♪")
  ShowMessageFace("braunys_fc1",6,0,2,3)
  ShowMessage("\\n<Love & Lamb>We played around and a pillar toppled over...")
  ShowMessageFace("tfairy_fc1",0,0,2,4)
  ShowMessage("\\n<Mil & Lil>Let's peel off this carpet and plant a flower garden instead. ♪")
  ShowMessageFace("elf_fc1",0,0,2,5)
  ShowMessage("\\n<Claudia>Hey, stop! Don't be a bother in here!")
  ChangeSwitch(31,31,0)
  250(bytes(0x04,0x08,0x6f,0x3a,0x0c,0x52,0x50,0x47,0x3a,0x3a,0x53,0x45,0x08,0x3a,0x0a,0x40,0x6e,0x61,0x6d,0x65,0x49,0x22,0x0e,0x6d,0x6f,0x6e,0x5f,0x66,0x61,0x6c,0x6c,0x31,0x06,0x3a,0x06,0x45,0x54,0x3a,0x0b,0x40,0x70,0x69,0x74,0x63,0x68,0x69,0x69,0x3a,0x0c,0x40,0x76,0x6f,0x6c,0x75,0x6d,0x65,0x69,0x69))
  ShowMessageFace("elf_fc1",0,0,2,6)
  ShowMessage("\\n<Claudia>AAAAaaa!!")
  ShowMessageFace("",0,0,2,7)
  ShowMessage("Claudia fell into a pitfall!")
  ShowMessageFace("fairys_fc1",3,0,2,8)
  ShowMessage("\\n<Fairies>Ehehe, pitfallll. ♪")
  ShowMessageFace("",0,0,2,9)
  ShowMessage("\\n<Audience>(She sure has it tough...)")
  ShowMessageFace("",0,0,2,10)
  ShowMessage("Their guardian has gained everyone's sympathy...")
  Wait(30)
  221()
  242(1)
  Wait(60)
  211(1)
  281(1)
  TeleportPlayer(0,624,63,27,6,2)
  ChangeSwitch(31,31,1)
  ChangeSwitch(2119,2119,0)
  222()
  ShowMessageFace("",0,0,2,11)
  ShowMessage("\\n<Manager>You sure have it tough...")
  If(2,"A",1)
   ChangeSelfSwitch("A",0)
   250(bytes(0x04,0x08,0x6f,0x3a,0x0c,0x52,0x50,0x47,0x3a,0x3a,0x53,0x45,0x08,0x3a,0x0a,0x40,0x6e,0x61,0x6d,0x65,0x49,0x22,0x0a,0x49,0x74,0x65,0x6d,0x31,0x06,0x3a,0x06,0x45,0x54,0x3a,0x0b,0x40,0x70,0x69,0x74,0x63,0x68,0x69,0x69,0x3a,0x0c,0x40,0x76,0x6f,0x6c,0x75,0x6d,0x65,0x69,0x55))
   ChangeInventoryArmor(1372,0,0,1,false)
   0()
  EndIf()
  ChangeSwitch(2119,2119,1)
  EndEventProcessing()
  0()



EVENT   22
 PAGE   1
  // condition: switch 615 is ON
  0()
 PAGE   2
  // condition: switch 617 is ON
  0()
 PAGE   3
  // condition: switch 619 is ON
  0()



EVENT   23
 PAGE   1
  // condition: switch 612 is ON
  241(bytes(0x04,0x08,0x6f,0x3a,0x0d,0x52,0x50,0x47,0x3a,0x3a,0x42,0x47,0x4d,0x08,0x3a,0x0a,0x40,0x6e,0x61,0x6d,0x65,0x49,0x22,0x18,0x64,0x75,0x6e,0x67,0x65,0x6f,0x6e,0x5f,0x6f,0x62,0x61,0x6b,0x65,0x79,0x61,0x73,0x69,0x6b,0x69,0x06,0x3a,0x06,0x45,0x54,0x3a,0x0c,0x40,0x76,0x6f,0x6c,0x75,0x6d,0x65,0x69,0x69,0x3a,0x0b,0x40,0x70,0x69,0x74,0x63,0x68,0x69,0x69))
  ShowMessageFace("candle_fc1",0,0,2,1)
  ShowMessage("\\n<Chandra>Curse youuu...")
  ShowMessageFace("ghost_fc1",0,0,2,2)
  ShowMessage("\\n<Carrie>Curse youuu...")
  ShowMessageFace("sinkiro_fc1",4,0,2,3)
  ShowMessage("\\n<Mirage>Curse youu. ♪")
  ShowMessageFace("shadow_fc1",0,0,2,4)
  ShowMessage("\\n<Shadow>......")
  ShowMessageFace("",0,0,2,5)
  ShowMessage("\\n<Audience>This feels like a cursed performance...")
  ShowMessageFace("",0,0,2,6)
  ShowMessage("The stage has frozen...")
  Wait(30)
  221()
  242(1)
  Wait(60)
  211(1)
  281(1)
  TeleportPlayer(0,624,63,27,6,2)
  ChangeSwitch(2119,2119,0)
  222()
  ShowMessageFace("",0,0,2,7)
  ShowMessage("\\n<Manager>Cheers for the good work.\n...It feels chilly, doesn't it?")
  If(2,"A",1)
   ChangeSelfSwitch("A",0)
   250(bytes(0x04,0x08,0x6f,0x3a,0x0c,0x52,0x50,0x47,0x3a,0x3a,0x53,0x45,0x08,0x3a,0x0a,0x40,0x6e,0x61,0x6d,0x65,0x49,0x22,0x0a,0x49,0x74,0x65,0x6d,0x31,0x06,0x3a,0x06,0x45,0x54,0x3a,0x0b,0x40,0x70,0x69,0x74,0x63,0x68,0x69,0x69,0x3a,0x0c,0x40,0x76,0x6f,0x6c,0x75,0x6d,0x65,0x69,0x55))
   ChangeInventoryArmor(1399,0,0,1,false)
   0()
  EndIf()
  ChangeSwitch(2119,2119,1)
  EndEventProcessing()
  0()



EVENT   24
 PAGE   1
  // condition: switch 613 is ON
  241(bytes(0x04,0x08,0x6f,0x3a,0x0d,0x52,0x50,0x47,0x3a,0x3a,0x42,0x47,0x4d,0x08,0x3a,0x0a,0x40,0x6e,0x61,0x6d,0x65,0x49,0x22,0x18,0x64,0x75,0x6e,0x67,0x65,0x6f,0x6e,0x5f,0x6f,0x62,0x61,0x6b,0x65,0x79,0x61,0x73,0x69,0x6b,0x69,0x06,0x3a,0x06,0x45,0x54,0x3a,0x0c,0x40,0x76,0x6f,0x6c,0x75,0x6d,0x65,0x69,0x69,0x3a,0x0b,0x40,0x70,0x69,0x74,0x63,0x68,0x69,0x69))
  ShowMessageFace("mummy_fc1",2,0,2,1)
  ShowMessage("\\n<Patra>I'm not a circus freak...")
  ShowMessageFace("frederika_fc1",0,0,2,2)
  ShowMessage("\\n<Frederica>Good grief, agreed...")
  ShowMessageFace("zonbe_fc3",0,0,2,3)
  ShowMessage("\\n<Zombie>Aaauu... uaaa...")
  ShowMessageFace("",0,0,2,4)
  ShowMessage("\\n<Audience A>For some reason my back is starting to itch...")
  ShowMessageFace("",0,0,2,5)
  ShowMessage("\\n<Audience B>W-what's going on with... me...")
  ShowMessageFace("zonbe_fc3",1,0,2,6)
  ShowMessage("\\n<Zombie>OOooOo... UuUuu...")
  ShowMessageFace("zonbe_fc3",2,0,2,7)
  ShowMessage("\\n<Zombie>AAAa... UAAaa...")
  ShowMessageFace("",0,0,2,8)
  ShowMessage("\\n<Audience C>Hun-gry... Meat... OOoo...")
  ShowMessageFace("",0,0,2,9)
  ShowMessage("\\n<Audience D>Itchy... UMAAAaa")
  ShowMessageFace("",0,0,2,10)
  ShowMessage("It's biohazardous!")
  Wait(30)
  221()
  242(1)
  Wait(60)
  211(1)
  281(1)
  TeleportPlayer(0,624,63,27,6,2)
  ChangeSwitch(2119,2119,0)
  222()
  ShowMessageFace("",0,0,2,11)
  ShowMessage("\\n<Manager>UUuuu... AAaAaa...")
  If(2,"A",1)
   ChangeSelfSwitch("A",0)
   250(bytes(0x04,0x08,0x6f,0x3a,0x0c,0x52,0x50,0x47,0x3a,0x3a,0x53,0x45,0x08,0x3a,0x0a,0x40,0x6e,0x61,0x6d,0x65,0x49,0x22,0x0a,0x49,0x74,0x65,0x6d,0x31,0x06,0x3a,0x06,0x45,0x54,0x3a,0x0b,0x40,0x70,0x69,0x74,0x63,0x68,0x69,0x69,0x3a,0x0c,0x40,0x76,0x6f,0x6c,0x75,0x6d,0x65,0x69,0x55))
   ChangeInventoryArmor(1458,0,0,1,false)
   0()
  EndIf()
  ChangeSwitch(2119,2119,1)
  EndEventProcessing()
  0()



EVENT   25
 PAGE   1
  // condition: switch 614 is ON
  241(bytes(0x04,0x08,0x6f,0x3a,0x0d,0x52,0x50,0x47,0x3a,0x3a,0x42,0x47,0x4d,0x08,0x3a,0x0a,0x40,0x6e,0x61,0x6d,0x65,0x49,0x22,0x0b,0x73,0x74,0x61,0x67,0x65,0x34,0x06,0x3a,0x06,0x45,0x54,0x3a,0x0c,0x40,0x76,0x6f,0x6c,0x75,0x6d,0x65,0x69,0x69,0x3a,0x0b,0x40,0x70,0x69,0x74,0x63,0x68,0x69,0x69))
  ShowMessageFace("sonia_fc1",3,0,2,1)
  ShowMessage("\\n<Sonya>Iliasville's specialty, the Thousand Knocks! Take that, take that, take thaaat!!")
  ShowMessageFace("",0,0,2,2)
  ShowMessage("Sonya swings her club and knocks away balls towards the audience!")
  ShowMessageFace("orc_fc1",1,0,2,3)
  ShowMessage("\\n<Hip>Oinkk! Hit them alll!")
  ShowMessageFace("kooni_fc1",1,0,2,4)
  ShowMessage("\\n<Shizuku>Eyyeyyey! Oni batting, exploooode!")
  ShowMessageFace("",0,0,2,5)
  ShowMessage("Hip and Shizuku swing clubs around, batting away towards the audience!")
  ShowMessageFace("",0,0,2,6)
  ShowMessage("\\n<Audience>Hiihhh! W-what's thiss?!!")
  ShowMessageFace("",0,0,2,7)
  ShowMessage("The audience is in chaos!")
  Wait(30)
  221()
  242(1)
  Wait(60)
  211(1)
  281(1)
  TeleportPlayer(0,624,63,27,6,2)
  ChangeSwitch(2119,2119,0)
  222()
  ShowMessageFace("",0,0,2,8)
  ShowMessage("\\n<Manager>Okay, what was that supposed to be?")
  ShowMessageFace("sonia_fc4",0,0,2,9)
  ShowMessage("\\n<Sonya>I'm a country bumpkin, so I got all tense going up on the stage for the first time... I'm sorry...")
  If(2,"A",1)
   ChangeSelfSwitch("A",0)
   250(bytes(0x04,0x08,0x6f,0x3a,0x0c,0x52,0x50,0x47,0x3a,0x3a,0x53,0x45,0x08,0x3a,0x0a,0x40,0x6e,0x61,0x6d,0x65,0x49,0x22,0x0a,0x49,0x74,0x65,0x6d,0x31,0x06,0x3a,0x06,0x45,0x54,0x3a,0x0b,0x40,0x70,0x69,0x74,0x63,0x68,0x69,0x69,0x3a,0x0c,0x40,0x76,0x6f,0x6c,0x75,0x6d,0x65,0x69,0x55))
   ChangeInventory_Item(7,0,0,3)
   0()
  EndIf()
  ChangeSwitch(2119,2119,1)
  EndEventProcessing()
  0()



EVENT   26
 PAGE   1
  // condition: switch 615 is ON
  241(bytes(0x04,0x08,0x6f,0x3a,0x0d,0x52,0x50,0x47,0x3a,0x3a,0x42,0x47,0x4d,0x08,0x3a,0x0a,0x40,0x6e,0x61,0x6d,0x65,0x49,0x22,0x14,0x64,0x75,0x6e,0x67,0x65,0x6f,0x6e,0x5f,0x75,0x72,0x61,0x79,0x61,0x6d,0x61,0x06,0x3a,0x06,0x45,0x54,0x3a,0x0c,0x40,0x76,0x6f,0x6c,0x75,0x6d,0x65,0x69,0x69,0x3a,0x0b,0x40,0x70,0x69,0x74,0x63,0x68,0x69,0x69))
  ShowMessageFace("slime_fc1",0,0,2,1)
  ShowMessage("\\n<Lime>I'll dancee. ♪")
  ShowMessageFace("slime_fc1",0,0,2,2)
  ShowMessage("\\n<Lime>Boomerang. ♪ Boomerang. ♪")
  ShowMessageFace("",0,0,2,3)
  ShowMessage("\\n<Female Customer>Wow, so cuute. ♪")
  ShowMessageFace("",0,0,2,4)
  ShowMessage("\\n<Middle-Aged Man>Those are nice boomerangs...")
  ShowMessageFace("",0,0,2,5)
  ShowMessage("It was a moderate success!")
  Wait(30)
  221()
  242(1)
  Wait(60)
  211(1)
  281(1)
  TeleportPlayer(0,624,63,27,6,2)
  ChangeSwitch(2119,2119,0)
  222()
  ShowMessageFace("",0,0,2,6)
  ShowMessage("\\n<Manager>That was well-received. Please come again!")
  If(2,"A",1)
   ChangeSelfSwitch("A",0)
   250(bytes(0x04,0x08,0x6f,0x3a,0x0c,0x52,0x50,0x47,0x3a,0x3a,0x53,0x45,0x08,0x3a,0x0a,0x40,0x6e,0x61,0x6d,0x65,0x49,0x22,0x0a,0x49,0x74,0x65,0x6d,0x31,0x06,0x3a,0x06,0x45,0x54,0x3a,0x0b,0x40,0x70,0x69,0x74,0x63,0x68,0x69,0x69,0x3a,0x0c,0x40,0x76,0x6f,0x6c,0x75,0x6d,0x65,0x69,0x55))
   ChangeInventoryArmor(1330,0,0,1,false)
   0()
  EndIf()
  ChangeSwitch(2119,2119,1)
  EndEventProcessing()
  0()



EVENT   27
 PAGE   1
  // condition: switch 616 is ON
  241(bytes(0x04,0x08,0x6f,0x3a,0x0d,0x52,0x50,0x47,0x3a,0x3a,0x42,0x47,0x4d,0x08,0x3a,0x0a,0x40,0x6e,0x61,0x6d,0x65,0x49,0x22,0x0b,0x73,0x74,0x61,0x67,0x65,0x31,0x06,0x3a,0x06,0x45,0x54,0x3a,0x0c,0x40,0x76,0x6f,0x6c,0x75,0x6d,0x65,0x69,0x69,0x3a,0x0b,0x40,0x70,0x69,0x74,0x63,0x68,0x69,0x69))
  ShowMessageFace("name_fc1",2,0,2,1)
  ShowMessage("\\n<Melk>*slither**slither*...")
  ShowMessageFace("highslag_fc1",0,0,2,2)
  ShowMessage("\\n<Elizabeth>*plshk**plshk*...")
  ShowMessageFace("name_s_fc1",0,0,2,3)
  ShowMessage("\\n<Rosary>*wriggle**wriggle*...")
  ShowMessageFace("name2_fc2",1,0,2,4)
  ShowMessage("\\n<Melty>*shlrm**shlrm*...")
  ShowMessageFace("",0,0,2,5)
  ShowMessage("\\n<Audience>......")
  Wait(30)
  221()
  242(1)
  Wait(60)
  211(1)
  281(1)
  TeleportPlayer(0,624,63,27,6,2)
  ChangeSwitch(2119,2119,0)
  222()
  ShowMessageFace("",0,0,2,6)
  ShowMessage("\\n<Manager>I need to buy salt... Er, no, it's nothing.")
  If(2,"A",1)
   ChangeSelfSwitch("A",0)
   250(bytes(0x04,0x08,0x6f,0x3a,0x0c,0x52,0x50,0x47,0x3a,0x3a,0x53,0x45,0x08,0x3a,0x0a,0x40,0x6e,0x61,0x6d,0x65,0x49,0x22,0x0a,0x49,0x74,0x65,0x6d,0x31,0x06,0x3a,0x06,0x45,0x54,0x3a,0x0b,0x40,0x70,0x69,0x74,0x63,0x68,0x69,0x69,0x3a,0x0c,0x40,0x76,0x6f,0x6c,0x75,0x6d,0x65,0x69,0x55))
   ChangeInventoryArmor(1581,0,0,1,false)
   0()
  EndIf()
  ChangeSwitch(2119,2119,1)
  EndEventProcessing()
  0()



EVENT   28
 PAGE   1
  // condition: switch 617 is ON
  241(bytes(0x04,0x08,0x6f,0x3a,0x0d,0x52,0x50,0x47,0x3a,0x3a,0x42,0x47,0x4d,0x08,0x3a,0x0a,0x40,0x6e,0x61,0x6d,0x65,0x49,0x22,0x0b,0x73,0x74,0x61,0x67,0x65,0x31,0x06,0x3a,0x06,0x45,0x54,0x3a,0x0c,0x40,0x76,0x6f,0x6c,0x75,0x6d,0x65,0x69,0x69,0x3a,0x0b,0x40,0x70,0x69,0x74,0x63,0x68,0x69,0x69))
  ShowMessageFace("name_fc1",0,0,2,1)
  ShowMessage("\\n<Melk>This stage doesn't feel damp enough... Can I plant some mushrooms in here?")
  ShowMessageFace("mimizu_fc1",0,0,2,2)
  ShowMessage("\\n<Mimi>Dig a hole, dig a hole... Hey, there's wood under the carpet.")
  ShowMessageFace("hiru_fc1",0,0,2,3)
  ShowMessage("\\n<Hiru>I brought some moss from my favorite swamp. Let's spread it around here...")
  ShowMessageFace("",0,0,2,4)
  ShowMessage("\\n<Audience>(They're doing whatever they want...)")
  ShowMessageFace("",0,0,2,5)
  ShowMessage("The stage has started feeling damp...")
  Wait(30)
  221()
  242(1)
  Wait(60)
  211(1)
  281(1)
  TeleportPlayer(0,624,63,27,6,2)
  ChangeSwitch(2119,2119,0)
  222()
  ShowMessageFace("",0,0,2,6)
  ShowMessage("\\n<Manager>Aww, the atmosphere has turned completely damp. Ah, a mushroom's growing in here too!")
  If(2,"A",1)
   ChangeSelfSwitch("A",0)
   250(bytes(0x04,0x08,0x6f,0x3a,0x0c,0x52,0x50,0x47,0x3a,0x3a,0x53,0x45,0x08,0x3a,0x0a,0x40,0x6e,0x61,0x6d,0x65,0x49,0x22,0x0a,0x49,0x74,0x65,0x6d,0x31,0x06,0x3a,0x06,0x45,0x54,0x3a,0x0b,0x40,0x70,0x69,0x74,0x63,0x68,0x69,0x69,0x3a,0x0c,0x40,0x76,0x6f,0x6c,0x75,0x6d,0x65,0x69,0x55))
   ChangeInventory_Item(443,0,0,3)
   0()
  EndIf()
  ChangeSwitch(2119,2119,1)
  EndEventProcessing()
  0()



EVENT   29
 PAGE   1
  // condition: switch 618 is ON
  241(bytes(0x04,0x08,0x6f,0x3a,0x0d,0x52,0x50,0x47,0x3a,0x3a,0x42,0x47,0x4d,0x08,0x3a,0x0a,0x40,0x6e,0x61,0x6d,0x65,0x49,0x22,0x0b,0x73,0x74,0x61,0x67,0x65,0x31,0x06,0x3a,0x06,0x45,0x54,0x3a,0x0c,0x40,0x76,0x6f,0x6c,0x75,0x6d,0x65,0x69,0x69,0x3a,0x0b,0x40,0x70,0x69,0x74,0x63,0x68,0x69,0x69))
  ShowMessageFace("inp_fc1",0,0,2,1)
  ShowMessage("\\n<Rami>I'll be flying! ♪ *flappity-flap* ♪")
  ShowMessageFace("",0,0,2,2)
  ShowMessage("\\n<Audience A>(She's just flapping her wings...)")
  ShowMessageFace("inp_fc3",0,0,2,3)
  ShowMessage("\\n<Rumi>*Yawwwn*")
  ShowMessageFace("inp_fc2",2,0,2,4)
  ShowMessage("\\n<Remi>*shiver* *tremble*...")
  ShowMessageFace("",0,0,2,5)
  ShowMessage("\\n<Audience B>(Why did they even come here...?)")
  ShowMessageFace("",0,0,2,6)
  ShowMessage("The stage is filled with a strange atmosphere...")
  Wait(30)
  221()
  242(1)
  Wait(60)
  211(1)
  281(1)
  TeleportPlayer(0,624,63,27,6,2)
  ChangeSwitch(2119,2119,0)
  222()
  ShowMessageFace("",0,0,2,7)
  ShowMessage("\\n<Manager>Uh, yeah... Well, I think you did your best.")
  If(2,"A",1)
   ChangeSelfSwitch("A",0)
   250(bytes(0x04,0x08,0x6f,0x3a,0x0c,0x52,0x50,0x47,0x3a,0x3a,0x53,0x45,0x08,0x3a,0x0a,0x40,0x6e,0x61,0x6d,0x65,0x49,0x22,0x0a,0x49,0x74,0x65,0x6d,0x31,0x06,0x3a,0x06,0x45,0x54,0x3a,0x0b,0x40,0x70,0x69,0x74,0x63,0x68,0x69,0x69,0x3a,0x0c,0x40,0x76,0x6f,0x6c,0x75,0x6d,0x65,0x69,0x55))
   ChangeInventory_Item(21,0,0,3)
   0()
  EndIf()
  ChangeSwitch(2119,2119,1)
  EndEventProcessing()
  0()



EVENT   30
 PAGE   1
  // condition: switch 619 is ON
  241(bytes(0x04,0x08,0x6f,0x3a,0x0d,0x52,0x50,0x47,0x3a,0x3a,0x42,0x47,0x4d,0x08,0x3a,0x0a,0x40,0x6e,0x61,0x6d,0x65,0x49,0x22,0x14,0x64,0x75,0x6e,0x67,0x65,0x6f,0x6e,0x5f,0x75,0x72,0x61,0x79,0x61,0x6d,0x61,0x06,0x3a,0x06,0x45,0x54,0x3a,0x0c,0x40,0x76,0x6f,0x6c,0x75,0x6d,0x65,0x69,0x69,0x3a,0x0b,0x40,0x70,0x69,0x74,0x63,0x68,0x69,0x69))
  ShowMessageFace("bunnyslime_fc1",0,0,2,1)
  ShowMessage("\\n<Bunni>Bunni-hop. ♪ Bunni-hop. ♪ Bunni-bunni-hop. ♪")
  ShowMessageFace("",0,0,2,2)
  ShowMessage("\\n<Female Customer>Wah, so cuute. ♪")
  ShowMessageFace("",0,0,2,3)
  ShowMessage("\\n<Old Man>She's not a bunny rabbit...")
  ShowMessageFace("",0,0,2,4)
  ShowMessage("The show was moderately exciting!")
  Wait(30)
  221()
  242(1)
  Wait(60)
  211(1)
  281(1)
  TeleportPlayer(0,624,63,27,6,2)
  ChangeSwitch(2119,2119,0)
  222()
  ShowMessageFace("",0,0,2,5)
  ShowMessage("\\n<Manager>You did your best, and the customers were happy too.")
  If(2,"A",1)
   ChangeSelfSwitch("A",0)
   250(bytes(0x04,0x08,0x6f,0x3a,0x0c,0x52,0x50,0x47,0x3a,0x3a,0x53,0x45,0x08,0x3a,0x0a,0x40,0x6e,0x61,0x6d,0x65,0x49,0x22,0x0a,0x49,0x74,0x65,0x6d,0x31,0x06,0x3a,0x06,0x45,0x54,0x3a,0x0b,0x40,0x70,0x69,0x74,0x63,0x68,0x69,0x69,0x3a,0x0c,0x40,0x76,0x6f,0x6c,0x75,0x6d,0x65,0x69,0x55))
   ChangeInventory_Item(310,0,0,3)
   0()
  EndIf()
  ChangeSwitch(2119,2119,1)
  EndEventProcessing()
  0()



EVENT   31
 PAGE   1
  // condition: switch 620 is ON
  241(bytes(0x04,0x08,0x6f,0x3a,0x0d,0x52,0x50,0x47,0x3a,0x3a,0x42,0x47,0x4d,0x08,0x3a,0x0a,0x40,0x6e,0x61,0x6d,0x65,0x49,0x22,0x14,0x64,0x75,0x6e,0x67,0x65,0x6f,0x6e,0x5f,0x75,0x72,0x61,0x79,0x61,0x6d,0x61,0x06,0x3a,0x06,0x45,0x54,0x3a,0x0c,0x40,0x76,0x6f,0x6c,0x75,0x6d,0x65,0x69,0x69,0x3a,0x0b,0x40,0x70,0x69,0x74,0x63,0x68,0x69,0x69))
  ShowMessageFace("bunnyslime_fc1",0,0,2,1)
  ShowMessage("\\n<Bunni>Bunni-hop. ♪ Bunni-hop. ♪ Bunni-bunni-hop. ♪")
  ShowMessageFace("",0,0,2,2)
  ShowMessage("\\n<Female Customer>Wah, so cuute. ♪")
  ShowMessageFace("usagi_fc1",1,0,2,3)
  ShowMessage("\\n<Barbun>Bunny-hop. ♪ Bunny-hop. ♪ Bunny-bunny-hop. ♪")
  ShowMessageFace("",0,0,2,4)
  ShowMessage("\\n<Old Man>UOoo... Boobies are bo-bouncing!")
  ShowMessageFace("",0,0,2,5)
  ShowMessage("The show was very exciting!")
  Wait(30)
  221()
  242(1)
  Wait(60)
  211(1)
  281(1)
  TeleportPlayer(0,624,63,27,6,2)
  ChangeSwitch(2119,2119,0)
  222()
  ShowMessageFace("",0,0,2,6)
  ShowMessage("\\n<Manager>You did your best, and the customers were happy too.")
  If(2,"A",1)
   ChangeSelfSwitch("A",0)
   250(bytes(0x04,0x08,0x6f,0x3a,0x0c,0x52,0x50,0x47,0x3a,0x3a,0x53,0x45,0x08,0x3a,0x0a,0x40,0x6e,0x61,0x6d,0x65,0x49,0x22,0x0a,0x49,0x74,0x65,0x6d,0x31,0x06,0x3a,0x06,0x45,0x54,0x3a,0x0b,0x40,0x70,0x69,0x74,0x63,0x68,0x69,0x69,0x3a,0x0c,0x40,0x76,0x6f,0x6c,0x75,0x6d,0x65,0x69,0x55))
   ChangeInventory_Item(412,0,0,3)
   0()
  EndIf()
  ChangeSwitch(2119,2119,1)
  EndEventProcessing()
  0()



EVENT   32
 PAGE   1
  // condition: switch 611 is ON
  0()



EVENT   33
 PAGE   1
  // condition: switch 611 is ON
  0()



EVENT   34
 PAGE   1
  // condition: switch 611 is ON
  0()



EVENT   35
 PAGE   1
  // condition: switch 611 is ON
  0()



EVENT   36
 PAGE   1
  // condition: switch 611 is ON
  0()



EVENT   37
 PAGE   1
  // condition: switch 612 is ON
  0()



EVENT   38
 PAGE   1
  // condition: switch 612 is ON
  0()



EVENT   39
 PAGE   1
  // condition: switch 612 is ON
  0()



EVENT   40
 PAGE   1
  // condition: switch 612 is ON
  0()



EVENT   41
 PAGE   1
  // condition: switch 613 is ON
  0()



EVENT   42
 PAGE   1
  // condition: switch 613 is ON
  0()



EVENT   43
 PAGE   1
  // condition: switch 613 is ON
  0()



EVENT   44
 PAGE   1
  // condition: switch 613 is ON
  0()



EVENT   45
 PAGE   1
  // condition: switch 614 is ON
  0()



EVENT   46
 PAGE   1
  // condition: switch 614 is ON
  0()



EVENT   47
 PAGE   1
  // condition: switch 614 is ON
  0()



EVENT   48
 PAGE   1
  // condition: switch 617 is ON
  0()



EVENT   49
 PAGE   1
  // condition: switch 616 is ON
  0()



EVENT   50
 PAGE   1
  // condition: switch 616 is ON
  0()



EVENT   51
 PAGE   1
  // condition: switch 616 is ON
  0()



EVENT   52
 PAGE   1
  // condition: switch 616 is ON
  0()



EVENT   53
 PAGE   1
  // condition: switch 617 is ON
  0()



EVENT   54
 PAGE   1
  // condition: switch 613 is ON
  0()



EVENT   55
 PAGE   1
  // condition: switch 613 is ON
  0()



EVENT   56
 PAGE   1
  // condition: switch 618 is ON
  0()



EVENT   57
 PAGE   1
  // condition: switch 618 is ON
  0()



EVENT   58
 PAGE   1
  // condition: switch 618 is ON
  0()



EVENT   59
 PAGE   1
  // condition: switch 620 is ON
  0()



EVENT   60
 PAGE   1
  // condition: switch 620 is ON
  0()



EVENT   61
 PAGE   1
  // condition: switch 611 is ON
  0()
 PAGE   2
  // condition: switch 611 is ON
  // condition: switch 31 is ON
  0()



EVENT   62
 PAGE   1
  // condition: switch 611 is ON
  0()



EVENT   63
 PAGE   1
  // condition: switch 611 is ON
  0()



EVENT   64
 PAGE   1
  // condition: switch 611 is ON
  0()



EVENT   65
 PAGE   1
  // condition: switch 611 is ON
  0()



EVENT   66
 PAGE   1
  // condition: switch 611 is ON
  0()



EVENT   67
 PAGE   1
  // condition: switch 613 is ON
  0()



EVENT   68
 PAGE   1
  // condition: switch 613 is ON
  0()



EVENT   69
 PAGE   1
  // condition: switch 613 is ON
  0()
