﻿


EVENT   1
 PAGE   1
  250(bytes(0x04,0x08,0x6f,0x3a,0x0c,0x52,0x50,0x47,0x3a,0x3a,0x53,0x45,0x08,0x3a,0x0a,0x40,0x6e,0x61,0x6d,0x65,0x49,0x22,0x09,0x4d,0x6f,0x76,0x65,0x06,0x3a,0x06,0x45,0x54,0x3a,0x0b,0x40,0x70,0x69,0x74,0x63,0x68,0x69,0x69,0x3a,0x0c,0x40,0x76,0x6f,0x6c,0x75,0x6d,0x65,0x69,0x55))
  TeleportPlayer(0,869,14,8,0,0)
  0()



EVENT   2
 PAGE   1
  250(bytes(0x04,0x08,0x6f,0x3a,0x0c,0x52,0x50,0x47,0x3a,0x3a,0x53,0x45,0x08,0x3a,0x0a,0x40,0x6e,0x61,0x6d,0x65,0x49,0x22,0x09,0x4d,0x6f,0x76,0x65,0x06,0x3a,0x06,0x45,0x54,0x3a,0x0b,0x40,0x70,0x69,0x74,0x63,0x68,0x69,0x69,0x3a,0x0c,0x40,0x76,0x6f,0x6c,0x75,0x6d,0x65,0x69,0x55))
  TeleportPlayer(0,869,14,8,0,0)
  0()



EVENT   3
 PAGE   1
  250(bytes(0x04,0x08,0x6f,0x3a,0x0c,0x52,0x50,0x47,0x3a,0x3a,0x53,0x45,0x08,0x3a,0x0a,0x40,0x6e,0x61,0x6d,0x65,0x49,0x22,0x09,0x4d,0x6f,0x76,0x65,0x06,0x3a,0x06,0x45,0x54,0x3a,0x0b,0x40,0x70,0x69,0x74,0x63,0x68,0x69,0x69,0x3a,0x0c,0x40,0x76,0x6f,0x6c,0x75,0x6d,0x65,0x69,0x55))
  TeleportPlayer(0,869,14,8,0,0)
  0()



EVENT   4
 PAGE   1
  250(bytes(0x04,0x08,0x6f,0x3a,0x0c,0x52,0x50,0x47,0x3a,0x3a,0x53,0x45,0x08,0x3a,0x0a,0x40,0x6e,0x61,0x6d,0x65,0x49,0x22,0x09,0x4d,0x6f,0x76,0x65,0x06,0x3a,0x06,0x45,0x54,0x3a,0x0b,0x40,0x70,0x69,0x74,0x63,0x68,0x69,0x69,0x3a,0x0c,0x40,0x76,0x6f,0x6c,0x75,0x6d,0x65,0x69,0x55))
  TeleportPlayer(0,869,14,8,0,0)
  0()



EVENT   5
 PAGE   1
  250(bytes(0x04,0x08,0x6f,0x3a,0x0c,0x52,0x50,0x47,0x3a,0x3a,0x53,0x45,0x08,0x3a,0x0a,0x40,0x6e,0x61,0x6d,0x65,0x49,0x22,0x09,0x4d,0x6f,0x76,0x65,0x06,0x3a,0x06,0x45,0x54,0x3a,0x0b,0x40,0x70,0x69,0x74,0x63,0x68,0x69,0x69,0x3a,0x0c,0x40,0x76,0x6f,0x6c,0x75,0x6d,0x65,0x69,0x55))
  TeleportPlayer(0,869,3,15,0,0)
  0()



EVENT   6
 PAGE   1
  250(bytes(0x04,0x08,0x6f,0x3a,0x0c,0x52,0x50,0x47,0x3a,0x3a,0x53,0x45,0x08,0x3a,0x0a,0x40,0x6e,0x61,0x6d,0x65,0x49,0x22,0x09,0x4d,0x6f,0x76,0x65,0x06,0x3a,0x06,0x45,0x54,0x3a,0x0b,0x40,0x70,0x69,0x74,0x63,0x68,0x69,0x69,0x3a,0x0c,0x40,0x76,0x6f,0x6c,0x75,0x6d,0x65,0x69,0x55))
  TeleportPlayer(0,869,3,15,0,0)
  0()



EVENT   7
 PAGE   1
  250(bytes(0x04,0x08,0x6f,0x3a,0x0c,0x52,0x50,0x47,0x3a,0x3a,0x53,0x45,0x08,0x3a,0x0a,0x40,0x6e,0x61,0x6d,0x65,0x49,0x22,0x09,0x4d,0x6f,0x76,0x65,0x06,0x3a,0x06,0x45,0x54,0x3a,0x0b,0x40,0x70,0x69,0x74,0x63,0x68,0x69,0x69,0x3a,0x0c,0x40,0x76,0x6f,0x6c,0x75,0x6d,0x65,0x69,0x55))
  TeleportPlayer(0,869,3,15,0,0)
  0()



EVENT   8
 PAGE   1
  250(bytes(0x04,0x08,0x6f,0x3a,0x0c,0x52,0x50,0x47,0x3a,0x3a,0x53,0x45,0x08,0x3a,0x0a,0x40,0x6e,0x61,0x6d,0x65,0x49,0x22,0x09,0x4d,0x6f,0x76,0x65,0x06,0x3a,0x06,0x45,0x54,0x3a,0x0b,0x40,0x70,0x69,0x74,0x63,0x68,0x69,0x69,0x3a,0x0c,0x40,0x76,0x6f,0x6c,0x75,0x6d,0x65,0x69,0x55))
  TeleportPlayer(0,869,45,7,0,0)
  0()



EVENT   9
 PAGE   1
  250(bytes(0x04,0x08,0x6f,0x3a,0x0c,0x52,0x50,0x47,0x3a,0x3a,0x53,0x45,0x08,0x3a,0x0a,0x40,0x6e,0x61,0x6d,0x65,0x49,0x22,0x09,0x4d,0x6f,0x76,0x65,0x06,0x3a,0x06,0x45,0x54,0x3a,0x0b,0x40,0x70,0x69,0x74,0x63,0x68,0x69,0x69,0x3a,0x0c,0x40,0x76,0x6f,0x6c,0x75,0x6d,0x65,0x69,0x55))
  TeleportPlayer(0,869,45,7,0,0)
  0()



EVENT   10
 PAGE   1
  250(bytes(0x04,0x08,0x6f,0x3a,0x0c,0x52,0x50,0x47,0x3a,0x3a,0x53,0x45,0x08,0x3a,0x0a,0x40,0x6e,0x61,0x6d,0x65,0x49,0x22,0x09,0x4d,0x6f,0x76,0x65,0x06,0x3a,0x06,0x45,0x54,0x3a,0x0b,0x40,0x70,0x69,0x74,0x63,0x68,0x69,0x69,0x3a,0x0c,0x40,0x76,0x6f,0x6c,0x75,0x6d,0x65,0x69,0x55))
  TeleportPlayer(0,869,29,31,0,0)
  0()



EVENT   11
 PAGE   1
  250(bytes(0x04,0x08,0x6f,0x3a,0x0c,0x52,0x50,0x47,0x3a,0x3a,0x53,0x45,0x08,0x3a,0x0a,0x40,0x6e,0x61,0x6d,0x65,0x49,0x22,0x09,0x4d,0x6f,0x76,0x65,0x06,0x3a,0x06,0x45,0x54,0x3a,0x0b,0x40,0x70,0x69,0x74,0x63,0x68,0x69,0x69,0x3a,0x0c,0x40,0x76,0x6f,0x6c,0x75,0x6d,0x65,0x69,0x55))
  TeleportPlayer(0,869,29,31,0,0)
  0()



EVENT   12
 PAGE   1
  250(bytes(0x04,0x08,0x6f,0x3a,0x0c,0x52,0x50,0x47,0x3a,0x3a,0x53,0x45,0x08,0x3a,0x0a,0x40,0x6e,0x61,0x6d,0x65,0x49,0x22,0x09,0x4d,0x6f,0x76,0x65,0x06,0x3a,0x06,0x45,0x54,0x3a,0x0b,0x40,0x70,0x69,0x74,0x63,0x68,0x69,0x69,0x3a,0x0c,0x40,0x76,0x6f,0x6c,0x75,0x6d,0x65,0x69,0x55))
  TeleportPlayer(0,869,29,31,0,0)
  0()



EVENT   13
 PAGE   1
  250(bytes(0x04,0x08,0x6f,0x3a,0x0c,0x52,0x50,0x47,0x3a,0x3a,0x53,0x45,0x08,0x3a,0x0a,0x40,0x6e,0x61,0x6d,0x65,0x49,0x22,0x09,0x4d,0x6f,0x76,0x65,0x06,0x3a,0x06,0x45,0x54,0x3a,0x0b,0x40,0x70,0x69,0x74,0x63,0x68,0x69,0x69,0x3a,0x0c,0x40,0x76,0x6f,0x6c,0x75,0x6d,0x65,0x69,0x55))
  TeleportPlayer(0,869,42,26,0,0)
  0()



EVENT   14
 PAGE   1
  250(bytes(0x04,0x08,0x6f,0x3a,0x0c,0x52,0x50,0x47,0x3a,0x3a,0x53,0x45,0x08,0x3a,0x0a,0x40,0x6e,0x61,0x6d,0x65,0x49,0x22,0x09,0x4d,0x6f,0x76,0x65,0x06,0x3a,0x06,0x45,0x54,0x3a,0x0b,0x40,0x70,0x69,0x74,0x63,0x68,0x69,0x69,0x3a,0x0c,0x40,0x76,0x6f,0x6c,0x75,0x6d,0x65,0x69,0x55))
  TeleportPlayer(0,869,42,26,0,0)
  0()



EVENT   15
 PAGE   1
  250(bytes(0x04,0x08,0x6f,0x3a,0x0c,0x52,0x50,0x47,0x3a,0x3a,0x53,0x45,0x08,0x3a,0x0a,0x40,0x6e,0x61,0x6d,0x65,0x49,0x22,0x09,0x4d,0x6f,0x76,0x65,0x06,0x3a,0x06,0x45,0x54,0x3a,0x0b,0x40,0x70,0x69,0x74,0x63,0x68,0x69,0x69,0x3a,0x0c,0x40,0x76,0x6f,0x6c,0x75,0x6d,0x65,0x69,0x55))
  TeleportPlayer(0,869,42,26,0,0)
  0()



EVENT   16
 PAGE   1
  ShowMessageFace("",0,0,2,1)
  ShowMessage("\\n<男>")
  ShowMessage("ひぃぃっ……もう、妖魔は消えたのか？")
  ShowMessage("妻は、妻はどこへ行った！？")
  0()



EVENT   17
 PAGE   1
  ShowMessageFace("",0,0,2,1)
  ShowMessage("\\n<老人>")
  ShowMessage("ここで祈っておったら助かった……")
  ShowMessage("まさか、神仏のご加護が！？")
  ShowMessageFace("daimeikai_fc1",0,0,2,2)
  ShowMessage("\\n<Daimyokai>")
  ShowMessage("……単に屋内にいたからだろ。")
  0()



EVENT   18
 PAGE   1
  ShowMessageFace("",0,0,2,1)
  ShowMessage("\\n<兵士>")
  ShowMessage("とりあえず、目に付く者を屋内に運び込んでいます。")
  ShowMessage("じきに応援が来るため、作業は迅速に進むでしょう。")
  ShowMessageFace("",0,0,2,2)
  ShowMessage("\\n<兵士>")
  ShowMessage("それにしても、たった三人の妖魔が……")
  ShowMessage("ここまでやるなんて……")
  ShowMessageFace("daimeikai_fc1",1,0,2,3)
  ShowMessage("\\n<Daimyokai>")
  ShowMessage("実質、たった一匹の仕業だ。")
  ShowMessage("あれを封じるのは、大仕事だぜ……")
  0()



EVENT   19
 PAGE   1
  ShowMessageFace("",0,0,2,1)
  ShowMessage("\\n<老人>")
  ShowMessage("う……うほほ……")
  If(2,"A",1)
   ChangeSelfSwitch("A",0)
   RunCommonEvent(531)
   0()
  EndIf()
  0()



EVENT   20
 PAGE   1
  ShowMessageFace("",0,0,2,1)
  ShowMessage("\\n<若者>")
  ShowMessage("あぅぅ……もっと……")
  If(2,"A",1)
   ChangeSelfSwitch("A",0)
   RunCommonEvent(531)
   0()
  EndIf()
  0()



EVENT   21
 PAGE   1
  ShowMessageFace("",0,0,2,1)
  ShowMessage("\\n<少年>")
  ShowMessage("はぅぅぅ……")
  If(2,"A",1)
   ChangeSelfSwitch("A",0)
   RunCommonEvent(531)
   0()
  EndIf()
  0()



EVENT   22
 PAGE   1
  ShowMessageFace("",0,0,2,1)
  ShowMessage("\\n<衛兵>")
  ShowMessage("う……ふぁぁ……")
  If(2,"A",1)
   ChangeSelfSwitch("A",0)
   RunCommonEvent(531)
   0()
  EndIf()
  0()



EVENT   23
 PAGE   1
  ShowMessageFace("",0,0,2,1)
  ShowMessage("\\n<若者>")
  ShowMessage("た、助かったのか……？")
  ShowMessage("でも、他のみんなは……")
  0()



EVENT   24
 PAGE   1
  ShowMessageFace("",0,0,2,1)
  ShowMessage("\\n<女性>")
  ShowMessage("大変な事になりましたが、落ち込んではいられません。")
  ShowMessage("今は、気を失った皆様を屋内に運ばないと。")
  0()



EVENT   25
 PAGE   1
  ShowMessageFace("",0,0,2,1)
  ShowMessage("\\n<老人>")
  ShowMessage("助かったのは、あの時に頑丈な家屋にいた少数のみ……")
  ShowMessage("これでは、この村は終わったも同然じゃ。")
  0()



EVENT   26
 PAGE   1
  ShowMessageFace("",0,0,2,1)
  ShowMessage("\\n<子供>")
  ShowMessage("お兄ちゃん達が、あの妖魔達を追っ払ったんだよね！？")
  ShowMessage("すごい！　かっこいい！")
  ShowMessageFace("rovissa_fc1",0,0,2,2)
  ShowMessage("\\n<Rovissa>")
  ShowMessage("でも、この村を守れなかったわ……")
  ShowMessage("あの連中、このままじゃ済まさないから。")
  0()



EVENT   27
 PAGE   1
  ShowMessageFace("",0,0,2,1)
  ShowMessage("\\n<巫女>")
  ShowMessage("あなた方のお働きがなければ、村は全滅でした。")
  ShowMessage("心より感謝いたします……")
  ShowMessageFace("lars_fc01",0,0,2,2)
  ShowMessage("\\n<Lars>")
  ShowMessage("……………………")
  ShowMessageFace("",0,0,2,3)
  ShowMessage("感謝されているが、素直には喜べない。")
  ShowMessage("多くの犠牲を出してしまった責任を感じてしまう……")
  0()



EVENT   28
 PAGE   1
  ShowMessageFace("",0,0,2,1)
  ShowMessage("\\n<兵士>")
  ShowMessage("よいしょっと……")
  ShowMessage("収容場所は、ここだけじゃとても足りないな。")
  0()



EVENT   29
 PAGE   1
  250(bytes(0x04,0x08,0x6f,0x3a,0x0c,0x52,0x50,0x47,0x3a,0x3a,0x53,0x45,0x08,0x3a,0x0a,0x40,0x6e,0x61,0x6d,0x65,0x49,0x22,0x0a,0x49,0x74,0x65,0x6d,0x31,0x06,0x3a,0x06,0x45,0x54,0x3a,0x0b,0x40,0x70,0x69,0x74,0x63,0x68,0x69,0x69,0x3a,0x0c,0x40,0x76,0x6f,0x6c,0x75,0x6d,0x65,0x69,0x55))
  ChangeSelfSwitch("A",0)
  ChangeInventory_Item(9,0,0,1)
  0()
 PAGE   2
  // condition: self-switch A is ON
  0()



EVENT   30
 PAGE   1
  250(bytes(0x04,0x08,0x6f,0x3a,0x0c,0x52,0x50,0x47,0x3a,0x3a,0x53,0x45,0x08,0x3a,0x0a,0x40,0x6e,0x61,0x6d,0x65,0x49,0x22,0x0a,0x49,0x74,0x65,0x6d,0x31,0x06,0x3a,0x06,0x45,0x54,0x3a,0x0b,0x40,0x70,0x69,0x74,0x63,0x68,0x69,0x69,0x3a,0x0c,0x40,0x76,0x6f,0x6c,0x75,0x6d,0x65,0x69,0x55))
  ChangeSelfSwitch("A",0)
  ChangeInventory_Item(77,0,0,1)
  0()
 PAGE   2
  // condition: self-switch A is ON
  0()



EVENT   31
 PAGE   1
  250(bytes(0x04,0x08,0x6f,0x3a,0x0c,0x52,0x50,0x47,0x3a,0x3a,0x53,0x45,0x08,0x3a,0x0a,0x40,0x6e,0x61,0x6d,0x65,0x49,0x22,0x0a,0x49,0x74,0x65,0x6d,0x31,0x06,0x3a,0x06,0x45,0x54,0x3a,0x0b,0x40,0x70,0x69,0x74,0x63,0x68,0x69,0x69,0x3a,0x0c,0x40,0x76,0x6f,0x6c,0x75,0x6d,0x65,0x69,0x55))
  ChangeSelfSwitch("A",0)
  ChangeInventory_Item(3,0,0,1)
  0()
 PAGE   2
  // condition: self-switch A is ON
  0()



EVENT   32
 PAGE   1
  250(bytes(0x04,0x08,0x6f,0x3a,0x0c,0x52,0x50,0x47,0x3a,0x3a,0x53,0x45,0x08,0x3a,0x0a,0x40,0x6e,0x61,0x6d,0x65,0x49,0x22,0x0a,0x49,0x74,0x65,0x6d,0x31,0x06,0x3a,0x06,0x45,0x54,0x3a,0x0b,0x40,0x70,0x69,0x74,0x63,0x68,0x69,0x69,0x3a,0x0c,0x40,0x76,0x6f,0x6c,0x75,0x6d,0x65,0x69,0x55))
  ChangeSelfSwitch("A",0)
  ChangeInventory_Item(7,0,0,1)
  0()
 PAGE   2
  // condition: self-switch A is ON
  0()



EVENT   33
 PAGE   1
  250(bytes(0x04,0x08,0x6f,0x3a,0x0c,0x52,0x50,0x47,0x3a,0x3a,0x53,0x45,0x08,0x3a,0x0a,0x40,0x6e,0x61,0x6d,0x65,0x49,0x22,0x0a,0x49,0x74,0x65,0x6d,0x31,0x06,0x3a,0x06,0x45,0x54,0x3a,0x0b,0x40,0x70,0x69,0x74,0x63,0x68,0x69,0x69,0x3a,0x0c,0x40,0x76,0x6f,0x6c,0x75,0x6d,0x65,0x69,0x55))
  ChangeSelfSwitch("A",0)
  ChangeInventory_Item(32,0,0,1)
  0()
 PAGE   2
  // condition: self-switch A is ON
  0()



EVENT   34
 PAGE   1
  250(bytes(0x04,0x08,0x6f,0x3a,0x0c,0x52,0x50,0x47,0x3a,0x3a,0x53,0x45,0x08,0x3a,0x0a,0x40,0x6e,0x61,0x6d,0x65,0x49,0x22,0x0a,0x49,0x74,0x65,0x6d,0x31,0x06,0x3a,0x06,0x45,0x54,0x3a,0x0b,0x40,0x70,0x69,0x74,0x63,0x68,0x69,0x69,0x3a,0x0c,0x40,0x76,0x6f,0x6c,0x75,0x6d,0x65,0x69,0x55))
  ChangeSelfSwitch("A",0)
  ChangeInventory_Item(81,0,0,1)
  0()
 PAGE   2
  // condition: self-switch A is ON
  0()



EVENT   35
 PAGE   1
  ShowMessageFace("",0,0,2,1)
  ShowMessage("\\n<若者>")
  ShowMessage("あぅぅ……もっと……")
  If(2,"A",1)
   ChangeSelfSwitch("A",0)
   RunCommonEvent(531)
   0()
  EndIf()
  0()



EVENT   36
 PAGE   1
  ShowMessageFace(binary"",0,0,2,1)
  ShowMessage("\\n<夢魔>")
  ShowMessage("体が……痺れて……")
  0()



EVENT   37
 PAGE   1
  ShowMessageFace(binary"",0,0,2,1)
  ShowMessage("\\n<兵士>")
  ShowMessage("この夢魔達……目が覚めたら、どうなるんだろう。")
  ShowMessage("俺達まで襲われたりとか……ドキドキ。")
  ShowMessageFace("daimeikai_fc1",0,0,2,2)
  ShowMessage("\\n<Daimyokai>")
  ShowMessage("俺様特製の、上級あやかし封印符だ。")
  ShowMessage("百年以上は封じられるぜ。")
  0()



EVENT   38
 PAGE   1
  ShowMessageFace(binary"",0,0,2,1)
  ShowMessage("\\n<夢魔>")
  ShowMessage("うふ、うふふっ……")
  0()



EVENT   39
 PAGE   1
  ShowMessageFace(binary"",0,0,2,1)
  ShowMessage("\\n<若者>")
  ShowMessage("……………………")
  If(2,"A",1)
   ChangeSelfSwitch("A",0)
   RunCommonEvent(531)
   0()
  EndIf()
  0()



EVENT   40
 PAGE   1
  ShowMessageFace(binary"",0,0,2,1)
  ShowMessage("\\n<夢魔>")
  ShowMessage("もっと吸いたいのに……")
  0()



EVENT   41
 PAGE   1
  ShowMessageFace(binary"",0,0,2,1)
  ShowMessage("\\n<夢魔>")
  ShowMessage("もっと、精を……")
  0()



EVENT   42
 PAGE   1
  ShowMessageFace(binary"",0,0,2,1)
  ShowMessage("\\n<老人>")
  ShowMessage("……………………")
  0()



EVENT   43
 PAGE   1
  ShowMessageFace(binary"",0,0,2,1)
  ShowMessage("\\n<神父>")
  ShowMessage("他の村でも見てきたのですが……")
  ShowMessage("襲われた犠牲者は、最初は淫らな寝言を呟いているのです。")
  ShowMessageFace(binary"",0,0,2,2)
  ShowMessage("\\n<神父>")
  ShowMessage("しかし次第に眠りが深くなり、ついには昏睡状態になる……")
  ShowMessage("私が見た者達は、みなそうでした。")
  0()



EVENT   44
 PAGE   1
  ShowMessageFace(binary"",0,0,2,1)
  ShowMessage("\\n<男>")
  ShowMessage("もう、出ねぇよ……")
  If(2,"A",1)
   ChangeSelfSwitch("A",0)
   RunCommonEvent(531)
   0()
  EndIf()
  0()



EVENT   45
 PAGE   1
  ShowMessageFace(binary"",0,0,2,1)
  ShowMessage("\\n<老人>")
  ShowMessage("うぅぅぅぅ……")
  If(2,"A",1)
   ChangeSelfSwitch("A",0)
   RunCommonEvent(531)
   0()
  EndIf()
  0()



EVENT   46
 PAGE   1
  ShowMessageFace(binary"",0,0,2,1)
  ShowMessage("\\n<村人>")
  ShowMessage("ふぁぁぁぁ……")
  If(2,"A",1)
   ChangeSelfSwitch("A",0)
   RunCommonEvent(531)
   0()
  EndIf()
  0()



EVENT   47
 PAGE   1
  ShowMessageFace(binary"",0,0,2,1)
  ShowMessage("\\n<夢魔>")
  ShowMessage("夢の中に……もっと……")
  0()
