﻿


EVENT   1
 PAGE   1
  // condition: switch 4 is ON
  0()
 PAGE   2
  // condition: switch 5 is ON
  0()



EVENT   2
 PAGE   1
  0()



EVENT   3
 PAGE   1
  0()



EVENT   4
 PAGE   1
  0()



EVENT   5
 PAGE   1
  0()



EVENT   6
 PAGE   1
  0()



EVENT   7
 PAGE   1
  0()



EVENT   8
 PAGE   1
  0()



EVENT   9
 PAGE   1
  0()



EVENT   10
 PAGE   1
  0()



EVENT   11
 PAGE   1
  0()



EVENT   12
 PAGE   1
  0()



EVENT   13
 PAGE   1
  0()



EVENT   14
 PAGE   1
  0()
 PAGE   2
  // condition: switch 38 is ON
  0()



EVENT   16
 PAGE   1
  241(bytes(0x04,0x08,0x6f,0x3a,0x0d,0x52,0x50,0x47,0x3a,0x3a,0x42,0x47,0x4d,0x08,0x3a,0x0a,0x40,0x6e,0x61,0x6d,0x65,0x49,0x22,0x0b,0x66,0x69,0x65,0x6c,0x64,0x33,0x06,0x3a,0x06,0x45,0x54,0x3a,0x0c,0x40,0x76,0x6f,0x6c,0x75,0x6d,0x65,0x69,0x69,0x3a,0x0b,0x40,0x70,0x69,0x74,0x63,0x68,0x69,0x69))
  Wait(60)
  If(0,4,0)
   PictureDisplay(5,"80_alice_st71",0,0,0,0,100,100,0,0)
   PictureMove(5,null,0,0,0,0,100,100,255,0,30,true)
   ShowMessageFace("alice_fc5",0,0,2,1)
   ShowMessage("\\n<Alice>")
   ShowMessage("魔城トゥーロマンサを臨む位置まで来たな……")
   ShowMessage("これより、決戦を開始するか？")
   0()
  EndIf()
  If(0,5,0)
   PictureDisplay(5,"80_iriasu_st38",0,0,0,0,100,100,0,0)
   PictureMove(5,null,0,0,0,0,100,100,255,0,30,true)
   ShowMessageFace("iriasu_fc4",7,0,2,2)
   ShowMessage("\\n<Ilias>")
   ShowMessage("魔城トゥーロマンサが見えますね……")
   ShowMessage("さて、決戦を開始しますか？")
   0()
  EndIf()
  ShowChoices(strings("まだ準備する","決戦を開始する"),2)
  IfPlayerPicksChoice(0,null)
   If(0,4,0)
    ShowMessageFace("alice_fc5",0,0,2,3)
    ShowMessage("\\n<Alice>")
    ShowMessage("そうか……では、いったん引き返すぞ。")
    PictureClear(5)
    0()
   EndIf()
   If(0,5,0)
    ShowMessageFace("iriasu_fc4",2,0,2,4)
    ShowMessage("\\n<Ilias>")
    ShowMessage("分かりました、いったん退きましょう。")
    PictureClear(5)
    0()
   EndIf()
   221()
   Wait(60)
   211(1)
   TeleportPlayer(0,2,328,187,2,2)
   222()
   EndEventProcessing()
   0()
  IfPlayerPicksChoice(1,null)
   0()
  404()
  ChangeVariable(1002,1002,0,0,43)
  ChangeSwitch(100,100,0)
  ChangeSwitch(81,81,0)
  241(bytes(0x04,0x08,0x6f,0x3a,0x0d,0x52,0x50,0x47,0x3a,0x3a,0x42,0x47,0x4d,0x08,0x3a,0x0a,0x40,0x6e,0x61,0x6d,0x65,0x49,0x22,0x0a,0x74,0x69,0x74,0x6c,0x65,0x06,0x3a,0x06,0x45,0x54,0x3a,0x0c,0x40,0x76,0x6f,0x6c,0x75,0x6d,0x65,0x69,0x69,0x3a,0x0b,0x40,0x70,0x69,0x74,0x63,0x68,0x69,0x69))
  PictureDisplay(5,"80_ruka_st01",0,0,-100,0,75,75,0,0)
  PictureDisplay(6,"80_byakunen_st01",0,0,15,0,100,100,0,0)
  PictureDisplay(7,"80_lawrat_st01",0,0,200,20,95,95,0,0)
  PictureDisplay(8,"80_lars_st11",0,0,-220,150,90,90,0,0)
  PictureDisplay(9,"80_nobissa_st01",0,0,-50,150,90,90,0,0)
  PictureDisplay(10,"80_kazuya_st01",0,0,160,150,75,75,0,0)
  PictureDisplay(11,"80_rest_st01",0,0,250,0,100,100,0,0)
  PictureMove(5,null,0,0,-100,0,75,75,255,0,30,false)
  PictureMove(6,null,0,0,15,0,100,100,255,0,30,false)
  PictureMove(7,null,0,0,200,20,95,95,255,0,30,false)
  PictureMove(8,null,0,0,-220,150,90,90,255,0,30,false)
  PictureMove(9,null,0,0,-50,150,90,90,255,0,30,false)
  PictureMove(10,null,0,0,160,150,75,75,255,0,30,false)
  PictureMove(11,null,0,0,250,0,100,100,255,0,30,true)
  ShowMessageFace("ruka_fc1",0,0,2,5)
  ShowMessage("\\n<Luka>")
  ShowMessage("それじゃあ、いよいよ決戦だ！")
  ShowMessage("さあ、作戦を開始しよう！")
  ShowMessageFace("kazuya_fc1",0,0,2,6)
  ShowMessage("\\n<Kazuya>")
  ShowMessage("さて、気合いを入れるか……")
  ShowMessageFace("rest_fc1",0,0,2,7)
  ShowMessage("\\n<Lest>")
  ShowMessage("すでに準備は万端だ！")
  ShowMessageFace("byakunen_fc1",0,0,2,8)
  ShowMessage("\\n<Hakunen>")
  ShowMessage("緊張しますが……がんばります！")
  ShowMessageFace("",0,0,2,9)
  ShowMessage("魔城を臨み、僕達は気勢を上げる。")
  ShowMessage("今ここに、七人の勇者が揃い踏みしたのだ――")
  ShowMessageFace("sonia_fc1",3,0,2,10)
  ShowMessage("\\n<Sonya>")
  ShowMessage("でも……こうして七人揃うと、壮観よね。")
  ShowMessage("どんな敵も、怖くないって感じ！")
  If(0,4,0)
   ShowMessageFace("alice_fc5",0,0,2,11)
   ShowMessage("\\n<Alice>")
   ShowMessage("快楽で総崩れになりそうだがな……")
   0()
  EndIf()
  If(0,5,0)
   ShowMessageFace("iriasu_fc4",2,0,2,12)
   ShowMessage("\\n<Ilias>")
   ShowMessage("快楽で総崩れになりそうですけどね……")
   0()
  EndIf()
  Wait(30)
  250(bytes(0x04,0x08,0x6f,0x3a,0x0c,0x52,0x50,0x47,0x3a,0x3a,0x53,0x45,0x08,0x3a,0x0a,0x40,0x6e,0x61,0x6d,0x65,0x49,0x22,0x0a,0x57,0x69,0x6e,0x64,0x36,0x06,0x3a,0x06,0x45,0x54,0x3a,0x0b,0x40,0x70,0x69,0x74,0x63,0x68,0x69,0x69,0x3a,0x0c,0x40,0x76,0x6f,0x6c,0x75,0x6d,0x65,0x69,0x69))
  PictureDisplay(12,"iv_ahe",0,0,300,0,100,100,0,0)
  PictureMove(12,null,0,0,25,300,40,40,255,0,60,true)
  250(bytes(0x04,0x08,0x6f,0x3a,0x0c,0x52,0x50,0x47,0x3a,0x3a,0x53,0x45,0x08,0x3a,0x0a,0x40,0x6e,0x61,0x6d,0x65,0x49,0x22,0x0d,0x54,0x68,0x75,0x6e,0x64,0x65,0x72,0x36,0x06,0x3a,0x06,0x45,0x54,0x3a,0x0b,0x40,0x70,0x69,0x74,0x63,0x68,0x69,0x69,0x3a,0x0c,0x40,0x76,0x6f,0x6c,0x75,0x6d,0x65,0x69,0x69))
  224(bytes(0x04,0x08,0x75,0x3a,0x0a,0x43,0x6f,0x6c,0x6f,0x72,0x25,0x00,0x00,0x00,0x00,0x00,0xe0,0x6f,0x40,0x00,0x00,0x00,0x00,0x00,0xe0,0x6f,0x40,0x00,0x00,0x00,0x00,0x00,0xe0,0x6f,0x40,0x00,0x00,0x00,0x00,0x00,0xe0,0x6f,0x40),60,true)
  Wait(90)
  ShowMessageFace("rovissa_fc1",0,0,2,13)
  ShowMessage("\\n<Rovissa>")
  ShowMessage("（ラルスはアヘったりしないし……）")
  ShowMessageFace("rejeo_fc1",0,0,2,14)
  ShowMessage("\\n<Rigeo>")
  ShowMessage("（ロウラットはアヘったりしないよね……）")
  ShowMessageFace("magatu_fc1",1,0,2,15)
  ShowMessage("\\n<Magatsu>")
  ShowMessage("（白念のアヘる顔を見たいのう……）")
  ShowMessageFace("tarsa_fc2",1,0,2,16)
  ShowMessage("\\n<Tarsa>")
  ShowMessage("（みんな、おいしそう……）")
  PictureClear(6)
  PictureClear(7)
  PictureClear(8)
  PictureClear(9)
  PictureClear(10)
  PictureClear(11)
  PictureClear(12)
  If(0,4,0)
   PictureDisplay(5,"80_alice_st73",0,0,0,0,100,100,255,0)
   ShowMessageFace("alice_fc5",2,0,2,17)
   ShowMessage("\\n<Alice>")
   ShowMessage("さて……敵の中には、夢魔も大勢いるはずだ。")
   ShowMessage("夢魔には快楽しか通じないこと、よく覚えておけ。")
   ShowMessageFace("alice_fc5",2,0,2,18)
   ShowMessage("\\n<Alice>")
   ShowMessage("ところで七人の勇者達よ……本来の世界で、")
   ShowMessage("セックスバトルで戦ってきた者はどれくらいいる？")
   0()
  EndIf()
  If(0,5,0)
   PictureDisplay(5,"80_iriasu_st38",0,0,0,0,100,100,255,0)
   ShowMessageFace("iriasu_fc4",7,0,2,19)
   ShowMessage("\\n<Ilias>")
   ShowMessage("さて……敵の中には、夢魔も大勢いるはずです。")
   ShowMessage("夢魔には快楽しか通じないこと、すでに承知ですね？")
   ShowMessageFace("iriasu_fc4",7,0,2,20)
   ShowMessage("\\n<Ilias>")
   ShowMessage("ところで、七人の勇者達……本来の世界において、")
   ShowMessage("セックスバトルで戦ってきた者は手を挙げなさい。")
   0()
  EndIf()
  PictureDisplay(6,"80_lawrat_st01",0,0,-200,50,100,100,255,0)
  PictureDisplay(5,"80_lars_st11",0,0,0,30,95,95,255,0)
  PictureDisplay(7,"80_nobissa_st01",0,0,200,30,95,95,255,0)
  ShowMessageFace("lars_fc01",0,0,2,21)
  ShowMessage("\\n<Lars>")
  ShowMessage("……………………")
  ShowMessageFace("lawrat_fc1",0,0,2,22)
  ShowMessage("\\n<Lauratt>")
  ShowMessage("……………………")
  ShowMessageFace("nobissa_fc1",0,0,2,23)
  ShowMessage("\\n<Novissa>")
  ShowMessage("……………………")
  ShowMessageFace("",0,0,2,24)
  ShowMessage("ラルス、ロウラット、ノビッサが手を挙げた――")
  If(0,4,0)
   ShowMessageFace("alice_fc5",0,0,2,25)
   ShowMessage("\\n<Alice>")
   ShowMessage("三人……しかも、揃って無言系の連中か。")
   ShowMessage("何か因果でもあるのか？")
   ShowMessageFace("alice_fc5",2,0,2,26)
   ShowMessage("\\n<Alice>")
   ShowMessage("ともかく、残る四人は夢魔に対しては無力。")
   ShowMessage("ゆめゆめ、忘れんようにな。")
   0()
  EndIf()
  If(0,5,0)
   ShowMessageFace("iriasu_fc4",2,0,2,27)
   ShowMessage("\\n<Ilias>")
   ShowMessage("三人……しかも、揃って無言系の者達ですか。")
   ShowMessage("何か因果でもあるのですかね？")
   ShowMessageFace("iriasu_fc4",7,0,2,28)
   ShowMessage("\\n<Ilias>")
   ShowMessage("ともかく、残る四人は夢魔に対しては無力。")
   ShowMessage("ゆめゆめ、忘れないように。")
   0()
  EndIf()
  PictureClear(5)
  PictureClear(6)
  PictureClear(7)
  ShowMessageFace("ruka_fc1",0,0,2,29)
  ShowMessage("\\n<Luka>")
  ShowMessage("夢魔が相手だとサポートしか出来ないのか。")
  ShowMessage("なんだか歯がゆいなぁ……")
  ShowMessageFace("kazuya_fc1",0,0,2,30)
  ShowMessage("\\n<Kazuya>")
  ShowMessage("こればっかりは、僕も専門外だ……")
  ShowMessage("僕の世界じゃ、挿れたらアウトみたいなもんだし……")
  ShowMessageFace("rejeo_fc1",0,0,2,31)
  ShowMessage("\\n<Rigeo>")
  ShowMessage("まあその分、私達ががんばるから。")
  ShowMessage("夢魔相手なら、私を呼んで。")
  241(bytes(0x04,0x08,0x6f,0x3a,0x0d,0x52,0x50,0x47,0x3a,0x3a,0x42,0x47,0x4d,0x08,0x3a,0x0a,0x40,0x6e,0x61,0x6d,0x65,0x49,0x22,0x0a,0x6b,0x69,0x6b,0x69,0x34,0x06,0x3a,0x06,0x45,0x54,0x3a,0x0c,0x40,0x76,0x6f,0x6c,0x75,0x6d,0x65,0x69,0x69,0x3a,0x0b,0x40,0x70,0x69,0x74,0x63,0x68,0x69,0x69))
  If(0,4,0)
   ShowMessageFace("alice_fc5",0,0,2,32)
   ShowMessage("\\n<Alice>")
   ShowMessage("……それでは、作戦決行と行こう。")
   ShowMessage("魔王ギルゴーンよ、貴様の役割は分かっているな？")
   0()
  EndIf()
  If(0,5,0)
   ShowMessageFace("iriasu_fc4",0,0,2,33)
   ShowMessage("\\n<Ilias>")
   ShowMessage("……それでは、作戦を決行しましょう。")
   ShowMessage("魔王ギルゴーン、貴方の役割は分かっていますね？")
   0()
  EndIf()
  PictureDisplay(5,"80_gilgoon_st01",0,0,0,0,100,100,0,0)
  PictureMove(5,null,0,0,0,0,100,100,255,0,30,true)
  ShowMessageFace("gilgoon_fc1",0,0,2,34)
  ShowMessage("\\n<Gilgone>")
  ShowMessage("了解しているが……貴様ら、ひとつ忘れていないか？")
  ShowMessage("あの魔城は、元はといえば我の魔王城なのだぞ。")
  ShowMessageFace("gilgoon_fc1",0,0,2,35)
  ShowMessage("\\n<Gilgone>")
  ShowMessage("つまり貴様らは、我が城を我が手で破壊せよと……")
  ShowMessage("全く、なかなか酷い事をさせおる……")
  PictureClear(5)
  Wait(30)
  205(3,bytes(0x04,0x08,0x6f,0x3a,0x13,0x52,0x50,0x47,0x3a,0x3a,0x4d,0x6f,0x76,0x65,0x52,0x6f,0x75,0x74,0x65,0x09,0x3a,0x0c,0x40,0x72,0x65,0x70,0x65,0x61,0x74,0x46,0x3a,0x0f,0x40,0x73,0x6b,0x69,0x70,0x70,0x61,0x62,0x6c,0x65,0x46,0x3a,0x0a,0x40,0x77,0x61,0x69,0x74,0x54,0x3a,0x0a,0x40,0x6c,0x69,0x73,0x74,0x5b,0x09,0x6f,0x3a,0x15,0x52,0x50,0x47,0x3a,0x3a,0x4d,0x6f,0x76,0x65,0x43,0x6f,0x6d,0x6d,0x61,0x6e,0x64,0x07,0x3a,0x0a,0x40,0x63,0x6f,0x64,0x65,0x69,0x06,0x3a,0x10,0x40,0x70,0x61,0x72,0x61,0x6d,0x65,0x74,0x65,0x72,0x73,0x5b,0x00,0x6f,0x3b,0x0a,0x07,0x3b,0x0b,0x69,0x06,0x3b,0x0c,0x5b,0x00,0x6f,0x3b,0x0a,0x07,0x3b,0x0b,0x69,0x08,0x3b,0x0c,0x5b,0x00,0x6f,0x3b,0x0a,0x07,0x3b,0x0b,0x69,0x00,0x3b,0x0c,0x5b,0x00))
  PictureDisplay(5,"80_rovissa_st01",0,0,0,0,100,100,0,0)
  PictureMove(5,null,0,0,0,0,100,100,255,0,30,true)
  ShowMessageFace("rovissa_fc1",0,0,2,36)
  ShowMessage("\\n<Rovissa>")
  ShowMessage("また建て直せばいいじゃない。")
  ShowMessage("ほら、私の力を注ぎ込むわよ！")
  PictureClear(5)
  Wait(30)
  212(14,42,false)
  ShowMessageFace("",0,0,2,37)
  ShowMessage("ルヴィッサは、ギルゴーンの背中に掌を当てた！")
  ShowMessage("夢魔に対抗する力が流れ込んでいく――")
  PictureDisplay(5,"80_gilgoon_st01",0,0,0,0,100,100,0,0)
  PictureMove(5,null,0,0,0,0,100,100,255,0,30,true)
  ShowMessageFace("gilgoon_fc1",0,0,2,38)
  ShowMessage("\\n<Gilgone>")
  ShowMessage("そういうわけでは……む、おお、来たぞ……！")
  ShowMessage("これなら、現実と夢が混じり合ったあの城をも――")
  PictureClear(5)
  Wait(30)
  250(bytes(0x04,0x08,0x6f,0x3a,0x0c,0x52,0x50,0x47,0x3a,0x3a,0x53,0x45,0x08,0x3a,0x0a,0x40,0x6e,0x61,0x6d,0x65,0x49,0x22,0x0b,0x4d,0x61,0x67,0x69,0x63,0x32,0x06,0x3a,0x06,0x45,0x54,0x3a,0x0b,0x40,0x70,0x69,0x74,0x63,0x68,0x69,0x69,0x3a,0x0c,0x40,0x76,0x6f,0x6c,0x75,0x6d,0x65,0x69,0x55))
  205(14,bytes(0x04,0x08,0x6f,0x3a,0x13,0x52,0x50,0x47,0x3a,0x3a,0x4d,0x6f,0x76,0x65,0x52,0x6f,0x75,0x74,0x65,0x09,0x3a,0x0c,0x40,0x72,0x65,0x70,0x65,0x61,0x74,0x46,0x3a,0x0f,0x40,0x73,0x6b,0x69,0x70,0x70,0x61,0x62,0x6c,0x65,0x46,0x3a,0x0a,0x40,0x77,0x61,0x69,0x74,0x54,0x3a,0x0a,0x40,0x6c,0x69,0x73,0x74,0x5b,0x08,0x6f,0x3a,0x15,0x52,0x50,0x47,0x3a,0x3a,0x4d,0x6f,0x76,0x65,0x43,0x6f,0x6d,0x6d,0x61,0x6e,0x64,0x07,0x3a,0x0a,0x40,0x63,0x6f,0x64,0x65,0x69,0x16,0x3a,0x10,0x40,0x70,0x61,0x72,0x61,0x6d,0x65,0x74,0x65,0x72,0x73,0x5b,0x00,0x6f,0x3b,0x0a,0x07,0x3b,0x0b,0x69,0x2e,0x3b,0x0c,0x5b,0x07,0x49,0x22,0x18,0x43,0x6f,0x6c,0x6c,0x61,0x62,0x6f,0x72,0x61,0x74,0x69,0x6f,0x6e,0x30,0x33,0x5f,0x63,0x69,0x70,0x06,0x3a,0x06,0x45,0x54,0x69,0x0b,0x6f,0x3b,0x0a,0x07,0x3b,0x0b,0x69,0x00,0x3b,0x0c,0x5b,0x00))
  ShowMessageFace("gilgoon_fc1",0,0,2,39)
  ShowMessage("\\n<Gilgone>")
  ShowMessage("夢魔どもに、我が力を思い知らせてくれよう！")
  ShowMessage("――降り注げ、メテオエクリプス！！")
  PictureDisplay(5,"iv_castle1",0,0,0,0,100,100,0,0)
  PictureMove(5,null,0,0,0,0,100,100,255,0,30,true)
  212(4,544,true)
  225(9,9,60,true)
  ShowMessageFace("ruka_fc1",0,0,2,40)
  ShowMessage("\\n<Luka>")
  ShowMessage("うわぁっ！　す、すごい――")
  If(0,4,0)
   ShowMessageFace("alice_fc5",1,0,2,41)
   ShowMessage("\\n<Alice>")
   ShowMessage("予想以上の破壊力だな……")
   ShowMessage("これでは、中の連中もたまったものではあるまい。")
   0()
  EndIf()
  If(0,5,0)
   ShowMessageFace("iriasu_fc4",0,0,2,42)
   ShowMessage("\\n<Ilias>")
   ShowMessage("予想以上の破壊力ですね……")
   ShowMessage("これでは、中の連中もたまったものではないでしょう。")
   0()
  EndIf()
  ShowMessageFace("",0,0,2,43)
  ShowMessage("ギルゴーンの放った一撃は、魔城を揺るがした。")
  ShowMessage("塔が崩れ、城壁は砕け――あちこちから白煙が上がっている。")
  ShowMessageFace("gilgoon_fc1",0,0,2,44)
  ShowMessage("\\n<Gilgone>")
  ShowMessage("はーっはっはっは！　もう一発！")
  ShowMessage("粉砕せよ、メテオエクリプス！！")
  212(4,544,true)
  225(9,9,60,true)
  ShowMessageFace("",0,0,2,45)
  ShowMessage("さらに隕石の第二撃が、魔城を直撃した。")
  ShowMessage("城の損害は広がり、左方の城壁は完全に崩れてしまう――")
  205(14,bytes(0x04,0x08,0x6f,0x3a,0x13,0x52,0x50,0x47,0x3a,0x3a,0x4d,0x6f,0x76,0x65,0x52,0x6f,0x75,0x74,0x65,0x09,0x3a,0x0c,0x40,0x72,0x65,0x70,0x65,0x61,0x74,0x46,0x3a,0x0f,0x40,0x73,0x6b,0x69,0x70,0x70,0x61,0x62,0x6c,0x65,0x46,0x3a,0x0a,0x40,0x77,0x61,0x69,0x74,0x54,0x3a,0x0a,0x40,0x6c,0x69,0x73,0x74,0x5b,0x08,0x6f,0x3a,0x15,0x52,0x50,0x47,0x3a,0x3a,0x4d,0x6f,0x76,0x65,0x43,0x6f,0x6d,0x6d,0x61,0x6e,0x64,0x07,0x3a,0x0a,0x40,0x63,0x6f,0x64,0x65,0x69,0x18,0x3a,0x10,0x40,0x70,0x61,0x72,0x61,0x6d,0x65,0x74,0x65,0x72,0x73,0x5b,0x00,0x6f,0x3b,0x0a,0x07,0x3b,0x0b,0x69,0x2e,0x3b,0x0c,0x5b,0x07,0x49,0x22,0x18,0x43,0x6f,0x6c,0x6c,0x61,0x62,0x6f,0x72,0x61,0x74,0x69,0x6f,0x6e,0x30,0x33,0x5f,0x63,0x69,0x70,0x06,0x3a,0x06,0x45,0x54,0x69,0x08,0x6f,0x3b,0x0a,0x07,0x3b,0x0b,0x69,0x00,0x3b,0x0c,0x5b,0x00))
  PictureMove(5,null,0,0,0,0,100,100,0,0,30,true)
  PictureClear(5)
  If(0,4,0)
   ShowMessageFace("alice_fc5",2,0,2,46)
   ShowMessage("\\n<Alice>")
   ShowMessage("ギルゴーン、隕石はあと何発落とせる？")
   0()
  EndIf()
  If(0,5,0)
   ShowMessageFace("iriasu_fc4",7,0,2,47)
   ShowMessage("\\n<Ilias>")
   ShowMessage("ギルゴーン、隕石はあと何発落とせますか？")
   0()
  EndIf()
  ShowMessageFace("gilgoon_fc1",0,0,2,48)
  ShowMessage("\\n<Gilgone>")
  ShowMessage("ふん、あと三十発程度は余裕だ！")
  ShowMessage("我が魔力、甘く見るでないぞ！")
  ShowMessageFace("ruka_fc1",0,0,2,49)
  ShowMessage("\\n<Luka>")
  ShowMessage("あ、あと三十発も……")
  ShowMessageFace("",0,0,2,50)
  ShowMessage("それだけ落とせば、城は更地になりかねない。")
  ShowMessage("だが、敵側も手をこまねいて見ているはずはなく――")
  ShowMessageFace("rejeo_fc1",1,0,2,51)
  ShowMessage("\\n<Rigeo>")
  ShowMessage("……見て！　城から敵が！！")
  250(bytes(0x04,0x08,0x6f,0x3a,0x0c,0x52,0x50,0x47,0x3a,0x3a,0x53,0x45,0x08,0x3a,0x0a,0x40,0x6e,0x61,0x6d,0x65,0x49,0x22,0x0a,0x57,0x69,0x6e,0x64,0x31,0x06,0x3a,0x06,0x45,0x54,0x3a,0x0b,0x40,0x70,0x69,0x74,0x63,0x68,0x69,0x69,0x3a,0x0c,0x40,0x76,0x6f,0x6c,0x75,0x6d,0x65,0x69,0x55))
  PictureDisplay(5,"iv_castle3",0,0,0,0,100,100,0,0)
  PictureMove(5,null,0,0,0,0,100,100,255,0,30,true)
  ShowMessageFace("",0,0,2,52)
  ShowMessage("魔城から舞い立ち、こちらへ飛来する無数の影。")
  ShowMessage("夢魔や魔物達が、攻撃を妨害すべく押し寄せてきたのだ――")
  PictureMove(5,null,0,0,0,0,100,100,0,0,30,true)
  PictureClear(5)
  If(0,4,0)
   ShowMessageFace("alice_fc5",2,0,2,53)
   ShowMessage("\\n<Alice>")
   ShowMessage("来たか……迎え撃つぞ！")
   0()
  EndIf()
  If(0,5,0)
   ShowMessageFace("iriasu_fc4",7,0,2,54)
   ShowMessage("\\n<Ilias>")
   ShowMessage("来ましたね……迎え撃ちますよ！")
   0()
  EndIf()
  ShowMessageFace("kazuya_fc1",0,0,2,55)
  ShowMessage("\\n<Kazuya>")
  ShowMessage("ああ、任せろ！")
  ShowMessage("ギルゴーンには近付けさせない！")
  ShowMessageFace("byakunen_fc1",0,0,2,56)
  ShowMessage("\\n<Hakunen>")
  ShowMessage("わ、私も頑張ります……！")
  Battle(0,1400,false,false)
  ChangeSwitch(31,39,1)
  TeleportPlayer(0,944,0,0,0,2)
  0()
