﻿# -*- encoding: utf-8 -*-
=begin
=図鑑_地名データ設定セクション by Foo

図鑑の地名に関するデータを登録します

==更新履歴
Date     Version Author Comment
13/07/24 1.0,0   Foo    新設


=end

#==============================================================================
# ■ NWConst::Library
#==============================================================================
module NWConst::Library  
  # 図鑑用地名
  # 文字列はシンボルで統一してください
  PLACE = [
    :イリアスヴィル,
    :イリアス神殿,
    :イリアスベルク,
    :名も無きスラム,
    :ポルノフ,
    :ハピネス村,
    :ハーピーの集落,
    :ミダス村,
    :エンリカ,
    :ロストルム村,
    :イリアスポート,
    :ナタリアポート,
    :ラダイト村,
    :サン・イリア,
    :地下図書館,
    :モンテカルロ,
    :ルビアナ,
    :サバサ,
    :グランドール,
    :マギステア村,
    :リリィの館,
    :サルーン,
    :マールポート,
    :海軍本部,
    :フィノア,
    :グランドノア,
    :ヤマタイ村,
    :エスタ,
    :プランセクト村,
    :リマ村廃墟,
    :ゴッダール,
    :グランゴルド,
    :ゴルドポート,
    :サキュバスの村,
    :貴婦人の村,
    :滅びの地,
    :エルフの里,
    :きつねの里,
    :たぬきの里,
    :スノウヘブン,
    :ポケット魔王城,
    :ミトラ封印城,
    :タルタロス（イリアス大陸南）,
    :メダル女王の城,
    :タルタロス（イリアス大陸東）,
    :北のお化け屋敷,
    :タルタロス（サバサ大陸北）,
    :おさかな号,
    :魔導学園,
    :タルタロス（ゴルド大陸西）,
    :幽霊船,
    :雪のほこら,
    :ヘルゴンドのほこら,
    :罪人の封牢,
    :タルタロス（ヘルゴンド大陸西）,
    :ドレインラボ,
    :バイオラボ,
    :レミナ研究所,
    :タルタロス（ゴルド大陸中央）,
    :カオスフィールド,
    :試しの洞窟,
    :イリナ山地北の洞窟,
    :イリナ山地南の洞窟,
    :ポルノフ鉱山,
    :ハーピーの塔,
    :ナメクジタワー,
    :ミダス廃鉱,
    :ロストルム山地洞窟,
    :秘宝の洞窟,
    :南の海底神殿,
    :古代神殿跡,
    :求道者の洞窟,
    :ピラミッド,
    :魔導の塔,
    :サルーン廃鉱,
    :マール大回廊,
    :大海賊の洞窟,
    :管理者の塔,
    :化石鉱山,
    :ヤマタイへの洞窟,
    :オロチの洞,
    :迷宮への洞窟,
    :ミノタウロスの迷宮,
    :ウンディーネの泉,
    :ゴルド砦,
    :溶岩鉱窟,
    :ゴルド火山洞窟,
    :吸血鬼の魔城,
    :北の海底神殿,
    :忘れられし塔,
    :世界樹,
    :孤独の地,
    :人形遣いの塔,
    :雪越えの洞窟,
    :創世の館,
    :ヘルゴンドの洞窟,
    :魔王城,
    :イリアスヴィルの裏山,
    :タラスの丘,
    :迷いの森,
    :レムズ海岸,
    :ナタリア海岸,
    :聖山アモス,
    :精霊の森,
    :カルロスの丘,
    :恵みのオアシス,
    :サファル砂漠遺跡,
    :サルーンの丘,
    :レド山,
    :ライラの大滝,
    :ゴルド東の大毒沼,
    :ゴルド海岸,
    :進軍の丘,
    :風光明媚の丘,
    :悪夢の荒野,
    :妖精の島,
    :蓬莱山,
    :イリアス神殿跡,
    :サキュバスの村（異世界）,
    :ヘルゴンドの洞窟（異世界）,
    :ヘルゴンド大陸（異世界）,
    :魔王城（異世界）,
    :コラボシナリオ,
    :ダミー,
    :ダミー,
    :ダミー,
    :ダミー,
    :ダミー,
    :ダミー,
    :ダミー,
    :ダミー,
    :ダミー,
    :ダミー,
    :ダミー,
    :ダミー,
    :ダミー,
    :ダミー,
    :ダミー,
    :ダミー,
    :ダミー,
    :ダミー,
    :ダミー,
    :ダミー,
    :ダミー,
    :ダミー,
    :ダミー,
    :ダミー,
    :ダミー,
    :ダミー,
    :ダミー,
    :ダミー,
    :ダミー,
    :ダミー,
    :ダミー,
    :ダミー,
    :ダミー,
    :ダミー,
    :ダミー,
    :ダミー,
    :ダミー,
    :ダミー,
    :ダミー,
    :ダミー,
    :ダミー,
    :ダミー,
    :ダミー,
    :ダミー,
    :ダミー,
    :ダミー,
    :ダミー,
    :ダミー,
    :イリアスヴィル周辺,
    :イリアスベルク周辺,
    :名も無きスラム周辺,
    :ポルノフ周辺,
    :ハピネス村周辺,
    :イリアスポート周辺,
    :ナタリア地域東部,
    :ナタリア地域西部,
    :サバサ砂漠南部,
    :サバサ砂漠北部,
    :マギステア村周辺,
    :マールポート周辺,
    :内海,
    :グランドノア周辺,
    :ヤマタイ周辺,
    :エスタ周辺,
    :グランゴルド周辺,
    :サキュバスの村周辺,
    :滅びの地周辺,
    :外海,
    :妖精の島周辺,
    :ヘルゴンド大陸,
    :スノウヘブン周辺,
    :フィールド（天界）,
    :フィールド（魔界）,
    :各地,
    :イリアスヴィル周辺（異世界）,
    :イリアスヴィル（異世界）,
    :ロストルム村（異世界）,
    :料理,
    :カジノ景品（ポルノフ）,
    :カジノ景品（グランドール）,
    :カジノ景品（ポケット魔王城）,
    :コロシアム景品,
    :バトルファック景品,
    :レミナ（異世界）,
  ]
end

